[
  {
    "link_thumb": "https://live.staticflickr.com/65535/49711280377_8c21cafc03_n.jpg",
    "id_album": "523598895",
    "description": "Artistic_242063",
    "title": "Artistic_242063",
    "link_img": "https://live.staticflickr.com/65535/49711280377_8fafef5c65_o.jpg",
    "id_image": "Artistic_242063",
    "count_view": 0
  },
  {
    "link_thumb": "https://live.staticflickr.com/65535/49712705946_aa3d034848_n.jpg",
    "id_album": "-1207759647",
    "description": "Zodiac_480668",
    "title": "Zodiac_480668",
    "link_img": "https://live.staticflickr.com/65535/49712705946_4c186ced62_o.jpg",
    "id_image": "Zodiac_480668",
    "count_view": 0
  },
  {
    "link_thumb": "https://live.staticflickr.com/65535/49711503468_c3b7b59c97_n.jpg",
    "id_album": "1892085513",
    "description": "Oriental_274506",
    "title": "Oriental_274506",
    "link_img": "https://live.staticflickr.com/65535/49711503468_81d42689c4_o.jpg",
    "id_image": "Oriental_274506",
    "count_view": 0
  },
  {
    "link_thumb": "https://live.staticflickr.com/65535/49711850276_a39d13f1c6_n.jpg",
    "id_album": "1402713104",
    "description": "Landscape_880119",
    "title": "Landscape_880119",
    "link_img": "https://live.staticflickr.com/65535/49711850276_aa833f52cc_o.jpg",
    "id_image": "Landscape_880119",
    "count_view": 0
  },
  {
    "link_thumb": "https://live.staticflickr.com/65535/49711665501_effb3184a2_n.jpg",
    "id_album": "-1972042284",
    "description": "Fairy_438453",
    "title": "Fairy_438453",
    "link_img": "https://live.staticflickr.com/65535/49711665501_39d28b07a6_o.jpg",
    "id_image": "Fairy_438453",
    "count_view": 0
  },
  {
    "link_thumb": "https://live.staticflickr.com/65535/49712497336_684bc74f3c_n.jpg",
    "id_album": "-867594484",
    "description": "Women_526089",
    "title": "Women_526089",
    "link_img": "https://live.staticflickr.com/65535/49712497336_4106c8c5a5_o.jpg",
    "id_image": "Women_526089",
    "count_view": 0
  },
  {
    "link_thumb": "https://live.staticflickr.com/65535/49711387006_2980caf9ec_n.jpg",
    "id_album": "850176884",
    "description": "Dragon_214281",
    "title": "Dragon_214281",
    "link_img": "https://live.staticflickr.com/65535/49711387006_05b4d930f6_o.jpg",
    "id_image": "Dragon_214281",
    "count_view": 0
  },
  {
    "link_thumb": "https://live.staticflickr.com/65535/49710601133_53b970234e_n.jpg",
    "id_album": "-1964113117",
    "description": "City_982831",
    "title": "City_982831",
    "link_img": "https://live.staticflickr.com/65535/49710601133_566f693fc3_o.jpg",
    "id_image": "City_982831",
    "count_view": 0
  },
  {
    "link_thumb": "https://live.staticflickr.com/65535/49710953086_d29774c906_n.jpg",
    "id_album": "523598895",
    "description": "Artistic_212499",
    "title": "Artistic_212499",
    "link_img": "https://live.staticflickr.com/65535/49710953086_84ce75bdb2_o.jpg",
    "id_image": "Artistic_212499",
    "count_view": 0
  },
  {
    "link_thumb": "https://live.staticflickr.com/65535/49711628768_a45d912237_n.jpg",
    "id_album": "405170427",
    "description": "Tiger_710735",
    "title": "Tiger_710735",
    "link_img": "https://live.staticflickr.com/65535/49711628768_811be255cf_o.jpg",
    "id_image": "Tiger_710735",
    "count_view": 0
  },
  {
    "link_thumb": "https://live.staticflickr.com/65535/49711350806_22860f9310_n.jpg",
    "id_album": "850176884",
    "description": "DRAGON26101916501651",
    "title": "DRAGON26101916501651",
    "link_img": "https://live.staticflickr.com/65535/49711350806_3e458ab33d_o.jpg",
    "id_image": "DRAGON26101916501651",
    "count_view": 0
  },
  {
    "link_thumb": "https://live.staticflickr.com/65535/49712226831_c1539eb6f5_n.jpg",
    "id_album": "-1261420436",
    "description": "Warrior_857500",
    "title": "Warrior_857500",
    "link_img": "https://live.staticflickr.com/65535/49712226831_60581ab3c0_o.jpg",
    "id_image": "Warrior_857500",
    "count_view": 0
  },
  {
    "link_thumb": "https://live.staticflickr.com/65535/49711076131_8bd835da0d_n.jpg",
    "id_album": "430704260",
    "description": "Child_158922",
    "title": "Child_158922",
    "link_img": "https://live.staticflickr.com/65535/49711076131_b3ab095343_o.jpg",
    "id_image": "Child_158922",
    "count_view": 0
  },
  {
    "link_thumb": "https://live.staticflickr.com/65535/49711627421_c97ab72ed1_n.jpg",
    "id_album": "134100487",
    "description": "Elf_684661",
    "title": "Elf_684661",
    "link_img": "https://live.staticflickr.com/65535/49711627421_22f5465814_o.jpg",
    "id_image": "Elf_684661",
    "count_view": 0
  },
  {
    "link_thumb": "https://live.staticflickr.com/65535/49712696517_35cfda6837_n.jpg",
    "id_album": "295204930",
    "description": "Women_304638",
    "title": "Women_304638",
    "link_img": "https://live.staticflickr.com/65535/49712696517_3e3b57179b_o.jpg",
    "id_image": "Women_304638",
    "count_view": 0
  },
  {
    "link_thumb": "https://live.staticflickr.com/65535/49711297858_b5e8dc673c_n.jpg",
    "id_album": "1402713104",
    "description": "Landscape_864099",
    "title": "Landscape_864099",
    "link_img": "https://live.staticflickr.com/65535/49711297858_651e55cc1a_o.jpg",
    "id_image": "Landscape_864099",
    "count_view": 0
  },
  {
    "link_thumb": "https://live.staticflickr.com/65535/49711380027_ccc8685770_n.jpg",
    "id_album": "-1541846310",
    "description": "Castle_727583",
    "title": "Castle_727583",
    "link_img": "https://live.staticflickr.com/65535/49711380027_d00cb4997c_o.jpg",
    "id_image": "Castle_727583",
    "count_view": 0
  },
  {
    "link_thumb": "https://live.staticflickr.com/65535/49712050592_51df36e502_n.jpg",
    "id_album": "-128218148",
    "description": "Fox_962150",
    "title": "Fox_962150",
    "link_img": "https://live.staticflickr.com/65535/49712050592_95c8b5bf57_o.jpg",
    "id_image": "Fox_962150",
    "count_view": 0
  },
  {
    "link_thumb": "https://live.staticflickr.com/65535/49710870276_3108bb1e12_n.jpg",
    "id_album": "-956471126",
    "description": "AliceInWonderland_167439",
    "title": "AliceInWonderland_167439",
    "link_img": "https://live.staticflickr.com/65535/49710870276_a88a1719ed_o.jpg",
    "id_image": "AliceInWonderland_167439",
    "count_view": 0
  },
  {
    "link_thumb": "https://live.staticflickr.com/65535/49711703986_37082c84e7_n.jpg",
    "id_album": "-1083189875",
    "description": "Forest_685506",
    "title": "Forest_685506",
    "link_img": "https://live.staticflickr.com/65535/49711703986_73779e78d8_o.jpg",
    "id_image": "Forest_685506",
    "count_view": 0
  },
  {
    "link_thumb": "https://live.staticflickr.com/65535/49710526848_401664d502_n.jpg",
    "id_album": "-1541846310",
    "description": "Castle_868836",
    "title": "Castle_868836",
    "link_img": "https://live.staticflickr.com/65535/49710526848_51244dc2ec_o.jpg",
    "id_image": "Castle_868836",
    "count_view": 0
  },
  {
    "link_thumb": "https://live.staticflickr.com/65535/49711514207_d447aab86a_n.jpg",
    "id_album": "-437872736",
    "description": "Creature_312979",
    "title": "Creature_312979",
    "link_img": "https://live.staticflickr.com/65535/49711514207_50a955304c_o.jpg",
    "id_image": "Creature_312979",
    "count_view": 0
  },
  {
    "link_thumb": "https://live.staticflickr.com/65535/49711351261_64d5692b12_n.jpg",
    "id_album": "850176884",
    "description": "DRAGON26101916502259",
    "title": "DRAGON26101916502259",
    "link_img": "https://live.staticflickr.com/65535/49711351261_ba99108289_o.jpg",
    "id_image": "DRAGON26101916502259",
    "count_view": 0
  },
  {
    "link_thumb": "https://live.staticflickr.com/65535/49712015728_5f3161ea17_n.jpg",
    "id_album": "-1675918237",
    "description": "WomenWarrior_261835",
    "title": "WomenWarrior_261835",
    "link_img": "https://live.staticflickr.com/65535/49712015728_d803f5250e_o.jpg",
    "id_image": "WomenWarrior_261835",
    "count_view": 0
  },
  {
    "link_thumb": "https://live.staticflickr.com/65535/49711227477_4612efcd3d_n.jpg",
    "id_album": "-1913845949",
    "description": "Animal_559359",
    "title": "Animal_559359",
    "link_img": "https://live.staticflickr.com/65535/49711227477_051def6269_o.jpg",
    "id_image": "Animal_559359",
    "count_view": 0
  },
  {
    "link_thumb": "https://live.staticflickr.com/65535/49710790003_7a80160d7b_n.jpg",
    "id_album": "1903411565",
    "description": "Deer_212704",
    "title": "Deer_212704",
    "link_img": "https://live.staticflickr.com/65535/49710790003_6886f9d5e9_o.jpg",
    "id_image": "Deer_212704",
    "count_view": 0
  },
  {
    "link_thumb": "https://live.staticflickr.com/65535/49711451066_c9148ec7d7_n.jpg",
    "id_album": "850176884",
    "description": "Dragon_451181",
    "title": "Dragon_451181",
    "link_img": "https://live.staticflickr.com/65535/49711451066_3e471dd8c1_o.jpg",
    "id_image": "Dragon_451181",
    "count_view": 0
  },
  {
    "link_thumb": "https://live.staticflickr.com/65535/49710908673_2409e20f3f_n.jpg",
    "id_album": "850176884",
    "description": "Dragon_429138",
    "title": "Dragon_429138",
    "link_img": "https://live.staticflickr.com/65535/49710908673_bccd760d65_o.jpg",
    "id_image": "Dragon_429138",
    "count_view": 0
  },
  {
    "link_thumb": "https://live.staticflickr.com/65535/49711696561_a4e84bb015_n.jpg",
    "id_album": "-1083189875",
    "description": "Forest_445721",
    "title": "Forest_445721",
    "link_img": "https://live.staticflickr.com/65535/49711696561_d23b1843d8_o.jpg",
    "id_image": "Forest_445721",
    "count_view": 0
  },
  {
    "link_thumb": "https://live.staticflickr.com/65535/49712155371_c2f8b1ac72_n.jpg",
    "id_album": "1186644325",
    "description": "Tattoo_404315",
    "title": "Tattoo_404315",
    "link_img": "https://live.staticflickr.com/65535/49712155371_455b82fe1d_o.jpg",
    "id_image": "Tattoo_404315",
    "count_view": 0
  },
  {
    "link_thumb": "https://live.staticflickr.com/65535/49710608343_2799e3803e_n.jpg",
    "id_album": "-437872736",
    "description": "Creature_147408",
    "title": "Creature_147408",
    "link_img": "https://live.staticflickr.com/65535/49710608343_431ec0220b_o.jpg",
    "id_image": "Creature_147408",
    "count_view": 0
  },
  {
    "link_thumb": "https://live.staticflickr.com/65535/49712248332_9eb18b05cd_n.jpg",
    "id_album": "-833110404",
    "description": "Landscape_310355",
    "title": "Landscape_310355",
    "link_img": "https://live.staticflickr.com/65535/49712248332_40ff8579b6_o.jpg",
    "id_image": "Landscape_310355",
    "count_view": 0
  },
  {
    "link_thumb": "https://live.staticflickr.com/65535/49711186723_c40f13c024_n.jpg",
    "id_album": "-1083189875",
    "description": "Forest_931796",
    "title": "Forest_931796",
    "link_img": "https://live.staticflickr.com/65535/49711186723_aef58ddf50_o.jpg",
    "id_image": "Forest_931796",
    "count_view": 0
  },
  {
    "link_thumb": "https://live.staticflickr.com/65535/49712850812_0b43695d05_n.jpg",
    "id_album": "-867594484",
    "description": "Women_653556",
    "title": "Women_653556",
    "link_img": "https://live.staticflickr.com/65535/49712850812_7705cddb37_o.jpg",
    "id_image": "Women_653556",
    "count_view": 0
  },
  {
    "link_thumb": "https://live.staticflickr.com/65535/49711924111_63c45b63d9_n.jpg",
    "id_album": "-833110404",
    "description": "Landscape_307415",
    "title": "Landscape_307415",
    "link_img": "https://live.staticflickr.com/65535/49711924111_dafab95f5e_o.jpg",
    "id_image": "Landscape_307415",
    "count_view": 0
  },
  {
    "link_thumb": "https://live.staticflickr.com/65535/49710621393_9b305c224d_n.jpg",
    "id_album": "-437872736",
    "description": "Creature_208887",
    "title": "Creature_208887",
    "link_img": "https://live.staticflickr.com/65535/49710621393_cc108d852d_o.jpg",
    "id_image": "Creature_208887",
    "count_view": 0
  },
  {
    "link_thumb": "https://live.staticflickr.com/65535/49711312972_01b1d27649_n.jpg",
    "id_album": "1187037014",
    "description": "Battle_269637",
    "title": "Battle_269637",
    "link_img": "https://live.staticflickr.com/65535/49711312972_53c9e61d6a_o.jpg",
    "id_image": "Battle_269637",
    "count_view": 0
  },
  {
    "link_thumb": "https://live.staticflickr.com/65535/49710413263_2a72dcd8f3_n.jpg",
    "id_album": "523598895",
    "description": "Artistic_163477",
    "title": "Artistic_163477",
    "link_img": "https://live.staticflickr.com/65535/49710413263_dbeed72395_o.jpg",
    "id_image": "Artistic_163477",
    "count_view": 0
  },
  {
    "link_thumb": "https://live.staticflickr.com/65535/49711360151_0fe633146d_n.jpg",
    "id_album": "850176884",
    "description": "Dragon_122292",
    "title": "Dragon_122292",
    "link_img": "https://live.staticflickr.com/65535/49711360151_c288dd7401_o.jpg",
    "id_image": "Dragon_122292",
    "count_view": 0
  },
  {
    "link_thumb": "https://live.staticflickr.com/65535/49712190062_c9ff30e061_n.jpg",
    "id_album": "1402713104",
    "description": "Landscape_947447",
    "title": "Landscape_947447",
    "link_img": "https://live.staticflickr.com/65535/49712190062_7e3e1ec37b_o.jpg",
    "id_image": "Landscape_947447",
    "count_view": 0
  },
  {
    "link_thumb": "https://live.staticflickr.com/65535/49711970028_3180eed8ba_n.jpg",
    "id_album": "-867594484",
    "description": "Women_554882",
    "title": "Women_554882",
    "link_img": "https://live.staticflickr.com/65535/49711970028_52e7a24dd2_o.jpg",
    "id_image": "Women_554882",
    "count_view": 0
  },
  {
    "link_thumb": "https://live.staticflickr.com/65535/49710848248_36462becde_n.jpg",
    "id_album": "850176884",
    "description": "Dragon_203809",
    "title": "Dragon_203809",
    "link_img": "https://live.staticflickr.com/65535/49710848248_03037c70b7_o.jpg",
    "id_image": "Dragon_203809",
    "count_view": 0
  },
  {
    "link_thumb": "https://live.staticflickr.com/65535/49710737123_2dc7d5dbdb_n.jpg",
    "id_album": "-437872736",
    "description": "Creature_919140",
    "title": "Creature_919140",
    "link_img": "https://live.staticflickr.com/65535/49710737123_47f0a29670_o.jpg",
    "id_image": "Creature_919140",
    "count_view": 0
  },
  {
    "link_thumb": "https://live.staticflickr.com/65535/49711104031_13f59ed975_n.jpg",
    "id_album": "-1964113117",
    "description": "City_516509",
    "title": "City_516509",
    "link_img": "https://live.staticflickr.com/65535/49711104031_c3e2032336_o.jpg",
    "id_image": "City_516509",
    "count_view": 0
  },
  {
    "link_thumb": "https://live.staticflickr.com/65535/49711760997_e28ebddfe2_n.jpg",
    "id_album": "850176884",
    "description": "Dragon_391103",
    "title": "Dragon_391103",
    "link_img": "https://live.staticflickr.com/65535/49711760997_9f963f7a32_o.jpg",
    "id_image": "Dragon_391103",
    "count_view": 0
  },
  {
    "link_thumb": "https://live.staticflickr.com/65535/49711745893_0e86fb7faf_n.jpg",
    "id_album": "-709711865",
    "description": "Wolf_635013",
    "title": "Wolf_635013",
    "link_img": "https://live.staticflickr.com/65535/49711745893_9c374105b3_o.jpg",
    "id_image": "Wolf_635013",
    "count_view": 0
  },
  {
    "link_thumb": "https://live.staticflickr.com/65535/49711113856_2fd3145fc6_n.jpg",
    "id_album": "-1964113117",
    "description": "City_699949",
    "title": "City_699949",
    "link_img": "https://live.staticflickr.com/65535/49711113856_b2254c9574_o.jpg",
    "id_image": "City_699949",
    "count_view": 0
  },
  {
    "link_thumb": "https://live.staticflickr.com/65535/49712702301_a83e369eba_n.jpg",
    "id_album": "-1675918237",
    "description": "WomenWarrior_969932",
    "title": "WomenWarrior_969932",
    "link_img": "https://live.staticflickr.com/65535/49712702301_1010b25e37_o.jpg",
    "id_image": "WomenWarrior_969932",
    "count_view": 0
  },
  {
    "link_thumb": "https://live.staticflickr.com/65535/49712699706_913e272d29_n.jpg",
    "id_album": "-1675918237",
    "description": "WomenWarrior_925005",
    "title": "WomenWarrior_925005",
    "link_img": "https://live.staticflickr.com/65535/49712699706_99c4cdbb74_o.jpg",
    "id_image": "WomenWarrior_925005",
    "count_view": 0
  },
  {
    "link_thumb": "https://live.staticflickr.com/65535/49712134786_79369d8ea0_n.jpg",
    "id_album": "-395228614",
    "description": "Ship_432327",
    "title": "Ship_432327",
    "link_img": "https://live.staticflickr.com/65535/49712134786_44a3d44200_o.jpg",
    "id_image": "Ship_432327",
    "count_view": 0
  },
  {
    "link_thumb": "https://live.staticflickr.com/65535/49711561481_6b47893876_n.jpg",
    "id_album": "850176884",
    "description": "Dragon_911863",
    "title": "Dragon_911863",
    "link_img": "https://live.staticflickr.com/65535/49711561481_113691c7e7_o.jpg",
    "id_image": "Dragon_911863",
    "count_view": 0
  },
  {
    "link_thumb": "https://live.staticflickr.com/65535/49711244617_e7293cfde7_n.jpg",
    "id_album": "-1913845949",
    "description": "Animal_893474",
    "title": "Animal_893474",
    "link_img": "https://live.staticflickr.com/65535/49711244617_1343650762_o.jpg",
    "id_image": "Animal_893474",
    "count_view": 0
  },
  {
    "link_thumb": "https://live.staticflickr.com/65535/49711023548_b24f7ff1ed_n.jpg",
    "id_album": "850176884",
    "description": "Dragon_909531",
    "title": "Dragon_909531",
    "link_img": "https://live.staticflickr.com/65535/49711023548_d4774475e1_o.jpg",
    "id_image": "Dragon_909531",
    "count_view": 0
  },
  {
    "link_thumb": "https://live.staticflickr.com/65535/49711522051_d4e7e27b7f_n.jpg",
    "id_album": "850176884",
    "description": "Dragon_76707",
    "title": "Dragon_76707",
    "link_img": "https://live.staticflickr.com/65535/49711522051_4c49356414_o.jpg",
    "id_image": "Dragon_76707",
    "count_view": 0
  },
  {
    "link_thumb": "https://live.staticflickr.com/65535/49711654802_8701623c18_n.jpg",
    "id_album": "1903411565",
    "description": "Deer_931811",
    "title": "Deer_931811",
    "link_img": "https://live.staticflickr.com/65535/49711654802_021e13a070_o.jpg",
    "id_image": "Deer_931811",
    "count_view": 0
  },
  {
    "link_thumb": "https://live.staticflickr.com/65535/49711713337_439be199d1_n.jpg",
    "id_album": "850176884",
    "description": "Dragon_232132",
    "title": "Dragon_232132",
    "link_img": "https://live.staticflickr.com/65535/49711713337_efb31b15e1_o.jpg",
    "id_image": "Dragon_232132",
    "count_view": 0
  },
  {
    "link_thumb": "https://live.staticflickr.com/65535/49710907573_3ff6b83b01_n.jpg",
    "id_album": "850176884",
    "description": "Dragon_41519",
    "title": "Dragon_41519",
    "link_img": "https://live.staticflickr.com/65535/49710907573_89d08495a5_o.jpg",
    "id_image": "Dragon_41519",
    "count_view": 0
  },
  {
    "link_thumb": "https://live.staticflickr.com/65535/49711915246_4f432d8479_n.jpg",
    "id_album": "-833110404",
    "description": "Landscape_290975",
    "title": "Landscape_290975",
    "link_img": "https://live.staticflickr.com/65535/49711915246_6f9e402a45_o.jpg",
    "id_image": "Landscape_290975",
    "count_view": 0
  },
  {
    "link_thumb": "https://live.staticflickr.com/65535/49712506756_a340acd65b_n.jpg",
    "id_album": "-867594484",
    "description": "Women_562218",
    "title": "Women_562218",
    "link_img": "https://live.staticflickr.com/65535/49712506756_c7da316244_o.jpg",
    "id_image": "Women_562218",
    "count_view": 0
  },
  {
    "link_thumb": "https://live.staticflickr.com/65535/49711186626_11984d2f03_n.jpg",
    "id_album": "-437872736",
    "description": "Creature_310350",
    "title": "Creature_310350",
    "link_img": "https://live.staticflickr.com/65535/49711186626_009dcff995_o.jpg",
    "id_image": "Creature_310350",
    "count_view": 0
  },
  {
    "link_thumb": "https://live.staticflickr.com/65535/49711256853_02d664966f_n.jpg",
    "id_album": "469960528",
    "description": "Knight_983991",
    "title": "Knight_983991",
    "link_img": "https://live.staticflickr.com/65535/49711256853_b993fbb7f7_o.jpg",
    "id_image": "Knight_983991",
    "count_view": 0
  },
  {
    "link_thumb": "https://live.staticflickr.com/65535/49711441587_71ea18fdca_n.jpg",
    "id_album": "-1964113117",
    "description": "City_774088",
    "title": "City_774088",
    "link_img": "https://live.staticflickr.com/65535/49711441587_0227b1673b_o.jpg",
    "id_image": "City_774088",
    "count_view": 0
  },
  {
    "link_thumb": "https://live.staticflickr.com/65535/49712286711_40faa6f6d8_n.jpg",
    "id_album": "-709711865",
    "description": "Wolf_697373",
    "title": "Wolf_697373",
    "link_img": "https://live.staticflickr.com/65535/49712286711_03fd3eba91_o.jpg",
    "id_image": "Wolf_697373",
    "count_view": 0
  },
  {
    "link_thumb": "https://live.staticflickr.com/65535/49712854272_b46535bd76_n.jpg",
    "id_album": "-867594484",
    "description": "Women_676872",
    "title": "Women_676872",
    "link_img": "https://live.staticflickr.com/65535/49712854272_3d26a8726f_o.jpg",
    "id_image": "Women_676872",
    "count_view": 0
  },
  {
    "link_thumb": "https://live.staticflickr.com/65535/49711137551_dcfacfa94f_n.jpg",
    "id_album": "-1964113117",
    "description": "City_989247",
    "title": "City_989247",
    "link_img": "https://live.staticflickr.com/65535/49711137551_ef8e72eb10_o.jpg",
    "id_image": "City_989247",
    "count_view": 0
  },
  {
    "link_thumb": "https://live.staticflickr.com/65535/49711509483_c7c76bd768_n.jpg",
    "id_album": "1892085513",
    "description": "Oriental_388267",
    "title": "Oriental_388267",
    "link_img": "https://live.staticflickr.com/65535/49711509483_cc0d6717dc_o.jpg",
    "id_image": "Oriental_388267",
    "count_view": 0
  },
  {
    "link_thumb": "https://live.staticflickr.com/65535/49711801653_2098a17b9d_n.jpg",
    "id_album": "-1126835654",
    "description": "Women_912823",
    "title": "Women_912823",
    "link_img": "https://live.staticflickr.com/65535/49711801653_642f7d1894_o.jpg",
    "id_image": "Women_912823",
    "count_view": 0
  },
  {
    "link_thumb": "https://live.staticflickr.com/65535/49711506718_08a76ae9e0_n.jpg",
    "id_album": "1892085513",
    "description": "Oriental_309781",
    "title": "Oriental_309781",
    "link_img": "https://live.staticflickr.com/65535/49711506718_5621b6704f_o.jpg",
    "id_image": "Oriental_309781",
    "count_view": 0
  },
  {
    "link_thumb": "https://live.staticflickr.com/65535/49711267123_14c21b3261_n.jpg",
    "id_album": "1402713104",
    "description": "Landscape_688185",
    "title": "Landscape_688185",
    "link_img": "https://live.staticflickr.com/65535/49711267123_b103c5b808_o.jpg",
    "id_image": "Landscape_688185",
    "count_view": 0
  },
  {
    "link_thumb": "https://live.staticflickr.com/65535/49710806883_7c845f5a2d_n.jpg",
    "id_album": "7198985",
    "description": "Demon_81912",
    "title": "Demon_81912",
    "link_img": "https://live.staticflickr.com/65535/49710806883_9cb83f87d1_o.jpg",
    "id_image": "Demon_81912",
    "count_view": 0
  },
  {
    "link_thumb": "https://live.staticflickr.com/65535/49712543902_656e7efacd_n.jpg",
    "id_album": "-1261420436",
    "description": "Warrior_711449",
    "title": "Warrior_711449",
    "link_img": "https://live.staticflickr.com/65535/49712543902_b9a46a024a_o.jpg",
    "id_image": "Warrior_711449",
    "count_view": 0
  },
  {
    "link_thumb": "https://live.staticflickr.com/65535/49711315252_b2bf4974d1_n.jpg",
    "id_album": "1187037014",
    "description": "Battle_306031",
    "title": "Battle_306031",
    "link_img": "https://live.staticflickr.com/65535/49711315252_74ef938e21_o.jpg",
    "id_image": "Battle_306031",
    "count_view": 0
  },
  {
    "link_thumb": "https://live.staticflickr.com/65535/49711146733_e9f090a418_n.jpg",
    "id_album": "-1972042284",
    "description": "Fairy_748314",
    "title": "Fairy_748314",
    "link_img": "https://live.staticflickr.com/65535/49711146733_6afb55c642_o.jpg",
    "id_image": "Fairy_748314",
    "count_view": 0
  },
  {
    "link_thumb": "https://live.staticflickr.com/65535/49710646363_61e19f92ee_n.jpg",
    "id_album": "-437872736",
    "description": "Creature_301255",
    "title": "Creature_301255",
    "link_img": "https://live.staticflickr.com/65535/49710646363_29c904d891_o.jpg",
    "id_image": "Creature_301255",
    "count_view": 0
  },
  {
    "link_thumb": "https://live.staticflickr.com/65535/49711223972_020cf91dd4_n.jpg",
    "id_album": "-1913845949",
    "description": "Animal_332012",
    "title": "Animal_332012",
    "link_img": "https://live.staticflickr.com/65535/49711223972_8e2b085a28_o.jpg",
    "id_image": "Animal_332012",
    "count_view": 0
  },
  {
    "link_thumb": "https://live.staticflickr.com/65535/49711883482_2a0bedce14_n.jpg",
    "id_album": "850176884",
    "description": "Dragon_911096",
    "title": "Dragon_911096",
    "link_img": "https://live.staticflickr.com/65535/49711883482_1bf83569b0_o.jpg",
    "id_image": "Dragon_911096",
    "count_view": 0
  },
  {
    "link_thumb": "https://live.staticflickr.com/65535/49711585523_4a053d9277_n.jpg",
    "id_album": "407101116",
    "description": "SeaMonster_343572",
    "title": "SeaMonster_343572",
    "link_img": "https://live.staticflickr.com/65535/49711585523_98d2f28f6c_o.jpg",
    "id_image": "SeaMonster_343572",
    "count_view": 0
  },
  {
    "link_thumb": "https://live.staticflickr.com/65535/49711941881_3f283b06c6_n.jpg",
    "id_album": "-833110404",
    "description": "Landscape_418515",
    "title": "Landscape_418515",
    "link_img": "https://live.staticflickr.com/65535/49711941881_0092b582fa_o.jpg",
    "id_image": "Landscape_418515",
    "count_view": 0
  },
  {
    "link_thumb": "https://live.staticflickr.com/65535/49712446031_e437475fcd_n.jpg",
    "id_album": "1861288871",
    "description": "Women_493164",
    "title": "Women_493164",
    "link_img": "https://live.staticflickr.com/65535/49712446031_b7e1bc1ff2_o.jpg",
    "id_image": "Women_493164",
    "count_view": 0
  },
  {
    "link_thumb": "https://live.staticflickr.com/65535/49711150273_0958d26d54_n.jpg",
    "id_album": "-1972042284",
    "description": "Fairy_892937",
    "title": "Fairy_892937",
    "link_img": "https://live.staticflickr.com/65535/49711150273_6caeb80b37_o.jpg",
    "id_image": "Fairy_892937",
    "count_view": 0
  },
  {
    "link_thumb": "https://live.staticflickr.com/65535/49711689491_161f561b3b_n.jpg",
    "id_album": "-1083189875",
    "description": "Forest_152113",
    "title": "Forest_152113",
    "link_img": "https://live.staticflickr.com/65535/49711689491_f07822502b_o.jpg",
    "id_image": "Forest_152113",
    "count_view": 0
  },
  {
    "link_thumb": "https://live.staticflickr.com/65535/49712147598_b0a3435d9b_n.jpg",
    "id_album": "-1675918237",
    "description": "WomenWarrior_847567",
    "title": "WomenWarrior_847567",
    "link_img": "https://live.staticflickr.com/65535/49712147598_291cedd819_o.jpg",
    "id_image": "WomenWarrior_847567",
    "count_view": 0
  },
  {
    "link_thumb": "https://live.staticflickr.com/65535/49710949813_f089192f10_n.jpg",
    "id_album": "850176884",
    "description": "Dragon_574939",
    "title": "Dragon_574939",
    "link_img": "https://live.staticflickr.com/65535/49710949813_4e86b17a6d_o.jpg",
    "id_image": "Dragon_574939",
    "count_view": 0
  },
  {
    "link_thumb": "https://live.staticflickr.com/65535/49710369493_94229f626f_n.jpg",
    "id_album": "-1913845949",
    "description": "Animal_551915",
    "title": "Animal_551915",
    "link_img": "https://live.staticflickr.com/65535/49710369493_363f36d109_o.jpg",
    "id_image": "Animal_551915",
    "count_view": 0
  },
  {
    "link_thumb": "https://live.staticflickr.com/65535/49712268951_8c503768f7_n.jpg",
    "id_album": "-656526651",
    "description": "Wizard_955763",
    "title": "Wizard_955763",
    "link_img": "https://live.staticflickr.com/65535/49712268951_10d66a5282_o.jpg",
    "id_image": "Wizard_955763",
    "count_view": 0
  },
  {
    "link_thumb": "https://live.staticflickr.com/65535/49710953471_041d81c9e3_n.jpg",
    "id_album": "523598895",
    "description": "Artistic_215202",
    "title": "Artistic_215202",
    "link_img": "https://live.staticflickr.com/65535/49710953471_0764a0eb4c_o.jpg",
    "id_image": "Artistic_215202",
    "count_view": 0
  },
  {
    "link_thumb": "https://live.staticflickr.com/65535/49710916261_7440eccf1e_n.jpg",
    "id_album": "-1913845949",
    "description": "Animal_787041",
    "title": "Animal_787041",
    "link_img": "https://live.staticflickr.com/65535/49710916261_cd12ed3616_o.jpg",
    "id_image": "Animal_787041",
    "count_view": 0
  },
  {
    "link_thumb": "https://live.staticflickr.com/65535/49712608212_20c18e0f4b_n.jpg",
    "id_album": "-709711865",
    "description": "Wolf_680906",
    "title": "Wolf_680906",
    "link_img": "https://live.staticflickr.com/65535/49712608212_030a86cd22_o.jpg",
    "id_image": "Wolf_680906",
    "count_view": 0
  },
  {
    "link_thumb": "https://live.staticflickr.com/65535/49711229112_c690508546_n.jpg",
    "id_album": "-1913845949",
    "description": "Animal_636027",
    "title": "Animal_636027",
    "link_img": "https://live.staticflickr.com/65535/49711229112_36d4245a71_o.jpg",
    "id_image": "Animal_636027",
    "count_view": 0
  },
  {
    "link_thumb": "https://live.staticflickr.com/65535/49711588116_778792e8d7_n.jpg",
    "id_album": "850176884",
    "description": "Dragon_980626",
    "title": "Dragon_980626",
    "link_img": "https://live.staticflickr.com/65535/49711588116_146b3b8bb1_o.jpg",
    "id_image": "Dragon_980626",
    "count_view": 0
  },
  {
    "link_thumb": "https://live.staticflickr.com/65535/49711797846_0c2b0e2937_n.jpg",
    "id_album": "1402713104",
    "description": "Landscape_669413",
    "title": "Landscape_669413",
    "link_img": "https://live.staticflickr.com/65535/49711797846_9a341be292_o.jpg",
    "id_image": "Landscape_669413",
    "count_view": 0
  },
  {
    "link_thumb": "https://live.staticflickr.com/65535/49712426276_7fd307cd1b_n.jpg",
    "id_album": "1861288871",
    "description": "Women_135594",
    "title": "Women_135594",
    "link_img": "https://live.staticflickr.com/65535/49712426276_7782905e50_o.jpg",
    "id_image": "Women_135594",
    "count_view": 0
  },
  {
    "link_thumb": "https://live.staticflickr.com/65535/49712437812_af8d250536_n.jpg",
    "id_album": "-1611961467",
    "description": "Samurai_982283",
    "title": "Samurai_982283",
    "link_img": "https://live.staticflickr.com/65535/49712437812_8084e4b4a6_o.jpg",
    "id_image": "Samurai_982283",
    "count_view": 0
  },
  {
    "link_thumb": "https://live.staticflickr.com/65535/49711443568_ea62880586_n.jpg",
    "id_album": "-1284959130",
    "description": "LegendOfTheFiveRings_82265",
    "title": "LegendOfTheFiveRings_82265",
    "link_img": "https://live.staticflickr.com/65535/49711443568_c370d24a04_o.jpg",
    "id_image": "LegendOfTheFiveRings_82265",
    "count_view": 0
  },
  {
    "link_thumb": "https://live.staticflickr.com/65535/49712535346_272197ba7d_n.jpg",
    "id_album": "-867594484",
    "description": "Women_686945",
    "title": "Women_686945",
    "link_img": "https://live.staticflickr.com/65535/49712535346_2ef946c6eb_o.jpg",
    "id_image": "Women_686945",
    "count_view": 0
  },
  {
    "link_thumb": "https://live.staticflickr.com/65535/49710703688_4cc8579cc1_n.jpg",
    "id_album": "-437872736",
    "description": "Creature_511602",
    "title": "Creature_511602",
    "link_img": "https://live.staticflickr.com/65535/49710703688_c8368597a4_o.jpg",
    "id_image": "Creature_511602",
    "count_view": 0
  },
  {
    "link_thumb": "https://live.staticflickr.com/65535/49712021671_654c7f2882_n.jpg",
    "id_album": "-222719689",
    "description": "Men_970459",
    "title": "Men_970459",
    "link_img": "https://live.staticflickr.com/65535/49712021671_e962f4fef6_o.jpg",
    "id_image": "Men_970459",
    "count_view": 0
  },
  {
    "link_thumb": "https://live.staticflickr.com/65535/49711871142_c6f18807e8_n.jpg",
    "id_album": "850176884",
    "description": "Dragon_881064",
    "title": "Dragon_881064",
    "link_img": "https://live.staticflickr.com/65535/49711871142_621cfe490d_o.jpg",
    "id_image": "Dragon_881064",
    "count_view": 0
  },
  {
    "link_thumb": "https://live.staticflickr.com/65535/49711336663_c57e6bdb3f_n.jpg",
    "id_album": "1402713104",
    "description": "Landscape_956733",
    "title": "Landscape_956733",
    "link_img": "https://live.staticflickr.com/65535/49711336663_25704d84c5_o.jpg",
    "id_image": "Landscape_956733",
    "count_view": 0
  },
  {
    "link_thumb": "https://live.staticflickr.com/65535/49712520572_12d0440141_n.jpg",
    "id_album": "-1261420436",
    "description": "Warrior_165180",
    "title": "Warrior_165180",
    "link_img": "https://live.staticflickr.com/65535/49712520572_226118b33a_o.jpg",
    "id_image": "Warrior_165180",
    "count_view": 0
  },
  {
    "link_thumb": "https://live.staticflickr.com/65535/49712298282_58e30458f5_n.jpg",
    "id_album": "-1284959130",
    "description": "LegendOfTheFiveRings_219860",
    "title": "LegendOfTheFiveRings_219860",
    "link_img": "https://live.staticflickr.com/65535/49712298282_63067c463c_o.jpg",
    "id_image": "LegendOfTheFiveRings_219860",
    "count_view": 0
  },
  {
    "link_thumb": "https://live.staticflickr.com/65535/49711362132_0b3c983edc_n.jpg",
    "id_album": "-1541846310",
    "description": "Castle_222021",
    "title": "Castle_222021",
    "link_img": "https://live.staticflickr.com/65535/49711362132_a2256591cb_o.jpg",
    "id_image": "Castle_222021",
    "count_view": 0
  },
  {
    "link_thumb": "https://live.staticflickr.com/65535/49711788501_47b2e852a7_n.jpg",
    "id_album": "469960528",
    "description": "Knight_870444",
    "title": "Knight_870444",
    "link_img": "https://live.staticflickr.com/65535/49711788501_faca508b71_o.jpg",
    "id_image": "Knight_870444",
    "count_view": 0
  },
  {
    "link_thumb": "https://live.staticflickr.com/65535/49710807128_931f34b9c2_n.jpg",
    "id_album": "7198985",
    "description": "Demon_833371",
    "title": "Demon_833371",
    "link_img": "https://live.staticflickr.com/65535/49710807128_9274be69da_o.jpg",
    "id_image": "Demon_833371",
    "count_view": 0
  },
  {
    "link_thumb": "https://live.staticflickr.com/65535/49710353533_a2d3fd803a_n.jpg",
    "id_album": "-1000175186",
    "description": "AngelWarrior_801378",
    "title": "AngelWarrior_801378",
    "link_img": "https://live.staticflickr.com/65535/49710353533_b70caff791_o.jpg",
    "id_image": "AngelWarrior_801378",
    "count_view": 0
  },
  {
    "link_thumb": "https://live.staticflickr.com/65535/49711951412_485a673cbc_n.jpg",
    "id_album": "134100487",
    "description": "Elf_690875",
    "title": "Elf_690875",
    "link_img": "https://live.staticflickr.com/65535/49711951412_df9e4dd253_o.jpg",
    "id_image": "Elf_690875",
    "count_view": 0
  },
  {
    "link_thumb": "https://live.staticflickr.com/65535/49710827428_ed07313fc3_n.jpg",
    "id_album": "850176884",
    "description": "Dragon_122318",
    "title": "Dragon_122318",
    "link_img": "https://live.staticflickr.com/65535/49710827428_74463fea96_o.jpg",
    "id_image": "Dragon_122318",
    "count_view": 0
  },
  {
    "link_thumb": "https://live.staticflickr.com/65535/49710960023_61abe799da_n.jpg",
    "id_album": "850176884",
    "description": "Dragon_606122",
    "title": "Dragon_606122",
    "link_img": "https://live.staticflickr.com/65535/49710960023_9ced8f8cfb_o.jpg",
    "id_image": "Dragon_606122",
    "count_view": 0
  },
  {
    "link_thumb": "https://live.staticflickr.com/65535/49802268338_f533b597f3_n.jpg",
    "id_album": "-1703946758",
    "description": "ANIME_PIC_7609a391ecee16c9c189a645e7bc7f49",
    "title": "ANIME_PIC_7609a391ecee16c9c189a645e7bc7f49",
    "link_img": "https://live.staticflickr.com/65535/49802268338_36a9866211_o.jpg",
    "id_image": "ANIME_PIC_7609a391ecee16c9c189a645e7bc7f49",
    "count_view": 0
  },
  {
    "link_thumb": "https://live.staticflickr.com/65535/49712341562_179d57c44b_n.jpg",
    "id_album": "-222719689",
    "description": "Men_703169",
    "title": "Men_703169",
    "link_img": "https://live.staticflickr.com/65535/49712341562_d466ed32b4_o.jpg",
    "id_image": "Men_703169",
    "count_view": 0
  },
  {
    "link_thumb": "https://live.staticflickr.com/65535/49712777327_e6da1548f8_n.jpg",
    "id_album": "1861288871",
    "description": "Women_748734",
    "title": "Women_748734",
    "link_img": "https://live.staticflickr.com/65535/49712777327_d552cdc7e8_o.jpg",
    "id_image": "Women_748734",
    "count_view": 0
  },
  {
    "link_thumb": "https://live.staticflickr.com/65535/49711326051_d1f7de15a2_n.jpg",
    "id_album": "1903411565",
    "description": "Deer_224427",
    "title": "Deer_224427",
    "link_img": "https://live.staticflickr.com/65535/49711326051_7ca9a6a8fa_o.jpg",
    "id_image": "Deer_224427",
    "count_view": 0
  },
  {
    "link_thumb": "https://live.staticflickr.com/65535/49711968642_774044a564_n.jpg",
    "id_album": "-1972042284",
    "description": "Fairy_112408",
    "title": "Fairy_112408",
    "link_img": "https://live.staticflickr.com/65535/49711968642_9c3d0fe357_o.jpg",
    "id_image": "Fairy_112408",
    "count_view": 0
  },
  {
    "link_thumb": "https://live.staticflickr.com/65535/49711238573_8d0b5177cf_n.jpg",
    "id_album": "1957967226",
    "description": "House_993162",
    "title": "House_993162",
    "link_img": "https://live.staticflickr.com/65535/49711238573_c89bbc51ab_o.jpg",
    "id_image": "House_993162",
    "count_view": 0
  },
  {
    "link_thumb": "https://live.staticflickr.com/65535/49712632547_0efbda5276_n.jpg",
    "id_album": "-1126835654",
    "description": "Women_857981",
    "title": "Women_857981",
    "link_img": "https://live.staticflickr.com/65535/49712632547_831e805700_o.jpg",
    "id_image": "Women_857981",
    "count_view": 0
  },
  {
    "link_thumb": "https://live.staticflickr.com/65535/49711410586_ccac139b49_n.jpg",
    "id_album": "850176884",
    "description": "Dragon_284814",
    "title": "Dragon_284814",
    "link_img": "https://live.staticflickr.com/65535/49711410586_a337c58813_o.jpg",
    "id_image": "Dragon_284814",
    "count_view": 0
  },
  {
    "link_thumb": "https://live.staticflickr.com/65535/49710577363_8c4f054750_n.jpg",
    "id_album": "-1964113117",
    "description": "City_681172",
    "title": "City_681172",
    "link_img": "https://live.staticflickr.com/65535/49710577363_40de04f94f_o.jpg",
    "id_image": "City_681172",
    "count_view": 0
  },
  {
    "link_thumb": "https://live.staticflickr.com/65535/49712051441_f7aff9b658_n.jpg",
    "id_album": "1892085513",
    "description": "Oriental_971389",
    "title": "Oriental_971389",
    "link_img": "https://live.staticflickr.com/65535/49712051441_ca884d87f5_o.jpg",
    "id_image": "Oriental_971389",
    "count_view": 0
  },
  {
    "link_thumb": "https://live.staticflickr.com/65535/49711970562_a16928b99b_n.jpg",
    "id_album": "-1972042284",
    "description": "Fairy_152668",
    "title": "Fairy_152668",
    "link_img": "https://live.staticflickr.com/65535/49711970562_2d71b733e2_o.jpg",
    "id_image": "Fairy_152668",
    "count_view": 0
  },
  {
    "link_thumb": "https://live.staticflickr.com/65535/49711278402_b44b6a191e_n.jpg",
    "id_album": "523598895",
    "description": "Artistic_220819",
    "title": "Artistic_220819",
    "link_img": "https://live.staticflickr.com/65535/49711278402_762f7be202_o.jpg",
    "id_image": "Artistic_220819",
    "count_view": 0
  },
  {
    "link_thumb": "https://live.staticflickr.com/65535/49711925787_ed98002df2_n.jpg",
    "id_album": "134100487",
    "description": "Elf_153275",
    "title": "Elf_153275",
    "link_img": "https://live.staticflickr.com/65535/49711925787_3c533862cc_o.jpg",
    "id_image": "Elf_153275",
    "count_view": 0
  },
  {
    "link_thumb": "https://live.staticflickr.com/65535/49711285587_f9148237fd_n.jpg",
    "id_album": "523598895",
    "description": "Artistic_323923",
    "title": "Artistic_323923",
    "link_img": "https://live.staticflickr.com/65535/49711285587_717ff3f080_o.jpg",
    "id_image": "Artistic_323923",
    "count_view": 0
  },
  {
    "link_thumb": "https://live.staticflickr.com/65535/49711030396_a5571ba56a_n.jpg",
    "id_album": "406431601",
    "description": "Building_998250",
    "title": "Building_998250",
    "link_img": "https://live.staticflickr.com/65535/49711030396_25bd4d86b0_o.jpg",
    "id_image": "Building_998250",
    "count_view": 0
  },
  {
    "link_thumb": "https://live.staticflickr.com/65535/49712568402_a8d98c2173_n.jpg",
    "id_album": "1173975892",
    "description": "Werewolf_534462",
    "title": "Werewolf_534462",
    "link_img": "https://live.staticflickr.com/65535/49712568402_a18d94c608_o.jpg",
    "id_image": "Werewolf_534462",
    "count_view": 0
  },
  {
    "link_thumb": "https://live.staticflickr.com/65535/49711470873_b766a72763_n.jpg",
    "id_album": "-1613076477",
    "description": "Magic_984044",
    "title": "Magic_984044",
    "link_img": "https://live.staticflickr.com/65535/49711470873_5093d3ba41_o.jpg",
    "id_image": "Magic_984044",
    "count_view": 0
  },
  {
    "link_thumb": "https://live.staticflickr.com/65535/49711988136_d3487404da_n.jpg",
    "id_album": "1006968559",
    "description": "LordoftheRings_185794",
    "title": "LordoftheRings_185794",
    "link_img": "https://live.staticflickr.com/65535/49711988136_d3cfeb01f9_o.jpg",
    "id_image": "LordoftheRings_185794",
    "count_view": 0
  },
  {
    "link_thumb": "https://live.staticflickr.com/65535/49710936911_c8bfae756a_n.jpg",
    "id_album": "523598895",
    "description": "Artistic_114224",
    "title": "Artistic_114224",
    "link_img": "https://live.staticflickr.com/65535/49710936911_4e02dd609b_o.jpg",
    "id_image": "Artistic_114224",
    "count_view": 0
  },
  {
    "link_thumb": "https://live.staticflickr.com/65535/49711092091_a5a8392642_n.jpg",
    "id_album": "-1964113117",
    "description": "City_2143",
    "title": "City_2143",
    "link_img": "https://live.staticflickr.com/65535/49711092091_8a2800d054_o.jpg",
    "id_image": "City_2143",
    "count_view": 0
  },
  {
    "link_thumb": "https://live.staticflickr.com/65535/49712638507_cf4518f372_n.jpg",
    "id_album": "-1126835654",
    "description": "Women_875326",
    "title": "Women_875326",
    "link_img": "https://live.staticflickr.com/65535/49712638507_cc01cba98c_o.jpg",
    "id_image": "Women_875326",
    "count_view": 0
  },
  {
    "link_thumb": "https://live.staticflickr.com/65535/49711805017_f6e0565523_n.jpg",
    "id_album": "850176884",
    "description": "Dragon_563393",
    "title": "Dragon_563393",
    "link_img": "https://live.staticflickr.com/65535/49711805017_7dd28282c6_o.jpg",
    "id_image": "Dragon_563393",
    "count_view": 0
  },
  {
    "link_thumb": "https://live.staticflickr.com/65535/49712438027_989e5848f4_n.jpg",
    "id_album": "-1611961467",
    "description": "Samurai_986603",
    "title": "Samurai_986603",
    "link_img": "https://live.staticflickr.com/65535/49712438027_81ca43d331_o.jpg",
    "id_image": "Samurai_986603",
    "count_view": 0
  },
  {
    "link_thumb": "https://live.staticflickr.com/65535/49711387756_1422624583_n.jpg",
    "id_album": "850176884",
    "description": "Dragon_217764",
    "title": "Dragon_217764",
    "link_img": "https://live.staticflickr.com/65535/49711387756_31f75abd98_o.jpg",
    "id_image": "Dragon_217764",
    "count_view": 0
  },
  {
    "link_thumb": "https://live.staticflickr.com/65535/49710614283_5412482285_n.jpg",
    "id_album": "-437872736",
    "description": "Creature_164196",
    "title": "Creature_164196",
    "link_img": "https://live.staticflickr.com/65535/49710614283_0bc0df787d_o.jpg",
    "id_image": "Creature_164196",
    "count_view": 0
  },
  {
    "link_thumb": "https://live.staticflickr.com/65535/49712561662_4454703a93_n.jpg",
    "id_album": "-1261420436",
    "description": "Warrior_969952",
    "title": "Warrior_969952",
    "link_img": "https://live.staticflickr.com/65535/49712561662_dcb5d91ed1_o.jpg",
    "id_image": "Warrior_969952",
    "count_view": 0
  },
  {
    "link_thumb": "https://live.staticflickr.com/65535/49711215913_bebf974315_n.jpg",
    "id_album": "857581314",
    "description": "Griffin_287847",
    "title": "Griffin_287847",
    "link_img": "https://live.staticflickr.com/65535/49711215913_948b2b831f_o.jpg",
    "id_image": "Griffin_287847",
    "count_view": 0
  },
  {
    "link_thumb": "https://live.staticflickr.com/65535/49711825187_3a19a04dc6_n.jpg",
    "id_album": "850176884",
    "description": "Dragon_681002",
    "title": "Dragon_681002",
    "link_img": "https://live.staticflickr.com/65535/49711825187_aa86e29996_o.jpg",
    "id_image": "Dragon_681002",
    "count_view": 0
  },
  {
    "link_thumb": "https://live.staticflickr.com/65535/49710589588_164a80a68a_n.jpg",
    "id_album": "-1964113117",
    "description": "City_870405",
    "title": "City_870405",
    "link_img": "https://live.staticflickr.com/65535/49710589588_0232c9f874_o.jpg",
    "id_image": "City_870405",
    "count_view": 0
  },
  {
    "link_thumb": "https://live.staticflickr.com/65535/49711148358_327122c805_n.jpg",
    "id_album": "-1972042284",
    "description": "Fairy_842764",
    "title": "Fairy_842764",
    "link_img": "https://live.staticflickr.com/65535/49711148358_4764741e68_o.jpg",
    "id_image": "Fairy_842764",
    "count_view": 0
  },
  {
    "link_thumb": "https://live.staticflickr.com/65535/49711385616_59ba8bce3c_n.jpg",
    "id_album": "850176884",
    "description": "Dragon_208699",
    "title": "Dragon_208699",
    "link_img": "https://live.staticflickr.com/65535/49711385616_257fa7178e_o.jpg",
    "id_image": "Dragon_208699",
    "count_view": 0
  },
  {
    "link_thumb": "https://live.staticflickr.com/65535/49710975538_f0b53fcbc1_n.jpg",
    "id_album": "850176884",
    "description": "Dragon_709153",
    "title": "Dragon_709153",
    "link_img": "https://live.staticflickr.com/65535/49710975538_1369e12055_o.jpg",
    "id_image": "Dragon_709153",
    "count_view": 0
  },
  {
    "link_thumb": "https://live.staticflickr.com/65535/49711415321_ca35b9842f_n.jpg",
    "id_album": "850176884",
    "description": "Dragon_309822",
    "title": "Dragon_309822",
    "link_img": "https://live.staticflickr.com/65535/49711415321_a06798cd73_o.jpg",
    "id_image": "Dragon_309822",
    "count_view": 0
  },
  {
    "link_thumb": "https://live.staticflickr.com/65535/49710948503_f517f6bd70_n.jpg",
    "id_album": "850176884",
    "description": "Dragon_566290",
    "title": "Dragon_566290",
    "link_img": "https://live.staticflickr.com/65535/49710948503_8f1e0630b5_o.jpg",
    "id_image": "Dragon_566290",
    "count_view": 0
  },
  {
    "link_thumb": "https://live.staticflickr.com/65535/49711178871_9682d738be_n.jpg",
    "id_album": "-437872736",
    "description": "Creature_294392",
    "title": "Creature_294392",
    "link_img": "https://live.staticflickr.com/65535/49711178871_d336df848d_o.jpg",
    "id_image": "Creature_294392",
    "count_view": 0
  },
  {
    "link_thumb": "https://live.staticflickr.com/65535/49710710953_67eb284af0_n.jpg",
    "id_album": "-437872736",
    "description": "Creature_555619",
    "title": "Creature_555619",
    "link_img": "https://live.staticflickr.com/65535/49710710953_22fa68095d_o.jpg",
    "id_image": "Creature_555619",
    "count_view": 0
  },
  {
    "link_thumb": "https://live.staticflickr.com/65535/49711109026_83be71fd19_n.jpg",
    "id_album": "-1964113117",
    "description": "City_616241",
    "title": "City_616241",
    "link_img": "https://live.staticflickr.com/65535/49711109026_5e629c3343_o.jpg",
    "id_image": "City_616241",
    "count_view": 0
  },
  {
    "link_thumb": "https://live.staticflickr.com/65535/49710938868_4191263a47_n.jpg",
    "id_album": "850176884",
    "description": "Dragon_533698",
    "title": "Dragon_533698",
    "link_img": "https://live.staticflickr.com/65535/49710938868_fc5a2afba3_o.jpg",
    "id_image": "Dragon_533698",
    "count_view": 0
  },
  {
    "link_thumb": "https://live.staticflickr.com/65535/49712035661_daa0a48b26_n.jpg",
    "id_album": "1892085513",
    "description": "Oriental_13560",
    "title": "Oriental_13560",
    "link_img": "https://live.staticflickr.com/65535/49712035661_de2f0ff5fb_o.jpg",
    "id_image": "Oriental_13560",
    "count_view": 0
  },
  {
    "link_thumb": "https://live.staticflickr.com/65535/49710436073_3ee2833650_n.jpg",
    "id_album": "523598895",
    "description": "Artistic_487166",
    "title": "Artistic_487166",
    "link_img": "https://live.staticflickr.com/65535/49710436073_293f990cb7_o.jpg",
    "id_image": "Artistic_487166",
    "count_view": 0
  },
  {
    "link_thumb": "https://live.staticflickr.com/65535/49711469592_42754aedf2_n.jpg",
    "id_album": "-437872736",
    "description": "Creature_152624",
    "title": "Creature_152624",
    "link_img": "https://live.staticflickr.com/65535/49711469592_93a0ea27ca_o.jpg",
    "id_image": "Creature_152624",
    "count_view": 0
  },
  {
    "link_thumb": "https://live.staticflickr.com/65535/49711783837_1ec4977584_n.jpg",
    "id_album": "850176884",
    "description": "Dragon_495619",
    "title": "Dragon_495619",
    "link_img": "https://live.staticflickr.com/65535/49711783837_aff78a7061_o.jpg",
    "id_image": "Dragon_495619",
    "count_view": 0
  },
  {
    "link_thumb": "https://live.staticflickr.com/65535/49711217177_7d08cee48f_n.jpg",
    "id_album": "-1913845949",
    "description": "Animal_150253",
    "title": "Animal_150253",
    "link_img": "https://live.staticflickr.com/65535/49711217177_62f117c188_o.jpg",
    "id_image": "Animal_150253",
    "count_view": 0
  },
  {
    "link_thumb": "https://live.staticflickr.com/65535/49710952333_07a4a78a72_n.jpg",
    "id_album": "850176884",
    "description": "Dragon_588911",
    "title": "Dragon_588911",
    "link_img": "https://live.staticflickr.com/65535/49710952333_0f10995e46_o.jpg",
    "id_image": "Dragon_588911",
    "count_view": 0
  },
  {
    "link_thumb": "https://live.staticflickr.com/65535/49711159863_a3580c12ab_n.jpg",
    "id_album": "-1083189875",
    "description": "Forest_353013",
    "title": "Forest_353013",
    "link_img": "https://live.staticflickr.com/65535/49711159863_54b5c1a693_o.jpg",
    "id_image": "Forest_353013",
    "count_view": 0
  },
  {
    "link_thumb": "https://live.staticflickr.com/65535/49711793917_6979e9a6e9_n.jpg",
    "id_album": "850176884",
    "description": "Dragon_525088",
    "title": "Dragon_525088",
    "link_img": "https://live.staticflickr.com/65535/49711793917_533cb3e3a2_o.jpg",
    "id_image": "Dragon_525088",
    "count_view": 0
  },
  {
    "link_thumb": "https://live.staticflickr.com/65535/49712169432_99d63b2b85_n.jpg",
    "id_album": "1402713104",
    "description": "Landscape_872810",
    "title": "Landscape_872810",
    "link_img": "https://live.staticflickr.com/65535/49712169432_2b6436f44b_o.jpg",
    "id_image": "Landscape_872810",
    "count_view": 0
  },
  {
    "link_thumb": "https://live.staticflickr.com/65535/49711236811_b32d976437_n.jpg",
    "id_album": "-437872736",
    "description": "Creature_494004",
    "title": "Creature_494004",
    "link_img": "https://live.staticflickr.com/65535/49711236811_3d47651360_o.jpg",
    "id_image": "Creature_494004",
    "count_view": 0
  },
  {
    "link_thumb": "https://live.staticflickr.com/65535/49711712332_22cf0d4266_n.jpg",
    "id_album": "850176884",
    "description": "Dragon_230071",
    "title": "Dragon_230071",
    "link_img": "https://live.staticflickr.com/65535/49711712332_0b5e7bcf66_o.jpg",
    "id_image": "Dragon_230071",
    "count_view": 0
  },
  {
    "link_thumb": "https://live.staticflickr.com/65535/49711611882_3e04891be3_n.jpg",
    "id_album": "-437872736",
    "description": "Creature_958713",
    "title": "Creature_958713",
    "link_img": "https://live.staticflickr.com/65535/49711611882_5222bdb0b1_o.jpg",
    "id_image": "Creature_958713",
    "count_view": 0
  },
  {
    "link_thumb": "https://live.staticflickr.com/65535/49712088281_e14cdfc74b_n.jpg",
    "id_album": "1587588550",
    "description": "Place_349659",
    "title": "Place_349659",
    "link_img": "https://live.staticflickr.com/65535/49712088281_f534eab08e_o.jpg",
    "id_image": "Place_349659",
    "count_view": 0
  },
  {
    "link_thumb": "https://live.staticflickr.com/65535/49712013553_5446f2f600_n.jpg",
    "id_album": "-1675918237",
    "description": "WomenWarrior_256527",
    "title": "WomenWarrior_256527",
    "link_img": "https://live.staticflickr.com/65535/49712013553_e69a2a7df0_o.jpg",
    "id_image": "WomenWarrior_256527",
    "count_view": 0
  },
  {
    "link_thumb": "https://live.staticflickr.com/65535/49710642118_c8e811f6f0_n.jpg",
    "id_album": "-437872736",
    "description": "Creature_288152",
    "title": "Creature_288152",
    "link_img": "https://live.staticflickr.com/65535/49710642118_026dc933ca_o.jpg",
    "id_image": "Creature_288152",
    "count_view": 0
  },
  {
    "link_thumb": "https://live.staticflickr.com/65535/49711272906_10ca9e4ba4_n.jpg",
    "id_album": "-437872736",
    "description": "Creature_917195",
    "title": "Creature_917195",
    "link_img": "https://live.staticflickr.com/65535/49711272906_69d4043cf4_o.jpg",
    "id_image": "Creature_917195",
    "count_view": 0
  },
  {
    "link_thumb": "https://live.staticflickr.com/65535/49711779027_78dbc7108c_n.jpg",
    "id_album": "850176884",
    "description": "Dragon_477010",
    "title": "Dragon_477010",
    "link_img": "https://live.staticflickr.com/65535/49711779027_a848e43e1b_o.jpg",
    "id_image": "Dragon_477010",
    "count_view": 0
  },
  {
    "link_thumb": "https://live.staticflickr.com/65535/49799153077_1e6ed5b3e6_n.jpg",
    "id_album": "-1703946758",
    "description": "ANIME_PIC_ef4395409e818e5592d04db330288cf6",
    "title": "ANIME_PIC_ef4395409e818e5592d04db330288cf6",
    "link_img": "https://live.staticflickr.com/65535/49799153077_22330694b5_o.jpg",
    "id_image": "ANIME_PIC_ef4395409e818e5592d04db330288cf6",
    "count_view": 0
  },
  {
    "link_thumb": "https://live.staticflickr.com/65535/49711521081_e62229a0a8_n.jpg",
    "id_album": "850176884",
    "description": "Dragon_757048",
    "title": "Dragon_757048",
    "link_img": "https://live.staticflickr.com/65535/49711521081_a9a0d4f515_o.jpg",
    "id_image": "Dragon_757048",
    "count_view": 0
  },
  {
    "link_thumb": "https://live.staticflickr.com/65535/49710502893_f097216077_n.jpg",
    "id_album": "-1541846310",
    "description": "Castle_203477",
    "title": "Castle_203477",
    "link_img": "https://live.staticflickr.com/65535/49710502893_299769d5ff_o.jpg",
    "id_image": "Castle_203477",
    "count_view": 0
  },
  {
    "link_thumb": "https://live.staticflickr.com/65535/49710919478_5020881540_n.jpg",
    "id_album": "850176884",
    "description": "Dragon_472768",
    "title": "Dragon_472768",
    "link_img": "https://live.staticflickr.com/65535/49710919478_d19819556c_o.jpg",
    "id_image": "Dragon_472768",
    "count_view": 0
  },
  {
    "link_thumb": "https://live.staticflickr.com/65535/49710887371_4a76b4638b_n.jpg",
    "id_album": "-1000175186",
    "description": "AngelWarrior_830997",
    "title": "AngelWarrior_830997",
    "link_img": "https://live.staticflickr.com/65535/49710887371_f64a117eb4_o.jpg",
    "id_image": "AngelWarrior_830997",
    "count_view": 0
  },
  {
    "link_thumb": "https://live.staticflickr.com/65535/49711866016_7ca5abc419_n.jpg",
    "id_album": "1402713104",
    "description": "Landscape_945961",
    "title": "Landscape_945961",
    "link_img": "https://live.staticflickr.com/65535/49711866016_b7ff8f98b9_o.jpg",
    "id_image": "Landscape_945961",
    "count_view": 0
  },
  {
    "link_thumb": "https://live.staticflickr.com/65535/49711672516_6c28db9ffc_n.jpg",
    "id_album": "-1972042284",
    "description": "Fairy_677183",
    "title": "Fairy_677183",
    "link_img": "https://live.staticflickr.com/65535/49711672516_d2ded91480_o.jpg",
    "id_image": "Fairy_677183",
    "count_view": 0
  },
  {
    "link_thumb": "https://live.staticflickr.com/65535/49711768176_da0c36c450_n.jpg",
    "id_album": "1957967226",
    "description": "House_665327",
    "title": "House_665327",
    "link_img": "https://live.staticflickr.com/65535/49711768176_b852dc63e4_o.jpg",
    "id_image": "House_665327",
    "count_view": 0
  },
  {
    "link_thumb": "https://live.staticflickr.com/65535/49712494846_bb923aba2d_n.jpg",
    "id_album": "-867594484",
    "description": "Women_521271",
    "title": "Women_521271",
    "link_img": "https://live.staticflickr.com/65535/49712494846_c8755afbec_o.jpg",
    "id_image": "Women_521271",
    "count_view": 0
  },
  {
    "link_thumb": "https://live.staticflickr.com/65535/49712327216_cba2a7f9ed_n.jpg",
    "id_album": "-1126835654",
    "description": "Women_884551",
    "title": "Women_884551",
    "link_img": "https://live.staticflickr.com/65535/49712327216_124f5b69f5_o.jpg",
    "id_image": "Women_884551",
    "count_view": 0
  },
  {
    "link_thumb": "https://live.staticflickr.com/65535/49711212442_6ac428936f_n.jpg",
    "id_album": "-1000175186",
    "description": "AngelWarrior_861571",
    "title": "AngelWarrior_861571",
    "link_img": "https://live.staticflickr.com/65535/49711212442_7c4eced1cd_o.jpg",
    "id_image": "AngelWarrior_861571",
    "count_view": 0
  },
  {
    "link_thumb": "https://live.staticflickr.com/65535/49712406151_acf5712300_n.jpg",
    "id_album": "295204930",
    "description": "Women_702304",
    "title": "Women_702304",
    "link_img": "https://live.staticflickr.com/65535/49712406151_d6de9bea84_o.jpg",
    "id_image": "Women_702304",
    "count_view": 0
  },
  {
    "link_thumb": "https://live.staticflickr.com/65535/49711572001_d7f08fa5ef_n.jpg",
    "id_album": "850176884",
    "description": "Dragon_937793",
    "title": "Dragon_937793",
    "link_img": "https://live.staticflickr.com/65535/49711572001_42f1770d08_o.jpg",
    "id_image": "Dragon_937793",
    "count_view": 0
  },
  {
    "link_thumb": "https://live.staticflickr.com/65535/49712446767_90693d51a5_n.jpg",
    "id_album": "407101116",
    "description": "SeaMonster_806946",
    "title": "SeaMonster_806946",
    "link_img": "https://live.staticflickr.com/65535/49712446767_cb24d323c6_o.jpg",
    "id_image": "SeaMonster_806946",
    "count_view": 0
  },
  {
    "link_thumb": "https://live.staticflickr.com/65535/49710427198_a6b3668d7d_n.jpg",
    "id_album": "523598895",
    "description": "Artistic_319610",
    "title": "Artistic_319610",
    "link_img": "https://live.staticflickr.com/65535/49710427198_294b948748_o.jpg",
    "id_image": "Artistic_319610",
    "count_view": 0
  },
  {
    "link_thumb": "https://live.staticflickr.com/65535/49712282277_60db3e77f8_n.jpg",
    "id_album": "-833110404",
    "description": "Landscape_518869",
    "title": "Landscape_518869",
    "link_img": "https://live.staticflickr.com/65535/49712282277_4f97150090_o.jpg",
    "id_image": "Landscape_518869",
    "count_view": 0
  },
  {
    "link_thumb": "https://live.staticflickr.com/65535/49712152572_b4f1b2e93b_n.jpg",
    "id_album": "1402713104",
    "description": "Landscape_861246",
    "title": "Landscape_861246",
    "link_img": "https://live.staticflickr.com/65535/49712152572_3b99ce3bdb_o.jpg",
    "id_image": "Landscape_861246",
    "count_view": 0
  },
  {
    "link_thumb": "https://live.staticflickr.com/65535/49711868136_ffa21d2f0b_n.jpg",
    "id_album": "1402713104",
    "description": "Landscape_952442",
    "title": "Landscape_952442",
    "link_img": "https://live.staticflickr.com/65535/49711868136_6a39665cf5_o.jpg",
    "id_image": "Landscape_952442",
    "count_view": 0
  },
  {
    "link_thumb": "https://live.staticflickr.com/65535/49711954366_e221956b4f_n.jpg",
    "id_album": "-833110404",
    "description": "Landscape_498694",
    "title": "Landscape_498694",
    "link_img": "https://live.staticflickr.com/65535/49711954366_b222d08349_o.jpg",
    "id_image": "Landscape_498694",
    "count_view": 0
  },
  {
    "link_thumb": "https://live.staticflickr.com/65535/49711001971_8521ae7105_n.jpg",
    "id_album": "1187037014",
    "description": "Battle_525644",
    "title": "Battle_525644",
    "link_img": "https://live.staticflickr.com/65535/49711001971_78458728b6_o.jpg",
    "id_image": "Battle_525644",
    "count_view": 0
  },
  {
    "link_thumb": "https://live.staticflickr.com/65535/49711125963_ac75e31a4a_n.jpg",
    "id_album": "-1972042284",
    "description": "Fairy_357605",
    "title": "Fairy_357605",
    "link_img": "https://live.staticflickr.com/65535/49711125963_85b3f307e3_o.jpg",
    "id_image": "Fairy_357605",
    "count_view": 0
  },
  {
    "link_thumb": "https://live.staticflickr.com/65535/49711644011_5d0b027aa2_n.jpg",
    "id_album": "-1972042284",
    "description": "Fairy_103856",
    "title": "Fairy_103856",
    "link_img": "https://live.staticflickr.com/65535/49711644011_ae5acaa169_o.jpg",
    "id_image": "Fairy_103856",
    "count_view": 0
  },
  {
    "link_thumb": "https://live.staticflickr.com/65535/49712523857_696c7cecf9_n.jpg",
    "id_album": "-1261420436",
    "description": "Warrior_234054",
    "title": "Warrior_234054",
    "link_img": "https://live.staticflickr.com/65535/49712523857_f7ec07c85f_o.jpg",
    "id_image": "Warrior_234054",
    "count_view": 0
  },
  {
    "link_thumb": "https://live.staticflickr.com/65535/49711054796_e89bd81ba7_n.jpg",
    "id_album": "-1541846310",
    "description": "Castle_705143",
    "title": "Castle_705143",
    "link_img": "https://live.staticflickr.com/65535/49711054796_1b1464b4d5_o.jpg",
    "id_image": "Castle_705143",
    "count_view": 0
  },
  {
    "link_thumb": "https://live.staticflickr.com/65535/49712185086_584acfe9ac_n.jpg",
    "id_album": "431597977",
    "description": "Unicorn_863675",
    "title": "Unicorn_863675",
    "link_img": "https://live.staticflickr.com/65535/49712185086_a546853e87_o.jpg",
    "id_image": "Unicorn_863675",
    "count_view": 0
  },
  {
    "link_thumb": "https://live.staticflickr.com/65535/49711219441_9778f87738_n.jpg",
    "id_album": "-437872736",
    "description": "Creature_375734",
    "title": "Creature_375734",
    "link_img": "https://live.staticflickr.com/65535/49711219441_be89a3d647_o.jpg",
    "id_image": "Creature_375734",
    "count_view": 0
  },
  {
    "link_thumb": "https://live.staticflickr.com/65535/49710779438_567e801228_n.jpg",
    "id_album": "2021464556",
    "description": "Dark_220537",
    "title": "Dark_220537",
    "link_img": "https://live.staticflickr.com/65535/49710779438_606040655d_o.jpg",
    "id_image": "Dark_220537",
    "count_view": 0
  },
  {
    "link_thumb": "https://live.staticflickr.com/65535/49712162842_e2b93173ea_n.jpg",
    "id_album": "1402713104",
    "description": "Landscape_867424",
    "title": "Landscape_867424",
    "link_img": "https://live.staticflickr.com/65535/49712162842_a3f3c49a9b_o.jpg",
    "id_image": "Landscape_867424",
    "count_view": 0
  },
  {
    "link_thumb": "https://live.staticflickr.com/65535/49711904248_449d25af1c_n.jpg",
    "id_album": "1861288871",
    "description": "Women_244463",
    "title": "Women_244463",
    "link_img": "https://live.staticflickr.com/65535/49711904248_b6f1d144ff_o.jpg",
    "id_image": "Women_244463",
    "count_view": 0
  },
  {
    "link_thumb": "https://live.staticflickr.com/65535/49711416631_9fa68df7f1_n.jpg",
    "id_album": "850176884",
    "description": "Dragon_313324",
    "title": "Dragon_313324",
    "link_img": "https://live.staticflickr.com/65535/49711416631_ea55fe2ca0_o.jpg",
    "id_image": "Dragon_313324",
    "count_view": 0
  },
  {
    "link_thumb": "https://live.staticflickr.com/65535/49711434848_153eb6d828_n.jpg",
    "id_album": "-833110404",
    "description": "Landscape_557315",
    "title": "Landscape_557315",
    "link_img": "https://live.staticflickr.com/65535/49711434848_6eb310ace2_o.jpg",
    "id_image": "Landscape_557315",
    "count_view": 0
  },
  {
    "link_thumb": "https://live.staticflickr.com/65535/49710869333_7471e84e12_n.jpg",
    "id_album": "850176884",
    "description": "Dragon_269538",
    "title": "Dragon_269538",
    "link_img": "https://live.staticflickr.com/65535/49710869333_9db10bfea8_o.jpg",
    "id_image": "Dragon_269538",
    "count_view": 0
  },
  {
    "link_thumb": "https://live.staticflickr.com/65535/49711422933_5aae8067a0_n.jpg",
    "id_album": "-833110404",
    "description": "Landscape_516674",
    "title": "Landscape_516674",
    "link_img": "https://live.staticflickr.com/65535/49711422933_758d9d3bbf_o.jpg",
    "id_image": "Landscape_516674",
    "count_view": 0
  },
  {
    "link_thumb": "https://live.staticflickr.com/65535/49711700807_2caba4a6b4_n.jpg",
    "id_album": "850176884",
    "description": "Dragon_188234",
    "title": "Dragon_188234",
    "link_img": "https://live.staticflickr.com/65535/49711700807_c0a8b859d6_o.jpg",
    "id_image": "Dragon_188234",
    "count_view": 0
  },
  {
    "link_thumb": "https://live.staticflickr.com/65535/49712163093_1cfaf2ae08_n.jpg",
    "id_album": "-1675918237",
    "description": "WomenWarrior_900658",
    "title": "WomenWarrior_900658",
    "link_img": "https://live.staticflickr.com/65535/49712163093_837df87618_o.jpg",
    "id_image": "WomenWarrior_900658",
    "count_view": 0
  },
  {
    "link_thumb": "https://live.staticflickr.com/65535/49711147576_cedeacc174_n.jpg",
    "id_album": "-437872736",
    "description": "Creature_155258",
    "title": "Creature_155258",
    "link_img": "https://live.staticflickr.com/65535/49711147576_8efe8f9c4b_o.jpg",
    "id_image": "Creature_155258",
    "count_view": 0
  },
  {
    "link_thumb": "https://live.staticflickr.com/65535/49711498386_a878fc9713_n.jpg",
    "id_album": "850176884",
    "description": "Dragon_624556",
    "title": "Dragon_624556",
    "link_img": "https://live.staticflickr.com/65535/49711498386_b935cb1d07_o.jpg",
    "id_image": "Dragon_624556",
    "count_view": 0
  },
  {
    "link_thumb": "https://live.staticflickr.com/65535/49710689688_8aab47fd59_n.jpg",
    "id_album": "-437872736",
    "description": "Creature_391118",
    "title": "Creature_391118",
    "link_img": "https://live.staticflickr.com/65535/49710689688_b5837800ce_o.jpg",
    "id_image": "Creature_391118",
    "count_view": 0
  },
  {
    "link_thumb": "https://live.staticflickr.com/65535/49712081386_5a2fb9f7db_n.jpg",
    "id_album": "-300361534",
    "description": "Pirate_281423",
    "title": "Pirate_281423",
    "link_img": "https://live.staticflickr.com/65535/49712081386_c73d6cb8f7_o.jpg",
    "id_image": "Pirate_281423",
    "count_view": 0
  },
  {
    "link_thumb": "https://live.staticflickr.com/65535/49711799058_d3a2386445_n.jpg",
    "id_album": "-1126835654",
    "description": "Women_903067",
    "title": "Women_903067",
    "link_img": "https://live.staticflickr.com/65535/49711799058_f8db2a4b4b_o.jpg",
    "id_image": "Women_903067",
    "count_view": 0
  },
  {
    "link_thumb": "https://live.staticflickr.com/65535/49712479737_dc1a8b619e_n.jpg",
    "id_album": "405170427",
    "description": "Tiger_401819",
    "title": "Tiger_401819",
    "link_img": "https://live.staticflickr.com/65535/49712479737_c369939673_o.jpg",
    "id_image": "Tiger_401819",
    "count_view": 0
  },
  {
    "link_thumb": "https://live.staticflickr.com/65535/49711532143_ddba141425_n.jpg",
    "id_album": "-639976841",
    "description": "Pegasus_98598",
    "title": "Pegasus_98598",
    "link_img": "https://live.staticflickr.com/65535/49711532143_4ce95cdea1_o.jpg",
    "id_image": "Pegasus_98598",
    "count_view": 0
  },
  {
    "link_thumb": "https://live.staticflickr.com/65535/49711837508_49758beef7_n.jpg",
    "id_album": "295204930",
    "description": "Women_291759",
    "title": "Women_291759",
    "link_img": "https://live.staticflickr.com/65535/49711837508_415d97ee10_o.jpg",
    "id_image": "Women_291759",
    "count_view": 0
  },
  {
    "link_thumb": "https://live.staticflickr.com/65535/49712350126_9d2119066f_n.jpg",
    "id_album": "-1126835654",
    "description": "Women_993301",
    "title": "Women_993301",
    "link_img": "https://live.staticflickr.com/65535/49712350126_97d6278338_o.jpg",
    "id_image": "Women_993301",
    "count_view": 0
  },
  {
    "link_thumb": "https://live.staticflickr.com/65535/49711854252_d3cea163bd_n.jpg",
    "id_album": "850176884",
    "description": "Dragon_830434",
    "title": "Dragon_830434",
    "link_img": "https://live.staticflickr.com/65535/49711854252_9c5bc2b094_o.jpg",
    "id_image": "Dragon_830434",
    "count_view": 0
  },
  {
    "link_thumb": "https://live.staticflickr.com/65535/49712302737_c1381291cf_n.jpg",
    "id_album": "416744915",
    "description": "Lion_293334",
    "title": "Lion_293334",
    "link_img": "https://live.staticflickr.com/65535/49712302737_e579066896_o.jpg",
    "id_image": "Lion_293334",
    "count_view": 0
  },
  {
    "link_thumb": "https://live.staticflickr.com/65535/49712755477_84d7a24cb6_n.jpg",
    "id_album": "1861288871",
    "description": "Women_204930",
    "title": "Women_204930",
    "link_img": "https://live.staticflickr.com/65535/49712755477_6205206191_o.jpg",
    "id_image": "Women_204930",
    "count_view": 0
  },
  {
    "link_thumb": "https://live.staticflickr.com/65535/49711360751_0286e45241_n.jpg",
    "id_album": "850176884",
    "description": "Dragon_122298",
    "title": "Dragon_122298",
    "link_img": "https://live.staticflickr.com/65535/49711360751_075c607db8_o.jpg",
    "id_image": "Dragon_122298",
    "count_view": 0
  },
  {
    "link_thumb": "https://live.staticflickr.com/65535/49711809722_c71d10f11b_n.jpg",
    "id_album": "850176884",
    "description": "Dragon_588957",
    "title": "Dragon_588957",
    "link_img": "https://live.staticflickr.com/65535/49711809722_330148cf06_o.jpg",
    "id_image": "Dragon_588957",
    "count_view": 0
  },
  {
    "link_thumb": "https://live.staticflickr.com/65535/49710856581_8fdb5cae02_n.jpg",
    "id_album": "-218097820",
    "description": "ASongOfIceAndFire_245443",
    "title": "ASongOfIceAndFire_245443",
    "link_img": "https://live.staticflickr.com/65535/49710856581_9abe5212f3_o.jpg",
    "id_image": "ASongOfIceAndFire_245443",
    "count_view": 0
  },
  {
    "link_thumb": "https://live.staticflickr.com/65535/49712679856_76aa1b730f_n.jpg",
    "id_album": "-1675918237",
    "description": "WomenWarrior_833341",
    "title": "WomenWarrior_833341",
    "link_img": "https://live.staticflickr.com/65535/49712679856_1e4d67e6d8_o.jpg",
    "id_image": "WomenWarrior_833341",
    "count_view": 0
  },
  {
    "link_thumb": "https://live.staticflickr.com/65535/49711570847_c8eb7bd854_n.jpg",
    "id_album": "-437872736",
    "description": "Creature_542100",
    "title": "Creature_542100",
    "link_img": "https://live.staticflickr.com/65535/49711570847_9e13138328_o.jpg",
    "id_image": "Creature_542100",
    "count_view": 0
  },
  {
    "link_thumb": "https://live.staticflickr.com/65535/49711311037_386c79979c_n.jpg",
    "id_album": "1187037014",
    "description": "Battle_240680",
    "title": "Battle_240680",
    "link_img": "https://live.staticflickr.com/65535/49711311037_ab737618f8_o.jpg",
    "id_image": "Battle_240680",
    "count_view": 0
  },
  {
    "link_thumb": "https://live.staticflickr.com/65535/49712412816_50ecaac69d_n.jpg",
    "id_album": "295204930",
    "description": "Women_709392",
    "title": "Women_709392",
    "link_img": "https://live.staticflickr.com/65535/49712412816_cd911dde02_o.jpg",
    "id_image": "Women_709392",
    "count_view": 0
  },
  {
    "link_thumb": "https://live.staticflickr.com/65535/49711461111_5b7e25fcab_n.jpg",
    "id_album": "850176884",
    "description": "Dragon_491236",
    "title": "Dragon_491236",
    "link_img": "https://live.staticflickr.com/65535/49711461111_9acdbae322_o.jpg",
    "id_image": "Dragon_491236",
    "count_view": 0
  },
  {
    "link_thumb": "https://live.staticflickr.com/65535/49712260607_c51798542a_n.jpg",
    "id_album": "-833110404",
    "description": "Landscape_405765",
    "title": "Landscape_405765",
    "link_img": "https://live.staticflickr.com/65535/49712260607_51870f7ea7_o.jpg",
    "id_image": "Landscape_405765",
    "count_view": 0
  },
  {
    "link_thumb": "https://live.staticflickr.com/65535/49711390807_22bb4380d4_n.jpg",
    "id_album": "-1541846310",
    "description": "Castle_904750",
    "title": "Castle_904750",
    "link_img": "https://live.staticflickr.com/65535/49711390807_e8919f5a3e_o.jpg",
    "id_image": "Castle_904750",
    "count_view": 0
  },
  {
    "link_thumb": "https://live.staticflickr.com/65535/49711382392_2827e8ec55_n.jpg",
    "id_album": "-1541846310",
    "description": "Castle_854795",
    "title": "Castle_854795",
    "link_img": "https://live.staticflickr.com/65535/49711382392_d10d12624b_o.jpg",
    "id_image": "Castle_854795",
    "count_view": 0
  },
  {
    "link_thumb": "https://live.staticflickr.com/65535/49712353281_eb50a96dfe_n.jpg",
    "id_album": "-1126835654",
    "description": "Women_998287",
    "title": "Women_998287",
    "link_img": "https://live.staticflickr.com/65535/49712353281_967e5371ab_o.jpg",
    "id_image": "Women_998287",
    "count_view": 0
  },
  {
    "link_thumb": "https://live.staticflickr.com/65535/49711191762_b1723523b6_n.jpg",
    "id_album": "-2109465612",
    "description": "Adventure_353142",
    "title": "Adventure_353142",
    "link_img": "https://live.staticflickr.com/65535/49711191762_e8fc6bb734_o.jpg",
    "id_image": "Adventure_353142",
    "count_view": 0
  },
  {
    "link_thumb": "https://live.staticflickr.com/65535/49711795148_2fb99bb7dc_n.jpg",
    "id_album": "-1126835654",
    "description": "Women_887135",
    "title": "Women_887135",
    "link_img": "https://live.staticflickr.com/65535/49711795148_a7d868d6f8_o.jpg",
    "id_image": "Women_887135",
    "count_view": 0
  },
  {
    "link_thumb": "https://live.staticflickr.com/65535/49711494908_c745b220a7_n.jpg",
    "id_album": "-14582214",
    "description": "Ocean_121795",
    "title": "Ocean_121795",
    "link_img": "https://live.staticflickr.com/65535/49711494908_77557b9426_o.jpg",
    "id_image": "Ocean_121795",
    "count_view": 0
  },
  {
    "link_thumb": "https://live.staticflickr.com/65535/49712418806_170dcd0242_n.jpg",
    "id_album": "295204930",
    "description": "Women_732472",
    "title": "Women_732472",
    "link_img": "https://live.staticflickr.com/65535/49712418806_8511ce1cd9_o.jpg",
    "id_image": "Women_732472",
    "count_view": 0
  },
  {
    "link_thumb": "https://live.staticflickr.com/65535/49711215716_8ef2617891_n.jpg",
    "id_album": "-437872736",
    "description": "Creature_367140",
    "title": "Creature_367140",
    "link_img": "https://live.staticflickr.com/65535/49711215716_06221bf197_o.jpg",
    "id_image": "Creature_367140",
    "count_view": 0
  },
  {
    "link_thumb": "https://live.staticflickr.com/65535/49712143081_953e9471cb_n.jpg",
    "id_album": "-5356651",
    "description": "Sorcerer_244277",
    "title": "Sorcerer_244277",
    "link_img": "https://live.staticflickr.com/65535/49712143081_898d59be6f_o.jpg",
    "id_image": "Sorcerer_244277",
    "count_view": 0
  },
  {
    "link_thumb": "https://live.staticflickr.com/65535/49710684458_417f64b862_n.jpg",
    "id_album": "-437872736",
    "description": "Creature_376590",
    "title": "Creature_376590",
    "link_img": "https://live.staticflickr.com/65535/49710684458_e5c8f96c33_o.jpg",
    "id_image": "Creature_376590",
    "count_view": 0
  },
  {
    "link_thumb": "https://live.staticflickr.com/65535/49711819242_5a05ea3296_n.jpg",
    "id_album": "850176884",
    "description": "Dragon_618444",
    "title": "Dragon_618444",
    "link_img": "https://live.staticflickr.com/65535/49711819242_082a746806_o.jpg",
    "id_image": "Dragon_618444",
    "count_view": 0
  },
  {
    "link_thumb": "https://live.staticflickr.com/65535/49712529416_3258cb3ba6_n.jpg",
    "id_album": "-867594484",
    "description": "Women_676594",
    "title": "Women_676594",
    "link_img": "https://live.staticflickr.com/65535/49712529416_bdbe2d3215_o.jpg",
    "id_image": "Women_676594",
    "count_view": 0
  },
  {
    "link_thumb": "https://live.staticflickr.com/65535/49712034937_fa5201277b_n.jpg",
    "id_album": "-1083189875",
    "description": "Forest_78425",
    "title": "Forest_78425",
    "link_img": "https://live.staticflickr.com/65535/49712034937_1246963721_o.jpg",
    "id_image": "Forest_78425",
    "count_view": 0
  },
  {
    "link_thumb": "https://live.staticflickr.com/65535/49711664773_40a495b705_n.jpg",
    "id_album": "-1261420436",
    "description": "Warrior_220341",
    "title": "Warrior_220341",
    "link_img": "https://live.staticflickr.com/65535/49711664773_87556c56da_o.jpg",
    "id_image": "Warrior_220341",
    "count_view": 0
  },
  {
    "link_thumb": "https://live.staticflickr.com/65535/49711709553_f848b10dfa_n.jpg",
    "id_album": "1173975892",
    "description": "Werewolf_488468",
    "title": "Werewolf_488468",
    "link_img": "https://live.staticflickr.com/65535/49711709553_9ce151b9d6_o.jpg",
    "id_image": "Werewolf_488468",
    "count_view": 0
  },
  {
    "link_thumb": "https://live.staticflickr.com/65535/49711640676_e16e0a3e52_n.jpg",
    "id_album": "134100487",
    "description": "Elf_932778",
    "title": "Elf_932778",
    "link_img": "https://live.staticflickr.com/65535/49711640676_e4f4991485_o.jpg",
    "id_image": "Elf_932778",
    "count_view": 0
  },
  {
    "link_thumb": "https://live.staticflickr.com/65535/49711544498_448dfe6815_n.jpg",
    "id_album": "-300361534",
    "description": "Pirate_264628",
    "title": "Pirate_264628",
    "link_img": "https://live.staticflickr.com/65535/49711544498_146aa27c3a_o.jpg",
    "id_image": "Pirate_264628",
    "count_view": 0
  },
  {
    "link_thumb": "https://live.staticflickr.com/65535/49711856746_65efb24f21_n.jpg",
    "id_album": "1402713104",
    "description": "Landscape_916469",
    "title": "Landscape_916469",
    "link_img": "https://live.staticflickr.com/65535/49711856746_9fbcd195d0_o.jpg",
    "id_image": "Landscape_916469",
    "count_view": 0
  },
  {
    "link_thumb": "https://live.staticflickr.com/65535/49711374478_4ef9964d40_n.jpg",
    "id_album": "-833110404",
    "description": "Landscape_283728",
    "title": "Landscape_283728",
    "link_img": "https://live.staticflickr.com/65535/49711374478_011dff8431_o.jpg",
    "id_image": "Landscape_283728",
    "count_view": 0
  },
  {
    "link_thumb": "https://live.staticflickr.com/65535/49710762693_8c19879ecb_n.jpg",
    "id_album": "-437872736",
    "description": "Creature_958936",
    "title": "Creature_958936",
    "link_img": "https://live.staticflickr.com/65535/49710762693_db89513b8b_o.jpg",
    "id_image": "Creature_958936",
    "count_view": 0
  },
  {
    "link_thumb": "https://live.staticflickr.com/65535/49711184566_f9f364625f_n.jpg",
    "id_album": "-437872736",
    "description": "Creature_306445",
    "title": "Creature_306445",
    "link_img": "https://live.staticflickr.com/65535/49711184566_28621687cd_o.jpg",
    "id_image": "Creature_306445",
    "count_view": 0
  },
  {
    "link_thumb": "https://live.staticflickr.com/65535/49711652561_2329ebdf96_n.jpg",
    "id_album": "-1972042284",
    "description": "Fairy_270972",
    "title": "Fairy_270972",
    "link_img": "https://live.staticflickr.com/65535/49711652561_fb53e27529_o.jpg",
    "id_image": "Fairy_270972",
    "count_view": 0
  },
  {
    "link_thumb": "https://live.staticflickr.com/65535/49711993031_daf6bae6b7_n.jpg",
    "id_album": "-1859457952",
    "description": "Love_113306",
    "title": "Love_113306",
    "link_img": "https://live.staticflickr.com/65535/49711993031_3e5d8c142b_o.jpg",
    "id_image": "Love_113306",
    "count_view": 0
  },
  {
    "link_thumb": "https://live.staticflickr.com/65535/49711637038_8805cc424d_n.jpg",
    "id_album": "46520366",
    "description": "Turtle_546351",
    "title": "Turtle_546351",
    "link_img": "https://live.staticflickr.com/65535/49711637038_1602253a73_o.jpg",
    "id_image": "Turtle_546351",
    "count_view": 0
  },
  {
    "link_thumb": "https://live.staticflickr.com/65535/49712575662_27acb160a8_n.jpg",
    "id_album": "786934945",
    "description": "Whale_891430",
    "title": "Whale_891430",
    "link_img": "https://live.staticflickr.com/65535/49712575662_da7d3cea05_o.jpg",
    "id_image": "Whale_891430",
    "count_view": 0
  },
  {
    "link_thumb": "https://live.staticflickr.com/65535/49711751506_b77414ac05_n.jpg",
    "id_album": "857581314",
    "description": "Griffin_346308",
    "title": "Griffin_346308",
    "link_img": "https://live.staticflickr.com/65535/49711751506_80f2d6e039_o.jpg",
    "id_image": "Griffin_346308",
    "count_view": 0
  },
  {
    "link_thumb": "https://live.staticflickr.com/65535/49712076801_043046e9ba_n.jpg",
    "id_album": "-1326601535",
    "description": "Phoenix_714704",
    "title": "Phoenix_714704",
    "link_img": "https://live.staticflickr.com/65535/49712076801_3a19486d3b_o.jpg",
    "id_image": "Phoenix_714704",
    "count_view": 0
  },
  {
    "link_thumb": "https://live.staticflickr.com/65535/49711340597_29305863e5_n.jpg",
    "id_album": "-1846011410",
    "description": "Bird_546255",
    "title": "Bird_546255",
    "link_img": "https://live.staticflickr.com/65535/49711340597_68cf026e9c_o.jpg",
    "id_image": "Bird_546255",
    "count_view": 0
  },
  {
    "link_thumb": "https://live.staticflickr.com/65535/49711081543_1fcf028036_n.jpg",
    "id_album": "134100487",
    "description": "Elf_499253",
    "title": "Elf_499253",
    "link_img": "https://live.staticflickr.com/65535/49711081543_5a9dfaf09b_o.jpg",
    "id_image": "Elf_499253",
    "count_view": 0
  },
  {
    "link_thumb": "https://live.staticflickr.com/65535/49712441727_9d631d1d54_n.jpg",
    "id_album": "407101116",
    "description": "SeaMonster_242172",
    "title": "SeaMonster_242172",
    "link_img": "https://live.staticflickr.com/65535/49712441727_6d6e4f423b_o.jpg",
    "id_image": "SeaMonster_242172",
    "count_view": 0
  },
  {
    "link_thumb": "https://live.staticflickr.com/65535/49711993261_0393ec21ae_n.jpg",
    "id_album": "-1859457952",
    "description": "Love_152012",
    "title": "Love_152012",
    "link_img": "https://live.staticflickr.com/65535/49711993261_45d4d6d5bf_o.jpg",
    "id_image": "Love_152012",
    "count_view": 0
  }
]