[
  {
    "total_img": 383,
    "number_page": 2,
    "title": "Landscape",
    "tag": "Landscape,",
    "description": "Landscape",
    "link_thumb": "https://live.staticflickr.com/65535/49711793486_d47f481969_n.jpg",
    "id_album": "1402713104",
    "total_view": 383
  },
  {
    "total_img": 146,
    "number_page": 1,
    "title": "Women",
    "tag": "Women,",
    "description": "Women",
    "link_thumb": "https://live.staticflickr.com/65535/49711768798_125eae6ede_n.jpg",
    "id_album": "-1126835654",
    "total_view": 146
  },
  {
    "total_img": 48,
    "number_page": 1,
    "title": "Unicorn",
    "tag": "Unicorn,",
    "description": "Unicorn",
    "link_thumb": "https://live.staticflickr.com/65535/49712174936_cab9e5e2fa_n.jpg",
    "id_album": "431597977",
    "total_view": 48
  },
  {
    "total_img": 20,
    "number_page": 1,
    "title": "Legend Of The Five Rings",
    "tag": "Legend Of The Five Rings,",
    "description": "Legend Of The Five Rings",
    "link_thumb": "https://live.staticflickr.com/65535/49712296922_73a4503ec4_n.jpg",
    "id_album": "-1284959130",
    "total_view": 20
  },
  {
    "total_img": 20,
    "number_page": 1,
    "title": "Tattoo",
    "tag": "Tattoo,",
    "description": "Tattoo",
    "link_thumb": "https://live.staticflickr.com/65535/49712472782_de88727b61_n.jpg",
    "id_album": "1186644325",
    "total_view": 20
  },
  {
    "total_img": 26,
    "number_page": 1,
    "title": "Alice In Wonderland",
    "tag": "Alice In Wonderland,",
    "description": "Alice In Wonderland",
    "link_thumb": "https://live.staticflickr.com/65535/49710869641_6e2e9d160d_n.jpg",
    "id_album": "-956471126",
    "total_view": 26
  },
  {
    "total_img": 35,
    "number_page": 1,
    "title": "Pegasus",
    "tag": "Pegasus,",
    "description": "Pegasus",
    "link_thumb": "https://live.staticflickr.com/65535/49711524093_6b3369cac3_n.jpg",
    "id_album": "-639976841",
    "total_view": 35
  },
  {
    "total_img": 18,
    "number_page": 1,
    "title": "Sorcerer",
    "tag": "Sorcerer,",
    "description": "Sorcerer",
    "link_thumb": "https://live.staticflickr.com/65535/49711605388_3be4d366bf_n.jpg",
    "id_album": "-5356651",
    "total_view": 18
  },
  {
    "total_img": 39,
    "number_page": 1,
    "title": "Sea Monster",
    "tag": "Sea Monster,",
    "description": "Sea Monster",
    "link_thumb": "https://live.staticflickr.com/65535/49711581833_1d2c03c1fa_n.jpg",
    "id_album": "407101116",
    "total_view": 39
  },
  {
    "total_img": 65,
    "number_page": 1,
    "title": "Knight",
    "tag": "Knight,",
    "description": "Knight",
    "link_thumb": "https://live.staticflickr.com/65535/49712100382_4eae95f9c2_n.jpg",
    "id_album": "469960528",
    "total_view": 65
  },
  {
    "total_img": 43,
    "number_page": 1,
    "title": "Bird",
    "tag": "Bird,",
    "description": "Bird",
    "link_thumb": "https://live.staticflickr.com/65535/49711338192_ab42f65507_n.jpg",
    "id_album": "-1846011410",
    "total_view": 43
  },
  {
    "total_img": 151,
    "number_page": 1,
    "title": "Women 2",
    "tag": "Women 2,",
    "description": "Women 2",
    "link_thumb": "https://live.staticflickr.com/65535/49712677447_469cdbff3a_n.jpg",
    "id_album": "295204930",
    "total_view": 151
  },
  {
    "total_img": 16,
    "number_page": 1,
    "title": "Ocean",
    "tag": "Ocean,",
    "description": "Ocean",
    "link_thumb": "https://live.staticflickr.com/65535/49712030591_cb46e5b114_n.jpg",
    "id_album": "-14582214",
    "total_view": 16
  },
  {
    "total_img": 56,
    "number_page": 1,
    "title": "Ship",
    "tag": "Ship,",
    "description": "Ship",
    "link_thumb": "https://live.staticflickr.com/65535/49712127571_5fcf80d4d6_n.jpg",
    "id_album": "-395228614",
    "total_view": 56
  },
  {
    "total_img": 32,
    "number_page": 1,
    "title": "Lion",
    "tag": "Lion,",
    "description": "Lion",
    "link_thumb": "https://live.staticflickr.com/65535/49712301647_9967a4a303_n.jpg",
    "id_album": "416744915",
    "total_view": 32
  },
  {
    "total_img": 21,
    "number_page": 1,
    "title": "Place",
    "tag": "Place,",
    "description": "Place",
    "link_thumb": "https://live.staticflickr.com/65535/49712404772_d5182b930c_n.jpg",
    "id_album": "1587588550",
    "total_view": 21
  },
  {
    "total_img": 10,
    "number_page": 1,
    "title": "Zodiac",
    "tag": "Zodiac,",
    "description": "Zodiac",
    "link_thumb": "https://live.staticflickr.com/65535/49713029997_46f4ce225a_n.jpg",
    "id_album": "-1207759647",
    "total_view": 10
  },
  {
    "total_img": 52,
    "number_page": 1,
    "title": "Tiger",
    "tag": "Tiger,",
    "description": "Tiger",
    "link_thumb": "https://live.staticflickr.com/65535/49711620933_29c0029e7c_n.jpg",
    "id_album": "405170427",
    "total_view": 52
  },
  {
    "total_img": 72,
    "number_page": 1,
    "title": "Child",
    "tag": "Child,",
    "description": "Child",
    "link_thumb": "https://live.staticflickr.com/65535/49710540503_607bf0d548_n.jpg",
    "id_album": "430704260",
    "total_view": 72
  },
  {
    "total_img": 78,
    "number_page": 1,
    "title": "Adventure",
    "tag": "Adventure,",
    "description": "Adventure",
    "link_thumb": "https://live.staticflickr.com/65535/49710324858_394535047a_n.jpg",
    "id_album": "-2109465612",
    "total_view": 78
  },
  {
    "total_img": 227,
    "number_page": 2,
    "title": "Castle",
    "tag": "Castle,",
    "description": "Castle",
    "link_thumb": "https://live.staticflickr.com/65535/49711354362_95584b21ce_n.jpg",
    "id_album": "-1541846310",
    "total_view": 227
  },
  {
    "total_img": 1360,
    "number_page": 7,
    "title": "Dragon",
    "tag": "Dragon,",
    "description": "Dragon",
    "link_thumb": "https://live.staticflickr.com/65535/49711345321_122eab3ff6_n.jpg",
    "id_album": "850176884",
    "total_view": 1360
  },
  {
    "total_img": 152,
    "number_page": 1,
    "title": "Women 4",
    "tag": "Women 4,",
    "description": "Women 4",
    "link_thumb": "https://live.staticflickr.com/65535/49712483371_6f090dcc69_n.jpg",
    "id_album": "-867594484",
    "total_view": 152
  },
  {
    "total_img": 65,
    "number_page": 1,
    "title": "Dark",
    "tag": "Dark,",
    "description": "Dark",
    "link_thumb": "https://live.staticflickr.com/65535/49711311486_73b0d59427_n.jpg",
    "id_album": "2021464556",
    "total_view": 65
  },
  {
    "total_img": 43,
    "number_page": 1,
    "title": "Samurai",
    "tag": "Samurai,",
    "description": "Samurai",
    "link_thumb": "https://live.staticflickr.com/65535/49712102186_f4b9148be4_n.jpg",
    "id_album": "-1611961467",
    "total_view": 43
  },
  {
    "total_img": 11,
    "number_page": 1,
    "title": "Sorceress",
    "tag": "Sorceress,",
    "description": "Sorceress",
    "link_thumb": "https://live.staticflickr.com/65535/49711609813_3762f8ae62_n.jpg",
    "id_album": "1240974613",
    "total_view": 11
  },
  {
    "total_img": 26,
    "number_page": 1,
    "title": "Whale",
    "tag": "Whale,",
    "description": "Whale",
    "link_thumb": "https://live.staticflickr.com/65535/49712248656_d428c7006d_n.jpg",
    "id_album": "786934945",
    "total_view": 26
  },
  {
    "total_img": 5,
    "number_page": 1,
    "title": "Lovely birds",
    "tag": "Lovely birds,",
    "description": "Lovely birds",
    "link_thumb": "https://live.staticflickr.com/65535/49711999121_eb7c0d9149_n.jpg",
    "id_album": "-10804541",
    "total_view": 5
  },
  {
    "total_img": 79,
    "number_page": 1,
    "title": "Girls Art 3D",
    "tag": "Girls Art 3D,",
    "description": "Girls Art 3D",
    "link_thumb": "https://live.staticflickr.com/65535/49987742132_4d1a5577f6_n.jpg",
    "id_album": "-1703946758",
    "total_view": 79
  },
  {
    "total_img": 10,
    "number_page": 1,
    "title": "Warior",
    "tag": "Warior,",
    "description": "Warior",
    "link_thumb": "https://live.staticflickr.com/65535/49712195211_9319e9ce15_n.jpg",
    "id_album": "1215289234",
    "total_view": 10
  },
  {
    "total_img": 45,
    "number_page": 1,
    "title": "Phoenix",
    "tag": "Phoenix,",
    "description": "Phoenix",
    "link_thumb": "https://live.staticflickr.com/65535/49712068881_eeffbb8c12_n.jpg",
    "id_album": "-1326601535",
    "total_view": 45
  },
  {
    "total_img": 38,
    "number_page": 1,
    "title": "Gods",
    "tag": "Gods,",
    "description": "Gods",
    "link_thumb": "https://live.staticflickr.com/65535/49711205618_3f351cf990_n.jpg",
    "id_album": "1131236559",
    "total_view": 38
  },
  {
    "total_img": 19,
    "number_page": 1,
    "title": "Mermaid",
    "tag": "Mermaid,",
    "description": "Mermaid",
    "link_thumb": "https://live.staticflickr.com/65535/49711486833_a7e6cef0b2_n.jpg",
    "id_album": "1721880108",
    "total_view": 19
  },
  {
    "total_img": 244,
    "number_page": 2,
    "title": "Landscape 1",
    "tag": "Landscape 1,",
    "description": "Landscape 1",
    "link_thumb": "https://live.staticflickr.com/65535/49712210517_b4e42de7e9_n.jpg",
    "id_album": "-833110404",
    "total_view": 244
  },
  {
    "total_img": 158,
    "number_page": 1,
    "title": "Fairy",
    "tag": "Fairy,",
    "description": "Fairy",
    "link_thumb": "https://live.staticflickr.com/65535/49711643691_21587c9686_n.jpg",
    "id_album": "-1972042284",
    "total_view": 158
  },
  {
    "total_img": 1011,
    "number_page": 6,
    "title": "Creature",
    "tag": "Creature,",
    "description": "Creature",
    "link_thumb": "https://live.staticflickr.com/65535/49711138411_48f2ec2189_n.jpg",
    "id_album": "-437872736",
    "total_view": 1011
  },
  {
    "total_img": 16,
    "number_page": 1,
    "title": "Red Riding Hood",
    "tag": "Red Riding Hood,",
    "description": "Red Riding Hood",
    "link_thumb": "https://live.staticflickr.com/65535/49711552748_c5f5f950ea_n.jpg",
    "id_album": "606798642",
    "total_view": 16
  },
  {
    "total_img": 25,
    "number_page": 1,
    "title": "Love",
    "tag": "Love,",
    "description": "Love",
    "link_thumb": "https://live.staticflickr.com/65535/49711993031_daf6bae6b7_n.jpg",
    "id_album": "-1859457952",
    "total_view": 25
  },
  {
    "total_img": 156,
    "number_page": 1,
    "title": "Women 3",
    "tag": "Women 3,",
    "description": "Women 3",
    "link_thumb": "https://live.staticflickr.com/65535/49711888053_464535e030_n.jpg",
    "id_album": "1861288871",
    "total_view": 156
  },
  {
    "total_img": 95,
    "number_page": 1,
    "title": "Angel Warrior",
    "tag": "Angel Warrior,",
    "description": "Angel Warrior",
    "link_thumb": "https://live.staticflickr.com/65535/49710873411_3e3e77bc23_n.jpg",
    "id_album": "-1000175186",
    "total_view": 95
  },
  {
    "total_img": 13,
    "number_page": 1,
    "title": "Hydra",
    "tag": "Hydra,",
    "description": "Hydra",
    "link_thumb": "https://live.staticflickr.com/65535/49712097002_b8fbd2ed21_n.jpg",
    "id_album": "-1967191405",
    "total_view": 13
  },
  {
    "total_img": 30,
    "number_page": 1,
    "title": "Magic",
    "tag": "Magic,",
    "description": "Magic",
    "link_thumb": "https://live.staticflickr.com/65535/49711464088_49f98486a6_n.jpg",
    "id_album": "-1613076477",
    "total_view": 30
  },
  {
    "total_img": 168,
    "number_page": 1,
    "title": "Warrior",
    "tag": "Warrior,",
    "description": "Warrior",
    "link_thumb": "https://live.staticflickr.com/65535/49712518827_7a3bcd0eb9_n.jpg",
    "id_album": "-1261420436",
    "total_view": 168
  },
  {
    "total_img": 28,
    "number_page": 1,
    "title": "Griffin",
    "tag": "Griffin,",
    "description": "Griffin",
    "link_thumb": "https://live.staticflickr.com/65535/49712072357_0577e8f314_n.jpg",
    "id_album": "857581314",
    "total_view": 28
  },
  {
    "total_img": 207,
    "number_page": 2,
    "title": "Battle",
    "tag": "Battle,",
    "description": "Battle",
    "link_thumb": "https://live.staticflickr.com/65535/49710981556_7fd5e001fb_n.jpg",
    "id_album": "1187037014",
    "total_view": 207
  },
  {
    "total_img": 152,
    "number_page": 1,
    "title": "Forest",
    "tag": "Forest,",
    "description": "Forest",
    "link_thumb": "https://live.staticflickr.com/65535/49712012132_5082ebf05a_n.jpg",
    "id_album": "-1083189875",
    "total_view": 152
  },
  {
    "total_img": 44,
    "number_page": 1,
    "title": "Deer",
    "tag": "Deer,",
    "description": "Deer",
    "link_thumb": "https://live.staticflickr.com/65535/49711325836_2b40728fd6_n.jpg",
    "id_album": "1903411565",
    "total_view": 44
  },
  {
    "total_img": 47,
    "number_page": 1,
    "title": "Cat",
    "tag": "Cat,",
    "description": "Cat",
    "link_thumb": "https://live.staticflickr.com/65535/49710533418_55f8ab004b_n.jpg",
    "id_album": "-1741487325",
    "total_view": 47
  },
  {
    "total_img": 33,
    "number_page": 1,
    "title": "Archer",
    "tag": "Archer,",
    "description": "Archer",
    "link_thumb": "https://live.staticflickr.com/65535/49710393308_6e926a9889_n.jpg",
    "id_album": "-1560111795",
    "total_view": 33
  },
  {
    "total_img": 7,
    "number_page": 1,
    "title": "Sylvan",
    "tag": "Sylvan,",
    "description": "Sylvan",
    "link_thumb": "https://live.staticflickr.com/65535/49712150081_18102c6509_n.jpg",
    "id_album": "1209361954",
    "total_view": 7
  },
  {
    "total_img": 28,
    "number_page": 1,
    "title": "Ruin",
    "tag": "Ruin,",
    "description": "Ruin",
    "link_thumb": "https://live.staticflickr.com/65535/49712093466_8559233c48_n.jpg",
    "id_album": "1223576123",
    "total_view": 28
  },
  {
    "total_img": 42,
    "number_page": 1,
    "title": "House",
    "tag": "House,",
    "description": "House",
    "link_thumb": "https://live.staticflickr.com/65535/49711764921_47bf108eb2_n.jpg",
    "id_album": "1957967226",
    "total_view": 42
  },
  {
    "total_img": 10,
    "number_page": 1,
    "title": "Pirate",
    "tag": "Pirate,",
    "description": "Pirate",
    "link_thumb": "https://live.staticflickr.com/65535/49711543918_4848812172_n.jpg",
    "id_album": "-300361534",
    "total_view": 10
  },
  {
    "total_img": 62,
    "number_page": 1,
    "title": "Demon",
    "tag": "Demon,",
    "description": "Demon",
    "link_thumb": "https://live.staticflickr.com/65535/49711656422_e333330060_n.jpg",
    "id_album": "7198985",
    "total_view": 62
  },
  {
    "total_img": 207,
    "number_page": 2,
    "title": "Women Warrior",
    "tag": "Women Warrior,",
    "description": "Women Warrior",
    "link_thumb": "https://live.staticflickr.com/65535/49712542066_e92f4bf88d_n.jpg",
    "id_album": "-1675918237",
    "total_view": 207
  },
  {
    "total_img": 41,
    "number_page": 1,
    "title": "Giant",
    "tag": "Giant,",
    "description": "Giant",
    "link_thumb": "https://live.staticflickr.com/65535/49711728451_d87bf3309d_n.jpg",
    "id_album": "402434752",
    "total_view": 41
  },
  {
    "total_img": 16,
    "number_page": 1,
    "title": "Turtle",
    "tag": "Turtle,",
    "description": "Turtle",
    "link_thumb": "https://live.staticflickr.com/65535/49711634573_27489b4903_n.jpg",
    "id_album": "46520366",
    "total_view": 16
  },
  {
    "total_img": 30,
    "number_page": 1,
    "title": "Werewolf",
    "tag": "Werewolf,",
    "description": "Werewolf",
    "link_thumb": "https://live.staticflickr.com/65535/49712241051_53d4211845_n.jpg",
    "id_album": "1173975892",
    "total_view": 30
  },
  {
    "total_img": 13,
    "number_page": 1,
    "title": "Wizard",
    "tag": "Wizard,",
    "description": "Wizard",
    "link_thumb": "https://live.staticflickr.com/65535/49712587882_90c964530f_n.jpg",
    "id_album": "-656526651",
    "total_view": 13
  },
  {
    "total_img": 25,
    "number_page": 1,
    "title": "Fox",
    "tag": "Fox,",
    "description": "Fox",
    "link_thumb": "https://live.staticflickr.com/65535/49711188038_43976cd2b7_n.jpg",
    "id_album": "-128218148",
    "total_view": 25
  },
  {
    "total_img": 23,
    "number_page": 1,
    "title": "A Song Of Ice And Fire",
    "tag": "A Song Of Ice And Fire,",
    "description": "A Song Of Ice And Fire",
    "link_thumb": "https://live.staticflickr.com/65535/49711179437_c978c1afde_n.jpg",
    "id_album": "-218097820",
    "total_view": 23
  },
  {
    "total_img": 135,
    "number_page": 1,
    "title": "Elf",
    "tag": "Elf,",
    "description": "Elf",
    "link_thumb": "https://live.staticflickr.com/65535/49711923352_5d81198df8_n.jpg",
    "id_album": "134100487",
    "total_view": 135
  },
  {
    "total_img": 21,
    "number_page": 1,
    "title": "Dwarf",
    "tag": "Dwarf,",
    "description": "Dwarf",
    "link_thumb": "https://live.staticflickr.com/65535/49711594521_10debf123d_n.jpg",
    "id_album": "-1594184835",
    "total_view": 21
  },
  {
    "total_img": 12,
    "number_page": 1,
    "title": "Vampire",
    "tag": "Vampire,",
    "description": "Vampire",
    "link_thumb": "https://live.staticflickr.com/65535/49712187546_9cd6fb8db1_n.jpg",
    "id_album": "43335239",
    "total_view": 12
  },
  {
    "total_img": 307,
    "number_page": 2,
    "title": "Artistic",
    "tag": "Artistic,",
    "description": "Artistic",
    "link_thumb": "https://live.staticflickr.com/65535/49710935516_0b11d3640d_n.jpg",
    "id_album": "523598895",
    "total_view": 307
  },
  {
    "total_img": 63,
    "number_page": 1,
    "title": "Oriental",
    "tag": "Oriental,",
    "description": "Oriental",
    "link_thumb": "https://live.staticflickr.com/65535/49711499188_d2e982b783_n.jpg",
    "id_album": "1892085513",
    "total_view": 63
  },
  {
    "total_img": 37,
    "number_page": 1,
    "title": "Horse",
    "tag": "Horse,",
    "description": "Horse",
    "link_thumb": "https://live.staticflickr.com/65535/49711756596_302f38b9ae_n.jpg",
    "id_album": "-1933715543",
    "total_view": 37
  },
  {
    "total_img": 63,
    "number_page": 1,
    "title": "Building",
    "tag": "Building,",
    "description": "Building",
    "link_thumb": "https://live.staticflickr.com/65535/49711021521_12c11e1df9_n.jpg",
    "id_album": "406431601",
    "total_view": 63
  },
  {
    "total_img": 290,
    "number_page": 2,
    "title": "City",
    "tag": "City,",
    "description": "City",
    "link_thumb": "https://live.staticflickr.com/65535/49711086801_305aaa634c_n.jpg",
    "id_album": "-1964113117",
    "total_view": 290
  },
  {
    "total_img": 43,
    "number_page": 1,
    "title": "Men",
    "tag": "Men,",
    "description": "Men",
    "link_thumb": "https://live.staticflickr.com/65535/49712012981_d27d43a6a4_n.jpg",
    "id_album": "-222719689",
    "total_view": 43
  },
  {
    "total_img": 13,
    "number_page": 1,
    "title": "Medusa",
    "tag": "Medusa,",
    "description": "Medusa",
    "link_thumb": "https://live.staticflickr.com/65535/49711471383_6b5a29d1c6_n.jpg",
    "id_album": "-447542718",
    "total_view": 13
  },
  {
    "total_img": 217,
    "number_page": 2,
    "title": "Animal",
    "tag": "Animal,",
    "description": "Animal",
    "link_thumb": "https://live.staticflickr.com/65535/49710892146_ef72834a3f_n.jpg",
    "id_album": "-1913845949",
    "total_view": 217
  },
  {
    "total_img": 128,
    "number_page": 1,
    "title": "Wolf",
    "tag": "Wolf,",
    "description": "Wolf",
    "link_thumb": "https://live.staticflickr.com/65535/49712591022_aa2efb346e_n.jpg",
    "id_album": "-709711865",
    "total_view": 128
  },
  {
    "total_img": 6,
    "number_page": 1,
    "title": "Woman",
    "tag": "Woman,",
    "description": "Woman",
    "link_thumb": "https://live.staticflickr.com/65535/49712302241_28be1f0134_n.jpg",
    "id_album": "-362161606",
    "total_view": 6
  },
  {
    "total_img": 29,
    "number_page": 1,
    "title": "Other",
    "tag": "Other,",
    "description": "Other",
    "link_thumb": "https://live.staticflickr.com/65535/49712053771_02e24724c8_n.jpg",
    "id_album": "-1862561193",
    "total_view": 29
  },
  {
    "total_img": 24,
    "number_page": 1,
    "title": "Lord of the Rings",
    "tag": "Lord of the Rings,",
    "description": "Lord of the Rings",
    "link_thumb": "https://live.staticflickr.com/65535/49711986641_8956be26e7_n.jpg",
    "id_album": "1006968559",
    "total_view": 24
  },
  {
    "total_img": 13,
    "number_page": 1,
    "title": "Viking",
    "tag": "Viking,",
    "description": "Viking",
    "link_thumb": "https://live.staticflickr.com/65535/49711655958_5e7d30d90c_n.jpg",
    "id_album": "19263973",
    "total_view": 13
  },
  {
    "total_img": 29,
    "number_page": 1,
    "title": "Witch",
    "tag": "Witch,",
    "description": "Witch",
    "link_thumb": "https://live.staticflickr.com/65535/49712577332_a62ee7cec9_n.jpg",
    "id_album": "478331085",
    "total_view": 29
  }
]