[
  {
    "link_thumb": "https://live.staticflickr.com/65535/49710415368_6196f0c08f_n.jpg",
    "id_album": "523598895",
    "description": "Artistic_181481",
    "title": "Artistic_181481",
    "link_img": "https://live.staticflickr.com/65535/49710415368_d6cc709376_o.jpg",
    "id_image": "Artistic_181481",
    "count_view": 0
  },
  {
    "link_thumb": "https://live.staticflickr.com/65535/49712064176_4b7111984d_n.jpg",
    "id_album": "-639976841",
    "description": "Pegasus_481401",
    "title": "Pegasus_481401",
    "link_img": "https://live.staticflickr.com/65535/49712064176_7f350b439a_o.jpg",
    "id_image": "Pegasus_481401",
    "count_view": 0
  },
  {
    "link_thumb": "https://live.staticflickr.com/65535/49712691196_11df4a0216_n.jpg",
    "id_album": "-1675918237",
    "description": "WomenWarrior_880253",
    "title": "WomenWarrior_880253",
    "link_img": "https://live.staticflickr.com/65535/49712691196_da451fec46_o.jpg",
    "id_image": "WomenWarrior_880253",
    "count_view": 0
  },
  {
    "link_thumb": "https://live.staticflickr.com/65535/49712281457_856644f10a_n.jpg",
    "id_album": "-833110404",
    "description": "Landscape_516991",
    "title": "Landscape_516991",
    "link_img": "https://live.staticflickr.com/65535/49712281457_a549da5ffb_o.jpg",
    "id_image": "Landscape_516991",
    "count_view": 0
  },
  {
    "link_thumb": "https://live.staticflickr.com/65535/49711100448_4d3dd60097_n.jpg",
    "id_album": "134100487",
    "description": "Elf_788773",
    "title": "Elf_788773",
    "link_img": "https://live.staticflickr.com/65535/49711100448_4bac72e34a_o.jpg",
    "id_image": "Elf_788773",
    "count_view": 0
  },
  {
    "link_thumb": "https://live.staticflickr.com/65535/49712076801_043046e9ba_n.jpg",
    "id_album": "-1326601535",
    "description": "Phoenix_714704",
    "title": "Phoenix_714704",
    "link_img": "https://live.staticflickr.com/65535/49712076801_3a19486d3b_o.jpg",
    "id_image": "Phoenix_714704",
    "count_view": 0
  },
  {
    "link_thumb": "https://live.staticflickr.com/65535/49712198556_8caa9a800c_n.jpg",
    "id_album": "-1261420436",
    "description": "Warrior_152659",
    "title": "Warrior_152659",
    "link_img": "https://live.staticflickr.com/65535/49712198556_34f485f5e7_o.jpg",
    "id_image": "Warrior_152659",
    "count_view": 0
  },
  {
    "link_thumb": "https://live.staticflickr.com/65535/49711622982_75f31bdbe3_n.jpg",
    "id_album": "-437872736",
    "description": "Creature_958937",
    "title": "Creature_958937",
    "link_img": "https://live.staticflickr.com/65535/49711622982_0b83e62e51_o.jpg",
    "id_image": "Creature_958937",
    "count_view": 0
  },
  {
    "link_thumb": "https://live.staticflickr.com/65535/49711757888_54cda4abe3_n.jpg",
    "id_album": "-709711865",
    "description": "Wolf_871904",
    "title": "Wolf_871904",
    "link_img": "https://live.staticflickr.com/65535/49711757888_7a2c9b5c69_o.jpg",
    "id_image": "Wolf_871904",
    "count_view": 0
  },
  {
    "link_thumb": "https://live.staticflickr.com/65535/49711300336_83176f28ce_n.jpg",
    "id_album": "-437872736",
    "description": "Creature_958944",
    "title": "Creature_958944",
    "link_img": "https://live.staticflickr.com/65535/49711300336_8d80d6f76a_o.jpg",
    "id_image": "Creature_958944",
    "count_view": 0
  },
  {
    "link_thumb": "https://live.staticflickr.com/65535/49711305011_fb305d40c8_n.jpg",
    "id_album": "-437872736",
    "description": "Creature_958980",
    "title": "Creature_958980",
    "link_img": "https://live.staticflickr.com/65535/49711305011_887d19e7b2_o.jpg",
    "id_image": "Creature_958980",
    "count_view": 0
  },
  {
    "link_thumb": "https://live.staticflickr.com/65535/49712197881_d39a4b41ba_n.jpg",
    "id_album": "-1261420436",
    "description": "Warrior_113112",
    "title": "Warrior_113112",
    "link_img": "https://live.staticflickr.com/65535/49712197881_56d8c0e1d9_o.jpg",
    "id_image": "Warrior_113112",
    "count_view": 0
  },
  {
    "link_thumb": "https://live.staticflickr.com/65535/49711204278_a7762d50d6_n.jpg",
    "id_album": "402434752",
    "description": "Giant_952021",
    "title": "Giant_952021",
    "link_img": "https://live.staticflickr.com/65535/49711204278_01568e330f_o.jpg",
    "id_image": "Giant_952021",
    "count_view": 0
  },
  {
    "link_thumb": "https://live.staticflickr.com/65535/49710990626_dd447d2784_n.jpg",
    "id_album": "1187037014",
    "description": "Battle_293333",
    "title": "Battle_293333",
    "link_img": "https://live.staticflickr.com/65535/49710990626_db36c434a8_o.jpg",
    "id_image": "Battle_293333",
    "count_view": 0
  },
  {
    "link_thumb": "https://live.staticflickr.com/65535/49711649408_4e152e0c4a_n.jpg",
    "id_album": "431597977",
    "description": "Unicorn_939574",
    "title": "Unicorn_939574",
    "link_img": "https://live.staticflickr.com/65535/49711649408_4d10d123cb_o.jpg",
    "id_image": "Unicorn_939574",
    "count_view": 0
  },
  {
    "link_thumb": "https://live.staticflickr.com/65535/49712180406_daf1f81447_n.jpg",
    "id_album": "431597977",
    "description": "Unicorn_493567",
    "title": "Unicorn_493567",
    "link_img": "https://live.staticflickr.com/65535/49712180406_b83eaef9c7_o.jpg",
    "id_image": "Unicorn_493567",
    "count_view": 0
  },
  {
    "link_thumb": "https://live.staticflickr.com/65535/49710351118_b9f22941ea_n.jpg",
    "id_album": "-1000175186",
    "description": "AngelWarrior_667445",
    "title": "AngelWarrior_667445",
    "link_img": "https://live.staticflickr.com/65535/49710351118_41ff394328_o.jpg",
    "id_image": "AngelWarrior_667445",
    "count_view": 0
  },
  {
    "link_thumb": "https://live.staticflickr.com/65535/49711950052_8872df6f14_n.jpg",
    "id_album": "134100487",
    "description": "Elf_684517",
    "title": "Elf_684517",
    "link_img": "https://live.staticflickr.com/65535/49711950052_9b9dc24e74_o.jpg",
    "id_image": "Elf_684517",
    "count_view": 0
  },
  {
    "link_thumb": "https://live.staticflickr.com/65535/49711698031_979d0edd17_n.jpg",
    "id_album": "-1083189875",
    "description": "Forest_509411",
    "title": "Forest_509411",
    "link_img": "https://live.staticflickr.com/65535/49711698031_5b95a511f6_o.jpg",
    "id_image": "Forest_509411",
    "count_view": 0
  },
  {
    "link_thumb": "https://live.staticflickr.com/65535/49712459042_1f0b445702_n.jpg",
    "id_album": "-395228614",
    "description": "Ship_597355",
    "title": "Ship_597355",
    "link_img": "https://live.staticflickr.com/65535/49712459042_5aeef7266c_o.jpg",
    "id_image": "Ship_597355",
    "count_view": 0
  },
  {
    "link_thumb": "https://live.staticflickr.com/65535/49711213668_bf307f6310_n.jpg",
    "id_album": "1131236559",
    "description": "Gods_951312",
    "title": "Gods_951312",
    "link_img": "https://live.staticflickr.com/65535/49711213668_81b00ac265_o.jpg",
    "id_image": "Gods_951312",
    "count_view": 0
  },
  {
    "link_thumb": "https://live.staticflickr.com/65535/49711599563_12109e63bb_n.jpg",
    "id_album": "-395228614",
    "description": "Ship_439040",
    "title": "Ship_439040",
    "link_img": "https://live.staticflickr.com/65535/49711599563_7fbacbc3eb_o.jpg",
    "id_image": "Ship_439040",
    "count_view": 0
  },
  {
    "link_thumb": "https://live.staticflickr.com/65535/49711735682_ba85ebaede_n.jpg",
    "id_album": "850176884",
    "description": "Dragon_303639",
    "title": "Dragon_303639",
    "link_img": "https://live.staticflickr.com/65535/49711735682_af2967dda2_o.jpg",
    "id_image": "Dragon_303639",
    "count_view": 0
  },
  {
    "link_thumb": "https://live.staticflickr.com/65535/49712459957_af498795b6_n.jpg",
    "id_album": "-395228614",
    "description": "Ship_835733",
    "title": "Ship_835733",
    "link_img": "https://live.staticflickr.com/65535/49712459957_3fb5fce164_o.jpg",
    "id_image": "Ship_835733",
    "count_view": 0
  },
  {
    "link_thumb": "https://live.staticflickr.com/65535/49711901757_97dd3a9496_n.jpg",
    "id_album": "850176884",
    "description": "Dragon_959234",
    "title": "Dragon_959234",
    "link_img": "https://live.staticflickr.com/65535/49711901757_fbf33ea195_o.jpg",
    "id_image": "Dragon_959234",
    "count_view": 0
  },
  {
    "link_thumb": "https://live.staticflickr.com/65535/49712828762_3043f90425_n.jpg",
    "id_album": "-867594484",
    "description": "Women_557296",
    "title": "Women_557296",
    "link_img": "https://live.staticflickr.com/65535/49712828762_b60769934d_o.jpg",
    "id_image": "Women_557296",
    "count_view": 0
  },
  {
    "link_thumb": "https://live.staticflickr.com/65535/49710780508_4fb302bc2b_n.jpg",
    "id_album": "2021464556",
    "description": "Dark_241967",
    "title": "Dark_241967",
    "link_img": "https://live.staticflickr.com/65535/49710780508_d14635182c_o.jpg",
    "id_image": "Dark_241967",
    "count_view": 0
  },
  {
    "link_thumb": "https://live.staticflickr.com/65535/49710448723_231bb091b2_n.jpg",
    "id_album": "1187037014",
    "description": "Battle_114968",
    "title": "Battle_114968",
    "link_img": "https://live.staticflickr.com/65535/49710448723_0892f0db1a_o.jpg",
    "id_image": "Battle_114968",
    "count_view": 0
  },
  {
    "link_thumb": "https://live.staticflickr.com/65535/49710607583_31e24369a6_n.jpg",
    "id_album": "-437872736",
    "description": "Creature_146657",
    "title": "Creature_146657",
    "link_img": "https://live.staticflickr.com/65535/49710607583_dd47f85cc9_o.jpg",
    "id_image": "Creature_146657",
    "count_view": 0
  },
  {
    "link_thumb": "https://live.staticflickr.com/65535/49712105562_f3c73f5d9d_n.jpg",
    "id_album": "469960528",
    "description": "Knight_530486",
    "title": "Knight_530486",
    "link_img": "https://live.staticflickr.com/65535/49712105562_457f40ae39_o.jpg",
    "id_image": "Knight_530486",
    "count_view": 0
  },
  {
    "link_thumb": "https://live.staticflickr.com/65535/49711530557_c1c12969e6_n.jpg",
    "id_album": "-437872736",
    "description": "Creature_339118",
    "title": "Creature_339118",
    "link_img": "https://live.staticflickr.com/65535/49711530557_e386506132_o.jpg",
    "id_image": "Creature_339118",
    "count_view": 0
  },
  {
    "link_thumb": "https://live.staticflickr.com/65535/49712532762_514e018e5c_n.jpg",
    "id_album": "-1261420436",
    "description": "Warrior_552716",
    "title": "Warrior_552716",
    "link_img": "https://live.staticflickr.com/65535/49712532762_f055cd36f1_o.jpg",
    "id_image": "Warrior_552716",
    "count_view": 0
  },
  {
    "link_thumb": "https://live.staticflickr.com/65535/49711000753_10d38f63a8_n.jpg",
    "id_album": "850176884",
    "description": "Dragon_856423",
    "title": "Dragon_856423",
    "link_img": "https://live.staticflickr.com/65535/49711000753_6a14820f0e_o.jpg",
    "id_image": "Dragon_856423",
    "count_view": 0
  },
  {
    "link_thumb": "https://live.staticflickr.com/65535/49711702141_298e53943f_n.jpg",
    "id_album": "-1083189875",
    "description": "Forest_665329",
    "title": "Forest_665329",
    "link_img": "https://live.staticflickr.com/65535/49711702141_a65baa22fe_o.jpg",
    "id_image": "Forest_665329",
    "count_view": 0
  },
  {
    "link_thumb": "https://live.staticflickr.com/65535/49712676146_5fabc74bc1_n.jpg",
    "id_album": "-1675918237",
    "description": "WomenWarrior_807134",
    "title": "WomenWarrior_807134",
    "link_img": "https://live.staticflickr.com/65535/49712676146_ec52da3a61_o.jpg",
    "id_image": "WomenWarrior_807134",
    "count_view": 0
  },
  {
    "link_thumb": "https://live.staticflickr.com/65535/49710836598_3ae131d627_n.jpg",
    "id_album": "850176884",
    "description": "Dragon_146483",
    "title": "Dragon_146483",
    "link_img": "https://live.staticflickr.com/65535/49710836598_e5f5603560_o.jpg",
    "id_image": "Dragon_146483",
    "count_view": 0
  },
  {
    "link_thumb": "https://live.staticflickr.com/65535/49712540812_dfbed32344_n.jpg",
    "id_album": "-1261420436",
    "description": "Warrior_685306",
    "title": "Warrior_685306",
    "link_img": "https://live.staticflickr.com/65535/49712540812_780826f494_o.jpg",
    "id_image": "Warrior_685306",
    "count_view": 0
  },
  {
    "link_thumb": "https://live.staticflickr.com/65535/49710514518_8b76947dd8_n.jpg",
    "id_album": "-1541846310",
    "description": "Castle_610777",
    "title": "Castle_610777",
    "link_img": "https://live.staticflickr.com/65535/49710514518_43c5535742_o.jpg",
    "id_image": "Castle_610777",
    "count_view": 0
  },
  {
    "link_thumb": "https://live.staticflickr.com/65535/49711618642_680b1f9b68_n.jpg",
    "id_album": "-437872736",
    "description": "Creature_958902",
    "title": "Creature_958902",
    "link_img": "https://live.staticflickr.com/65535/49711618642_09514937d1_o.jpg",
    "id_image": "Creature_958902",
    "count_view": 0
  },
  {
    "link_thumb": "https://live.staticflickr.com/65535/49711357506_70877faa00_n.jpg",
    "id_album": "850176884",
    "description": "Dragon_118561",
    "title": "Dragon_118561",
    "link_img": "https://live.staticflickr.com/65535/49711357506_c4f7903849_o.jpg",
    "id_image": "Dragon_118561",
    "count_view": 0
  },
  {
    "link_thumb": "https://live.staticflickr.com/65535/49711249953_b52b812f17_n.jpg",
    "id_album": "469960528",
    "description": "Knight_703409",
    "title": "Knight_703409",
    "link_img": "https://live.staticflickr.com/65535/49711249953_d7638d1bbf_o.jpg",
    "id_image": "Knight_703409",
    "count_view": 0
  },
  {
    "link_thumb": "https://live.staticflickr.com/65535/49712165687_3e7e98ac66_n.jpg",
    "id_album": "1402713104",
    "description": "Landscape_868852",
    "title": "Landscape_868852",
    "link_img": "https://live.staticflickr.com/65535/49712165687_b6a8d62e4f_o.jpg",
    "id_image": "Landscape_868852",
    "count_view": 0
  },
  {
    "link_thumb": "https://live.staticflickr.com/65535/49711116798_6a7624eb5b_n.jpg",
    "id_album": "-1972042284",
    "description": "Fairy_249186",
    "title": "Fairy_249186",
    "link_img": "https://live.staticflickr.com/65535/49711116798_755a738a7a_o.jpg",
    "id_image": "Fairy_249186",
    "count_view": 0
  },
  {
    "link_thumb": "https://live.staticflickr.com/65535/49798812721_8552bce550_n.jpg",
    "id_album": "-1703946758",
    "description": "ANIME_PIC_2ef1ed350151685c6fbadd8cf2579d0e",
    "title": "ANIME_PIC_2ef1ed350151685c6fbadd8cf2579d0e",
    "link_img": "https://live.staticflickr.com/65535/49798812721_b5414b77df_o.jpg",
    "id_image": "ANIME_PIC_2ef1ed350151685c6fbadd8cf2579d0e",
    "count_view": 0
  },
  {
    "link_thumb": "https://live.staticflickr.com/65535/49711247281_3bce351625_n.jpg",
    "id_album": "-437872736",
    "description": "Creature_555933",
    "title": "Creature_555933",
    "link_img": "https://live.staticflickr.com/65535/49711247281_643ea8e8c3_o.jpg",
    "id_image": "Creature_555933",
    "count_view": 0
  },
  {
    "link_thumb": "https://live.staticflickr.com/65535/49710381593_6ebed57f70_n.jpg",
    "id_album": "-1913845949",
    "description": "Animal_731961",
    "title": "Animal_731961",
    "link_img": "https://live.staticflickr.com/65535/49710381593_4fcc7ff26a_o.jpg",
    "id_image": "Animal_731961",
    "count_view": 0
  },
  {
    "link_thumb": "https://live.staticflickr.com/65535/49711749228_25425b357a_n.jpg",
    "id_album": "-709711865",
    "description": "Wolf_655550",
    "title": "Wolf_655550",
    "link_img": "https://live.staticflickr.com/65535/49711749228_f1679b7f9b_o.jpg",
    "id_image": "Wolf_655550",
    "count_view": 0
  },
  {
    "link_thumb": "https://live.staticflickr.com/65535/49712216746_10aaa62406_n.jpg",
    "id_album": "-1261420436",
    "description": "Warrior_616930",
    "title": "Warrior_616930",
    "link_img": "https://live.staticflickr.com/65535/49712216746_9a21c06662_o.jpg",
    "id_image": "Warrior_616930",
    "count_view": 0
  },
  {
    "link_thumb": "https://live.staticflickr.com/65535/49710860226_28c94e090e_n.jpg",
    "id_album": "-2109465612",
    "description": "Adventure_232896",
    "title": "Adventure_232896",
    "link_img": "https://live.staticflickr.com/65535/49710860226_46b198f330_o.jpg",
    "id_image": "Adventure_232896",
    "count_view": 0
  },
  {
    "link_thumb": "https://live.staticflickr.com/65535/49711890391_20897f6a2e_n.jpg",
    "id_album": "-833110404",
    "description": "Landscape_181120",
    "title": "Landscape_181120",
    "link_img": "https://live.staticflickr.com/65535/49711890391_a30259771b_o.jpg",
    "id_image": "Landscape_181120",
    "count_view": 0
  },
  {
    "link_thumb": "https://live.staticflickr.com/65535/49711084721_36721f422f_n.jpg",
    "id_album": "430704260",
    "description": "Child_921600",
    "title": "Child_921600",
    "link_img": "https://live.staticflickr.com/65535/49711084721_82aa00e399_o.jpg",
    "id_image": "Child_921600",
    "count_view": 0
  },
  {
    "link_thumb": "https://live.staticflickr.com/65535/49710790003_7a80160d7b_n.jpg",
    "id_album": "1903411565",
    "description": "Deer_212704",
    "title": "Deer_212704",
    "link_img": "https://live.staticflickr.com/65535/49710790003_6886f9d5e9_o.jpg",
    "id_image": "Deer_212704",
    "count_view": 0
  },
  {
    "link_thumb": "https://live.staticflickr.com/65535/49711406206_0025d70f0d_n.jpg",
    "id_album": "850176884",
    "description": "Dragon_269827",
    "title": "Dragon_269827",
    "link_img": "https://live.staticflickr.com/65535/49711406206_28b830e49a_o.jpg",
    "id_image": "Dragon_269827",
    "count_view": 0
  },
  {
    "link_thumb": "https://live.staticflickr.com/65535/49712070367_1868bcaeea_n.jpg",
    "id_album": "1131236559",
    "description": "Gods_764563",
    "title": "Gods_764563",
    "link_img": "https://live.staticflickr.com/65535/49712070367_7d33d2bebc_o.jpg",
    "id_image": "Gods_764563",
    "count_view": 0
  },
  {
    "link_thumb": "https://live.staticflickr.com/65535/49710353253_9acf57f62a_n.jpg",
    "id_album": "-1000175186",
    "description": "AngelWarrior_793652",
    "title": "AngelWarrior_793652",
    "link_img": "https://live.staticflickr.com/65535/49710353253_214bc17473_o.jpg",
    "id_image": "AngelWarrior_793652",
    "count_view": 0
  },
  {
    "link_thumb": "https://live.staticflickr.com/65535/49711360012_814743db75_n.jpg",
    "id_album": "-1541846310",
    "description": "Castle_189299",
    "title": "Castle_189299",
    "link_img": "https://live.staticflickr.com/65535/49711360012_b56679532c_o.jpg",
    "id_image": "Castle_189299",
    "count_view": 0
  },
  {
    "link_thumb": "https://live.staticflickr.com/65535/49711814346_249febf184_n.jpg",
    "id_album": "1402713104",
    "description": "Landscape_732262",
    "title": "Landscape_732262",
    "link_img": "https://live.staticflickr.com/65535/49711814346_303f468789_o.jpg",
    "id_image": "Landscape_732262",
    "count_view": 0
  },
  {
    "link_thumb": "https://live.staticflickr.com/65535/49710401548_682932ffa9_n.jpg",
    "id_album": "-1560111795",
    "description": "Archer_845408",
    "title": "Archer_845408",
    "link_img": "https://live.staticflickr.com/65535/49710401548_7a5bd3735c_o.jpg",
    "id_image": "Archer_845408",
    "count_view": 0
  },
  {
    "link_thumb": "https://live.staticflickr.com/65535/49711832962_0d50c8c47d_n.jpg",
    "id_album": "850176884",
    "description": "Dragon_711444",
    "title": "Dragon_711444",
    "link_img": "https://live.staticflickr.com/65535/49711832962_dcf89af7e3_o.jpg",
    "id_image": "Dragon_711444",
    "count_view": 0
  },
  {
    "link_thumb": "https://live.staticflickr.com/65535/49712460341_0710c2897d_n.jpg",
    "id_album": "1861288871",
    "description": "Women_769628",
    "title": "Women_769628",
    "link_img": "https://live.staticflickr.com/65535/49712460341_74431e1987_o.jpg",
    "id_image": "Women_769628",
    "count_view": 0
  },
  {
    "link_thumb": "https://live.staticflickr.com/65535/49712088061_1d43320045_n.jpg",
    "id_album": "1587588550",
    "description": "Place_347688",
    "title": "Place_347688",
    "link_img": "https://live.staticflickr.com/65535/49712088061_a163b166ba_o.jpg",
    "id_image": "Place_347688",
    "count_view": 0
  },
  {
    "link_thumb": "https://live.staticflickr.com/65535/49711679726_74178edd71_n.jpg",
    "id_album": "-1972042284",
    "description": "Fairy_734022",
    "title": "Fairy_734022",
    "link_img": "https://live.staticflickr.com/65535/49711679726_3b0c0ca3dd_o.jpg",
    "id_image": "Fairy_734022",
    "count_view": 0
  },
  {
    "link_thumb": "https://live.staticflickr.com/65535/49710970783_71f9ac1cd6_n.jpg",
    "id_album": "850176884",
    "description": "Dragon_692312",
    "title": "Dragon_692312",
    "link_img": "https://live.staticflickr.com/65535/49710970783_c32d274fb6_o.jpg",
    "id_image": "Dragon_692312",
    "count_view": 0
  },
  {
    "link_thumb": "https://live.staticflickr.com/65535/49712143681_62ab14b6da_n.jpg",
    "id_album": "-5356651",
    "description": "Sorcerer_317042",
    "title": "Sorcerer_317042",
    "link_img": "https://live.staticflickr.com/65535/49712143681_bf13e0a748_o.jpg",
    "id_image": "Sorcerer_317042",
    "count_view": 0
  },
  {
    "link_thumb": "https://live.staticflickr.com/65535/49710582983_29d360b1b8_n.jpg",
    "id_album": "-1964113117",
    "description": "City_790227",
    "title": "City_790227",
    "link_img": "https://live.staticflickr.com/65535/49710582983_e9395ee1ef_o.jpg",
    "id_image": "City_790227",
    "count_view": 0
  },
  {
    "link_thumb": "https://live.staticflickr.com/65535/49711192632_67d31b2b97_n.jpg",
    "id_album": "-2109465612",
    "description": "Adventure_702073",
    "title": "Adventure_702073",
    "link_img": "https://live.staticflickr.com/65535/49711192632_d3ec8fe5bd_o.jpg",
    "id_image": "Adventure_702073",
    "count_view": 0
  },
  {
    "link_thumb": "https://live.staticflickr.com/65535/49711518646_8bbf1048a0_n.jpg",
    "id_album": "850176884",
    "description": "Dragon_732391",
    "title": "Dragon_732391",
    "link_img": "https://live.staticflickr.com/65535/49711518646_173c3a4a2b_o.jpg",
    "id_image": "Dragon_732391",
    "count_view": 0
  },
  {
    "link_thumb": "https://live.staticflickr.com/65535/49711768167_2c0af8b629_n.jpg",
    "id_album": "850176884",
    "description": "Dragon_441580",
    "title": "Dragon_441580",
    "link_img": "https://live.staticflickr.com/65535/49711768167_dbba151cc5_o.jpg",
    "id_image": "Dragon_441580",
    "count_view": 0
  },
  {
    "link_thumb": "https://live.staticflickr.com/65535/49712657487_3cc7940c54_n.jpg",
    "id_album": "-1126835654",
    "description": "Women_905361",
    "title": "Women_905361",
    "link_img": "https://live.staticflickr.com/65535/49712657487_d0b19a2b1a_o.jpg",
    "id_image": "Women_905361",
    "count_view": 0
  },
  {
    "link_thumb": "https://live.staticflickr.com/65535/49711517443_4968710cc4_n.jpg",
    "id_album": "1892085513",
    "description": "Oriental_981688",
    "title": "Oriental_981688",
    "link_img": "https://live.staticflickr.com/65535/49711517443_5e9ac946dd_o.jpg",
    "id_image": "Oriental_981688",
    "count_view": 0
  },
  {
    "link_thumb": "https://live.staticflickr.com/65535/49711621287_6aa0abf88e_n.jpg",
    "id_album": "-437872736",
    "description": "Creature_958926",
    "title": "Creature_958926",
    "link_img": "https://live.staticflickr.com/65535/49711621287_3d71904335_o.jpg",
    "id_image": "Creature_958926",
    "count_view": 0
  },
  {
    "link_thumb": "https://live.staticflickr.com/65535/49712506756_a340acd65b_n.jpg",
    "id_album": "-867594484",
    "description": "Women_562218",
    "title": "Women_562218",
    "link_img": "https://live.staticflickr.com/65535/49712506756_c7da316244_o.jpg",
    "id_image": "Women_562218",
    "count_view": 0
  },
  {
    "link_thumb": "https://live.staticflickr.com/65535/49712816877_2ace308666_n.jpg",
    "id_album": "-867594484",
    "description": "Women_518047",
    "title": "Women_518047",
    "link_img": "https://live.staticflickr.com/65535/49712816877_2518a624ae_o.jpg",
    "id_image": "Women_518047",
    "count_view": 0
  },
  {
    "link_thumb": "https://live.staticflickr.com/65535/49711544491_fff9c59051_n.jpg",
    "id_album": "850176884",
    "description": "Dragon_872488",
    "title": "Dragon_872488",
    "link_img": "https://live.staticflickr.com/65535/49711544491_ef8e8b8c64_o.jpg",
    "id_image": "Dragon_872488",
    "count_view": 0
  },
  {
    "link_thumb": "https://live.staticflickr.com/65535/49711591268_4d8f11ac54_n.jpg",
    "id_album": "407101116",
    "description": "SeaMonster_974470",
    "title": "SeaMonster_974470",
    "link_img": "https://live.staticflickr.com/65535/49711591268_2a04d48906_o.jpg",
    "id_image": "SeaMonster_974470",
    "count_view": 0
  },
  {
    "link_thumb": "https://live.staticflickr.com/65535/49712682466_9e13ac0c7d_n.jpg",
    "id_album": "-1675918237",
    "description": "WomenWarrior_850327",
    "title": "WomenWarrior_850327",
    "link_img": "https://live.staticflickr.com/65535/49712682466_a6d500eb53_o.jpg",
    "id_image": "WomenWarrior_850327",
    "count_view": 0
  },
  {
    "link_thumb": "https://live.staticflickr.com/65535/49711654313_fcf64394d7_n.jpg",
    "id_album": "43335239",
    "description": "Vampire_702019",
    "title": "Vampire_702019",
    "link_img": "https://live.staticflickr.com/65535/49711654313_d4b2b4f469_o.jpg",
    "id_image": "Vampire_702019",
    "count_view": 0
  },
  {
    "link_thumb": "https://live.staticflickr.com/65535/49710367808_96483b80c1_n.jpg",
    "id_album": "-1913845949",
    "description": "Animal_466127",
    "title": "Animal_466127",
    "link_img": "https://live.staticflickr.com/65535/49710367808_a21a595875_o.jpg",
    "id_image": "Animal_466127",
    "count_view": 0
  },
  {
    "link_thumb": "https://live.staticflickr.com/65535/49710628238_f4b4be5635_n.jpg",
    "id_album": "-437872736",
    "description": "Creature_236039",
    "title": "Creature_236039",
    "link_img": "https://live.staticflickr.com/65535/49710628238_5ddbf5fb42_o.jpg",
    "id_image": "Creature_236039",
    "count_view": 0
  },
  {
    "link_thumb": "https://live.staticflickr.com/65535/49711708238_1bd6fbc21f_n.jpg",
    "id_album": "1173975892",
    "description": "Werewolf_276299",
    "title": "Werewolf_276299",
    "link_img": "https://live.staticflickr.com/65535/49711708238_b6c03ef61c_o.jpg",
    "id_image": "Werewolf_276299",
    "count_view": 0
  },
  {
    "link_thumb": "https://live.staticflickr.com/65535/49712393001_06578d6887_n.jpg",
    "id_album": "295204930",
    "description": "Women_400450",
    "title": "Women_400450",
    "link_img": "https://live.staticflickr.com/65535/49712393001_c6c7c1941e_o.jpg",
    "id_image": "Women_400450",
    "count_view": 0
  },
  {
    "link_thumb": "https://live.staticflickr.com/65535/49711860597_ba44a39f28_n.jpg",
    "id_album": "850176884",
    "description": "Dragon_861792",
    "title": "Dragon_861792",
    "link_img": "https://live.staticflickr.com/65535/49711860597_581c5d52e3_o.jpg",
    "id_image": "Dragon_861792",
    "count_view": 0
  },
  {
    "link_thumb": "https://live.staticflickr.com/65535/49711447667_eb11b9cbb6_n.jpg",
    "id_album": "-1964113117",
    "description": "City_864507",
    "title": "City_864507",
    "link_img": "https://live.staticflickr.com/65535/49711447667_80c6ca0878_o.jpg",
    "id_image": "City_864507",
    "count_view": 0
  },
  {
    "link_thumb": "https://live.staticflickr.com/65535/49712377612_5a8aa1feb4_n.jpg",
    "id_album": "-1862561193",
    "description": "Other_155045",
    "title": "Other_155045",
    "link_img": "https://live.staticflickr.com/65535/49712377612_98a006f683_o.jpg",
    "id_image": "Other_155045",
    "count_view": 0
  },
  {
    "link_thumb": "https://live.staticflickr.com/65535/49710538518_76f7803894_n.jpg",
    "id_album": "-1741487325",
    "description": "Cat_905070",
    "title": "Cat_905070",
    "link_img": "https://live.staticflickr.com/65535/49710538518_ef365a17aa_o.jpg",
    "id_image": "Cat_905070",
    "count_view": 0
  },
  {
    "link_thumb": "https://live.staticflickr.com/65535/49710475298_7936ea2bdd_n.jpg",
    "id_album": "1187037014",
    "description": "Battle_779258",
    "title": "Battle_779258",
    "link_img": "https://live.staticflickr.com/65535/49710475298_168a130997_o.jpg",
    "id_image": "Battle_779258",
    "count_view": 0
  },
  {
    "link_thumb": "https://live.staticflickr.com/65535/49711176461_e35c5c9fcc_n.jpg",
    "id_album": "-437872736",
    "description": "Creature_285229",
    "title": "Creature_285229",
    "link_img": "https://live.staticflickr.com/65535/49711176461_3f1df9070b_o.jpg",
    "id_image": "Creature_285229",
    "count_view": 0
  },
  {
    "link_thumb": "https://live.staticflickr.com/65535/49711907037_634243026b_n.jpg",
    "id_album": "850176884",
    "description": "Dragon_974463",
    "title": "Dragon_974463",
    "link_img": "https://live.staticflickr.com/65535/49711907037_0015d3cb77_o.jpg",
    "id_image": "Dragon_974463",
    "count_view": 0
  },
  {
    "link_thumb": "https://live.staticflickr.com/65535/49712074861_4d4a181749_n.jpg",
    "id_album": "-1326601535",
    "description": "Phoenix_569097",
    "title": "Phoenix_569097",
    "link_img": "https://live.staticflickr.com/65535/49712074861_34c5ca091e_o.jpg",
    "id_image": "Phoenix_569097",
    "count_view": 0
  },
  {
    "link_thumb": "https://live.staticflickr.com/65535/49712208642_c1416a95fd_n.jpg",
    "id_album": "1402713104",
    "description": "Landscape_994578",
    "title": "Landscape_994578",
    "link_img": "https://live.staticflickr.com/65535/49712208642_659a8aca0e_o.jpg",
    "id_image": "Landscape_994578",
    "count_view": 0
  },
  {
    "link_thumb": "https://live.staticflickr.com/65535/49712090336_aec1545442_n.jpg",
    "id_album": "606798642",
    "description": "RedRidingHood_752059",
    "title": "RedRidingHood_752059",
    "link_img": "https://live.staticflickr.com/65535/49712090336_b3c14f2710_o.jpg",
    "id_image": "RedRidingHood_752059",
    "count_view": 0
  },
  {
    "link_thumb": "https://live.staticflickr.com/65535/49711845988_2092efc534_n.jpg",
    "id_album": "295204930",
    "description": "Women_341481",
    "title": "Women_341481",
    "link_img": "https://live.staticflickr.com/65535/49711845988_7eb985a527_o.jpg",
    "id_image": "Women_341481",
    "count_view": 0
  },
  {
    "link_thumb": "https://live.staticflickr.com/65535/49711710003_a5518b1c1d_n.jpg",
    "id_album": "1173975892",
    "description": "Werewolf_493010",
    "title": "Werewolf_493010",
    "link_img": "https://live.staticflickr.com/65535/49711710003_2ebd829d6a_o.jpg",
    "id_image": "Werewolf_493010",
    "count_view": 0
  },
  {
    "link_thumb": "https://live.staticflickr.com/65535/49711592872_e78cd85508_n.jpg",
    "id_album": "-437872736",
    "description": "Creature_852164",
    "title": "Creature_852164",
    "link_img": "https://live.staticflickr.com/65535/49711592872_fd3112faec_o.jpg",
    "id_image": "Creature_852164",
    "count_view": 0
  },
  {
    "link_thumb": "https://live.staticflickr.com/65535/49798255958_4f97b39d04_n.jpg",
    "id_album": "-1703946758",
    "description": "ANIME_PIC_148ccb755ad91a73fc8a00904268bf88",
    "title": "ANIME_PIC_148ccb755ad91a73fc8a00904268bf88",
    "link_img": "https://live.staticflickr.com/65535/49798255958_96ff59e787_o.jpg",
    "id_image": "ANIME_PIC_148ccb755ad91a73fc8a00904268bf88",
    "count_view": 0
  },
  {
    "link_thumb": "https://live.staticflickr.com/65535/49712519716_b4e96a8b0a_n.jpg",
    "id_album": "-867594484",
    "description": "Women_600845",
    "title": "Women_600845",
    "link_img": "https://live.staticflickr.com/65535/49712519716_50574ba1ce_o.jpg",
    "id_image": "Women_600845",
    "count_view": 0
  },
  {
    "link_thumb": "https://live.staticflickr.com/65535/49711367546_369599e36b_n.jpg",
    "id_album": "850176884",
    "description": "Dragon_125092",
    "title": "Dragon_125092",
    "link_img": "https://live.staticflickr.com/65535/49711367546_36366d44df_o.jpg",
    "id_image": "Dragon_125092",
    "count_view": 0
  },
  {
    "link_thumb": "https://live.staticflickr.com/65535/49711893178_8d95349b2e_n.jpg",
    "id_album": "1861288871",
    "description": "Women_152042",
    "title": "Women_152042",
    "link_img": "https://live.staticflickr.com/65535/49711893178_8862926c04_o.jpg",
    "id_image": "Women_152042",
    "count_view": 0
  },
  {
    "link_thumb": "https://live.staticflickr.com/65535/49712452807_bb7a97c8c5_n.jpg",
    "id_album": "-395228614",
    "description": "Ship_197721",
    "title": "Ship_197721",
    "link_img": "https://live.staticflickr.com/65535/49712452807_17da0b2fa3_o.jpg",
    "id_image": "Ship_197721",
    "count_view": 0
  },
  {
    "link_thumb": "https://live.staticflickr.com/65535/49710881123_cfa1d32982_n.jpg",
    "id_album": "850176884",
    "description": "Dragon_314884",
    "title": "Dragon_314884",
    "link_img": "https://live.staticflickr.com/65535/49710881123_aa950a6cf6_o.jpg",
    "id_image": "Dragon_314884",
    "count_view": 0
  },
  {
    "link_thumb": "https://live.staticflickr.com/65535/49711797788_cbf6056fdc_n.jpg",
    "id_album": "-1126835654",
    "description": "Women_899269",
    "title": "Women_899269",
    "link_img": "https://live.staticflickr.com/65535/49711797788_7415bcb3a2_o.jpg",
    "id_image": "Women_899269",
    "count_view": 0
  },
  {
    "link_thumb": "https://live.staticflickr.com/65535/49710883271_6e0b0a1313_n.jpg",
    "id_album": "-1000175186",
    "description": "AngelWarrior_563714",
    "title": "AngelWarrior_563714",
    "link_img": "https://live.staticflickr.com/65535/49710883271_569167dce0_o.jpg",
    "id_image": "AngelWarrior_563714",
    "count_view": 0
  },
  {
    "link_thumb": "https://live.staticflickr.com/65535/49710958423_c22d547c2e_n.jpg",
    "id_album": "850176884",
    "description": "Dragon_600271",
    "title": "Dragon_600271",
    "link_img": "https://live.staticflickr.com/65535/49710958423_37f4931e4a_o.jpg",
    "id_image": "Dragon_600271",
    "count_view": 0
  },
  {
    "link_thumb": "https://live.staticflickr.com/65535/49712009976_89cf5efb70_n.jpg",
    "id_album": "-447542718",
    "description": "Medusa_402079",
    "title": "Medusa_402079",
    "link_img": "https://live.staticflickr.com/65535/49712009976_c1c9fec295_o.jpg",
    "id_image": "Medusa_402079",
    "count_view": 0
  },
  {
    "link_thumb": "https://live.staticflickr.com/65535/49712534377_937776a8e5_n.jpg",
    "id_album": "-1261420436",
    "description": "Warrior_582441",
    "title": "Warrior_582441",
    "link_img": "https://live.staticflickr.com/65535/49712534377_503d549f59_o.jpg",
    "id_image": "Warrior_582441",
    "count_view": 0
  },
  {
    "link_thumb": "https://live.staticflickr.com/65535/49711348286_120da89e53_n.jpg",
    "id_album": "850176884",
    "description": "DRAGON26101916495934",
    "title": "DRAGON26101916495934",
    "link_img": "https://live.staticflickr.com/65535/49711348286_60eb9645da_o.jpg",
    "id_image": "DRAGON26101916495934",
    "count_view": 0
  },
  {
    "link_thumb": "https://live.staticflickr.com/65535/49712192212_755225c532_n.jpg",
    "id_album": "1402713104",
    "description": "Landscape_955021",
    "title": "Landscape_955021",
    "link_img": "https://live.staticflickr.com/65535/49712192212_7feb3d4995_o.jpg",
    "id_image": "Landscape_955021",
    "count_view": 0
  },
  {
    "link_thumb": "https://live.staticflickr.com/65535/49710556753_c25554af5a_n.jpg",
    "id_album": "-1964113117",
    "description": "City_211826",
    "title": "City_211826",
    "link_img": "https://live.staticflickr.com/65535/49710556753_1845fbe6ae_o.jpg",
    "id_image": "City_211826",
    "count_view": 0
  },
  {
    "link_thumb": "https://live.staticflickr.com/65535/49711889841_edd3373651_n.jpg",
    "id_album": "-833110404",
    "description": "Landscape_155169",
    "title": "Landscape_155169",
    "link_img": "https://live.staticflickr.com/65535/49711889841_425621bd6a_o.jpg",
    "id_image": "Landscape_155169",
    "count_view": 0
  },
  {
    "link_thumb": "https://live.staticflickr.com/65535/49711233562_7939e0d312_n.jpg",
    "id_album": "-1913845949",
    "description": "Animal_636063",
    "title": "Animal_636063",
    "link_img": "https://live.staticflickr.com/65535/49711233562_e666c82a1f_o.jpg",
    "id_image": "Animal_636063",
    "count_view": 0
  },
  {
    "link_thumb": "https://live.staticflickr.com/65535/49712014961_19155e9368_n.jpg",
    "id_album": "-222719689",
    "description": "Men_252601",
    "title": "Men_252601",
    "link_img": "https://live.staticflickr.com/65535/49712014961_f0a1462cdf_o.jpg",
    "id_image": "Men_252601",
    "count_view": 0
  },
  {
    "link_thumb": "https://live.staticflickr.com/65535/49711920367_810efcf47f_n.jpg",
    "id_album": "-1594184835",
    "description": "Dwarf_616992",
    "title": "Dwarf_616992",
    "link_img": "https://live.staticflickr.com/65535/49711920367_9b1788df8a_o.jpg",
    "id_image": "Dwarf_616992",
    "count_view": 0
  },
  {
    "link_thumb": "https://live.staticflickr.com/65535/49710961196_e05301c65f_n.jpg",
    "id_album": "523598895",
    "description": "Artistic_324985",
    "title": "Artistic_324985",
    "link_img": "https://live.staticflickr.com/65535/49710961196_93761a170b_o.jpg",
    "id_image": "Artistic_324985",
    "count_view": 0
  },
  {
    "link_thumb": "https://live.staticflickr.com/65535/49711397317_4dc819ba84_n.jpg",
    "id_album": "-1741487325",
    "description": "Cat_870569",
    "title": "Cat_870569",
    "link_img": "https://live.staticflickr.com/65535/49711397317_3b6e51eb81_o.jpg",
    "id_image": "Cat_870569",
    "count_view": 0
  },
  {
    "link_thumb": "https://live.staticflickr.com/65535/49712523857_696c7cecf9_n.jpg",
    "id_album": "-1261420436",
    "description": "Warrior_234054",
    "title": "Warrior_234054",
    "link_img": "https://live.staticflickr.com/65535/49712523857_f7ec07c85f_o.jpg",
    "id_image": "Warrior_234054",
    "count_view": 0
  },
  {
    "link_thumb": "https://live.staticflickr.com/65535/49711014973_22c6524587_n.jpg",
    "id_album": "850176884",
    "description": "Dragon_881762",
    "title": "Dragon_881762",
    "link_img": "https://live.staticflickr.com/65535/49711014973_f366148fc1_o.jpg",
    "id_image": "Dragon_881762",
    "count_view": 0
  },
  {
    "link_thumb": "https://live.staticflickr.com/65535/49711333836_7113e435e9_n.jpg",
    "id_album": "7198985",
    "description": "Demon_242259",
    "title": "Demon_242259",
    "link_img": "https://live.staticflickr.com/65535/49711333836_e7a81c1d77_o.jpg",
    "id_image": "Demon_242259",
    "count_view": 0
  },
  {
    "link_thumb": "https://live.staticflickr.com/65535/49710676843_51611d9724_n.jpg",
    "id_album": "-437872736",
    "description": "Creature_353155",
    "title": "Creature_353155",
    "link_img": "https://live.staticflickr.com/65535/49710676843_44fc794e9f_o.jpg",
    "id_image": "Creature_353155",
    "count_view": 0
  },
  {
    "link_thumb": "https://live.staticflickr.com/65535/49711611562_710e9a75af_n.jpg",
    "id_album": "-437872736",
    "description": "Creature_958711",
    "title": "Creature_958711",
    "link_img": "https://live.staticflickr.com/65535/49711611562_9efd963847_o.jpg",
    "id_image": "Creature_958711",
    "count_view": 0
  },
  {
    "link_thumb": "https://live.staticflickr.com/65535/49711695012_89373d5331_n.jpg",
    "id_album": "850176884",
    "description": "Dragon_146469",
    "title": "Dragon_146469",
    "link_img": "https://live.staticflickr.com/65535/49711695012_8c4e79ccc9_o.jpg",
    "id_image": "Dragon_146469",
    "count_view": 0
  },
  {
    "link_thumb": "https://live.staticflickr.com/65535/49711887613_ab80772be0_n.jpg",
    "id_album": "295204930",
    "description": "Women_744093",
    "title": "Women_744093",
    "link_img": "https://live.staticflickr.com/65535/49711887613_e8dae485df_o.jpg",
    "id_image": "Women_744093",
    "count_view": 0
  },
  {
    "link_thumb": "https://live.staticflickr.com/65535/49711015363_616966df88_n.jpg",
    "id_album": "850176884",
    "description": "Dragon_883168",
    "title": "Dragon_883168",
    "link_img": "https://live.staticflickr.com/65535/49711015363_9daede0921_o.jpg",
    "id_image": "Dragon_883168",
    "count_view": 0
  },
  {
    "link_thumb": "https://live.staticflickr.com/65535/49711239961_082b480fa0_n.jpg",
    "id_album": "-437872736",
    "description": "Creature_511604",
    "title": "Creature_511604",
    "link_img": "https://live.staticflickr.com/65535/49711239961_c74494d070_o.jpg",
    "id_image": "Creature_511604",
    "count_view": 0
  },
  {
    "link_thumb": "https://live.staticflickr.com/65535/49711440548_30bb60f6d8_n.jpg",
    "id_album": "-1284959130",
    "description": "LegendOfTheFiveRings_219865",
    "title": "LegendOfTheFiveRings_219865",
    "link_img": "https://live.staticflickr.com/65535/49711440548_6a16f36b8c_o.jpg",
    "id_image": "LegendOfTheFiveRings_219865",
    "count_view": 0
  },
  {
    "link_thumb": "https://live.staticflickr.com/65535/49712154116_5e074e00bf_n.jpg",
    "id_album": "1186644325",
    "description": "Tattoo_201989",
    "title": "Tattoo_201989",
    "link_img": "https://live.staticflickr.com/65535/49712154116_44cd68075e_o.jpg",
    "id_image": "Tattoo_201989",
    "count_view": 0
  },
  {
    "link_thumb": "https://live.staticflickr.com/65535/49712381507_60845a35c1_n.jpg",
    "id_album": "-1862561193",
    "description": "Other_311797",
    "title": "Other_311797",
    "link_img": "https://live.staticflickr.com/65535/49712381507_fa257ff491_o.jpg",
    "id_image": "Other_311797",
    "count_view": 0
  },
  {
    "link_thumb": "https://live.staticflickr.com/65535/49712596056_6e5bdbfd44_n.jpg",
    "id_album": "-1675918237",
    "description": "WomenWarrior_422075",
    "title": "WomenWarrior_422075",
    "link_img": "https://live.staticflickr.com/65535/49712596056_8aa5533d86_o.jpg",
    "id_image": "WomenWarrior_422075",
    "count_view": 0
  },
  {
    "link_thumb": "https://live.staticflickr.com/65535/49710564913_2403447102_n.jpg",
    "id_album": "-1964113117",
    "description": "City_426864",
    "title": "City_426864",
    "link_img": "https://live.staticflickr.com/65535/49710564913_e6a5e2f6c6_o.jpg",
    "id_image": "City_426864",
    "count_view": 0
  },
  {
    "link_thumb": "https://live.staticflickr.com/65535/49712810512_02edc9ce37_n.jpg",
    "id_album": "-867594484",
    "description": "Women_505504",
    "title": "Women_505504",
    "link_img": "https://live.staticflickr.com/65535/49712810512_eca45ae843_o.jpg",
    "id_image": "Women_505504",
    "count_view": 0
  },
  {
    "link_thumb": "https://live.staticflickr.com/65535/49711124006_d2e2e6bc45_n.jpg",
    "id_album": "-1964113117",
    "description": "City_869805",
    "title": "City_869805",
    "link_img": "https://live.staticflickr.com/65535/49711124006_3a29028613_o.jpg",
    "id_image": "City_869805",
    "count_view": 0
  },
  {
    "link_thumb": "https://live.staticflickr.com/65535/49712155682_9e020c13d5_n.jpg",
    "id_album": "1402713104",
    "description": "Landscape_864102",
    "title": "Landscape_864102",
    "link_img": "https://live.staticflickr.com/65535/49712155682_2d88cca2b5_o.jpg",
    "id_image": "Landscape_864102",
    "count_view": 0
  },
  {
    "link_thumb": "https://live.staticflickr.com/65535/49711169461_e5b3475861_n.jpg",
    "id_album": "-437872736",
    "description": "Creature_266074",
    "title": "Creature_266074",
    "link_img": "https://live.staticflickr.com/65535/49711169461_6d20906037_o.jpg",
    "id_image": "Creature_266074",
    "count_view": 0
  },
  {
    "link_thumb": "https://live.staticflickr.com/65535/49711790376_423f5a66ea_n.jpg",
    "id_album": "469960528",
    "description": "Knight_945823",
    "title": "Knight_945823",
    "link_img": "https://live.staticflickr.com/65535/49711790376_692fd5ca72_o.jpg",
    "id_image": "Knight_945823",
    "count_view": 0
  },
  {
    "link_thumb": "https://live.staticflickr.com/65535/49711449431_dbedb0de62_n.jpg",
    "id_album": "850176884",
    "description": "Dragon_446638",
    "title": "Dragon_446638",
    "link_img": "https://live.staticflickr.com/65535/49711449431_72fca0528f_o.jpg",
    "id_image": "Dragon_446638",
    "count_view": 0
  },
  {
    "link_thumb": "https://live.staticflickr.com/65535/49711759647_83d0dc16f7_n.jpg",
    "id_album": "850176884",
    "description": "Dragon_386176",
    "title": "Dragon_386176",
    "link_img": "https://live.staticflickr.com/65535/49711759647_e8025f783e_o.jpg",
    "id_image": "Dragon_386176",
    "count_view": 0
  },
  {
    "link_thumb": "https://live.staticflickr.com/65535/49711313121_bee714c0a9_n.jpg",
    "id_album": "2021464556",
    "description": "Dark_156189",
    "title": "Dark_156189",
    "link_img": "https://live.staticflickr.com/65535/49711313121_3779a3df47_o.jpg",
    "id_image": "Dark_156189",
    "count_view": 0
  },
  {
    "link_thumb": "https://live.staticflickr.com/65535/49711437766_f02f013437_n.jpg",
    "id_album": "850176884",
    "description": "Dragon_381925",
    "title": "Dragon_381925",
    "link_img": "https://live.staticflickr.com/65535/49711437766_8ba24a9c11_o.jpg",
    "id_image": "Dragon_381925",
    "count_view": 0
  },
  {
    "link_thumb": "https://live.staticflickr.com/65535/49712130612_4a45ecbdbe_n.jpg",
    "id_album": "1402713104",
    "description": "Landscape_709712",
    "title": "Landscape_709712",
    "link_img": "https://live.staticflickr.com/65535/49712130612_895d0fb754_o.jpg",
    "id_image": "Landscape_709712",
    "count_view": 0
  },
  {
    "link_thumb": "https://live.staticflickr.com/65535/49712674012_50ff816647_n.jpg",
    "id_album": "-1126835654",
    "description": "Women_993988",
    "title": "Women_993988",
    "link_img": "https://live.staticflickr.com/65535/49712674012_a3d8f544bf_o.jpg",
    "id_image": "Women_993988",
    "count_view": 0
  },
  {
    "link_thumb": "https://live.staticflickr.com/65535/49712161832_b8d5d9718b_n.jpg",
    "id_album": "1402713104",
    "description": "Landscape_866895",
    "title": "Landscape_866895",
    "link_img": "https://live.staticflickr.com/65535/49712161832_8d14bf756f_o.jpg",
    "id_image": "Landscape_866895",
    "count_view": 0
  },
  {
    "link_thumb": "https://live.staticflickr.com/65535/49711670643_a5aaf02679_n.jpg",
    "id_album": "-1261420436",
    "description": "Warrior_354768",
    "title": "Warrior_354768",
    "link_img": "https://live.staticflickr.com/65535/49711670643_1e8ac41f83_o.jpg",
    "id_image": "Warrior_354768",
    "count_view": 0
  },
  {
    "link_thumb": "https://live.staticflickr.com/65535/49711105378_80f7c44988_n.jpg",
    "id_album": "134100487",
    "description": "Elf_921644",
    "title": "Elf_921644",
    "link_img": "https://live.staticflickr.com/65535/49711105378_5fa8fc2796_o.jpg",
    "id_image": "Elf_921644",
    "count_view": 0
  },
  {
    "link_thumb": "https://live.staticflickr.com/65535/49710615778_533265d61b_n.jpg",
    "id_album": "-437872736",
    "description": "Creature_176678",
    "title": "Creature_176678",
    "link_img": "https://live.staticflickr.com/65535/49710615778_15f91004e1_o.jpg",
    "id_image": "Creature_176678",
    "count_view": 0
  },
  {
    "link_thumb": "https://live.staticflickr.com/65535/49711497273_fde18f9279_n.jpg",
    "id_album": "-14582214",
    "description": "Ocean_484832",
    "title": "Ocean_484832",
    "link_img": "https://live.staticflickr.com/65535/49711497273_fef53cda57_o.jpg",
    "id_image": "Ocean_484832",
    "count_view": 0
  },
  {
    "link_thumb": "https://live.staticflickr.com/65535/49711485217_692e7872fc_n.jpg",
    "id_album": "-437872736",
    "description": "Creature_221464",
    "title": "Creature_221464",
    "link_img": "https://live.staticflickr.com/65535/49711485217_41b7e22928_o.jpg",
    "id_image": "Creature_221464",
    "count_view": 0
  },
  {
    "link_thumb": "https://live.staticflickr.com/65535/49711262956_7a5386a72f_n.jpg",
    "id_album": "-437872736",
    "description": "Creature_706866",
    "title": "Creature_706866",
    "link_img": "https://live.staticflickr.com/65535/49711262956_e0e17fbddc_o.jpg",
    "id_image": "Creature_706866",
    "count_view": 0
  },
  {
    "link_thumb": "https://live.staticflickr.com/65535/49711677332_9987f2e337_n.jpg",
    "id_album": "850176884",
    "description": "DRAGON26101916503874",
    "title": "DRAGON26101916503874",
    "link_img": "https://live.staticflickr.com/65535/49711677332_07e83a8379_o.jpg",
    "id_image": "DRAGON26101916503874",
    "count_view": 0
  },
  {
    "link_thumb": "https://live.staticflickr.com/65535/49710857641_64a091cd01_n.jpg",
    "id_album": "-218097820",
    "description": "ASongOfIceAndFire_601329",
    "title": "ASongOfIceAndFire_601329",
    "link_img": "https://live.staticflickr.com/65535/49710857641_4f3a22acf9_o.jpg",
    "id_image": "ASongOfIceAndFire_601329",
    "count_view": 0
  },
  {
    "link_thumb": "https://live.staticflickr.com/65535/49711040616_a06ddbd1aa_n.jpg",
    "id_album": "-1541846310",
    "description": "Castle_282475",
    "title": "Castle_282475",
    "link_img": "https://live.staticflickr.com/65535/49711040616_47c2538627_o.jpg",
    "id_image": "Castle_282475",
    "count_view": 0
  },
  {
    "link_thumb": "https://live.staticflickr.com/65535/49711595772_e32ee04363_n.jpg",
    "id_album": "-437872736",
    "description": "Creature_900648",
    "title": "Creature_900648",
    "link_img": "https://live.staticflickr.com/65535/49711595772_1d5e0f89b6_o.jpg",
    "id_image": "Creature_900648",
    "count_view": 0
  },
  {
    "link_thumb": "https://live.staticflickr.com/65535/49712094667_2bd56685de_n.jpg",
    "id_album": "1957967226",
    "description": "House_889109",
    "title": "House_889109",
    "link_img": "https://live.staticflickr.com/65535/49712094667_66e44b43bf_o.jpg",
    "id_image": "House_889109",
    "count_view": 0
  },
  {
    "link_thumb": "https://live.staticflickr.com/65535/49711917213_f195b65128_n.jpg",
    "id_album": "1861288871",
    "description": "Women_746245",
    "title": "Women_746245",
    "link_img": "https://live.staticflickr.com/65535/49711917213_18d4238d0a_o.jpg",
    "id_image": "Women_746245",
    "count_view": 0
  },
  {
    "link_thumb": "https://live.staticflickr.com/65535/49711197133_019e04b916_n.jpg",
    "id_album": "402434752",
    "description": "Giant_307871",
    "title": "Giant_307871",
    "link_img": "https://live.staticflickr.com/65535/49711197133_89ee447b84_o.jpg",
    "id_image": "Giant_307871",
    "count_view": 0
  },
  {
    "link_thumb": "https://live.staticflickr.com/65535/49712002236_e985255c79_n.jpg",
    "id_album": "-1613076477",
    "description": "Magic_356138",
    "title": "Magic_356138",
    "link_img": "https://live.staticflickr.com/65535/49712002236_7bd583bc67_o.jpg",
    "id_image": "Magic_356138",
    "count_view": 0
  },
  {
    "link_thumb": "https://live.staticflickr.com/65535/49711278546_839cdb6970_n.jpg",
    "id_album": "-437872736",
    "description": "Creature_958645",
    "title": "Creature_958645",
    "link_img": "https://live.staticflickr.com/65535/49711278546_ee8719ba0a_o.jpg",
    "id_image": "Creature_958645",
    "count_view": 0
  },
  {
    "link_thumb": "https://live.staticflickr.com/65535/49711208352_3137637ff8_n.jpg",
    "id_album": "-1000175186",
    "description": "AngelWarrior_599892",
    "title": "AngelWarrior_599892",
    "link_img": "https://live.staticflickr.com/65535/49711208352_f676d6e77f_o.jpg",
    "id_image": "AngelWarrior_599892",
    "count_view": 0
  },
  {
    "link_thumb": "https://live.staticflickr.com/65535/49712395507_0d60fa44b8_n.jpg",
    "id_album": "-1326601535",
    "description": "Phoenix_472376",
    "title": "Phoenix_472376",
    "link_img": "https://live.staticflickr.com/65535/49712395507_42b86004f7_o.jpg",
    "id_image": "Phoenix_472376",
    "count_view": 0
  },
  {
    "link_thumb": "https://live.staticflickr.com/65535/49712113517_fa724b6ffa_n.jpg",
    "id_album": "469960528",
    "description": "Knight_979758",
    "title": "Knight_979758",
    "link_img": "https://live.staticflickr.com/65535/49712113517_2288474317_o.jpg",
    "id_image": "Knight_979758",
    "count_view": 0
  },
  {
    "link_thumb": "https://live.staticflickr.com/65535/49711612562_1f5324aa1f_n.jpg",
    "id_album": "-437872736",
    "description": "Creature_958717",
    "title": "Creature_958717",
    "link_img": "https://live.staticflickr.com/65535/49711612562_8a584584ee_o.jpg",
    "id_image": "Creature_958717",
    "count_view": 0
  },
  {
    "link_thumb": "https://live.staticflickr.com/65535/49712139228_fc667b5c52_n.jpg",
    "id_album": "-1675918237",
    "description": "WomenWarrior_797932",
    "title": "WomenWarrior_797932",
    "link_img": "https://live.staticflickr.com/65535/49712139228_e7f6d62a1b_o.jpg",
    "id_image": "WomenWarrior_797932",
    "count_view": 0
  },
  {
    "link_thumb": "https://live.staticflickr.com/65535/49712417476_754be3bbee_n.jpg",
    "id_album": "295204930",
    "description": "Women_731446",
    "title": "Women_731446",
    "link_img": "https://live.staticflickr.com/65535/49712417476_77368245f1_o.jpg",
    "id_image": "Women_731446",
    "count_view": 0
  },
  {
    "link_thumb": "https://live.staticflickr.com/65535/49711316643_08ee0a207b_n.jpg",
    "id_album": "1402713104",
    "description": "Landscape_890107",
    "title": "Landscape_890107",
    "link_img": "https://live.staticflickr.com/65535/49711316643_6dc1fa6133_o.jpg",
    "id_image": "Landscape_890107",
    "count_view": 0
  },
  {
    "link_thumb": "https://live.staticflickr.com/65535/49710395618_c260655565_n.jpg",
    "id_album": "-1560111795",
    "description": "Archer_267823",
    "title": "Archer_267823",
    "link_img": "https://live.staticflickr.com/65535/49710395618_8f4dc46ae7_o.jpg",
    "id_image": "Archer_267823",
    "count_view": 0
  },
  {
    "link_thumb": "https://live.staticflickr.com/65535/49712248542_ed346a26f2_n.jpg",
    "id_album": "-833110404",
    "description": "Landscape_310357",
    "title": "Landscape_310357",
    "link_img": "https://live.staticflickr.com/65535/49712248542_6d32dc202a_o.jpg",
    "id_image": "Landscape_310357",
    "count_view": 0
  },
  {
    "link_thumb": "https://live.staticflickr.com/65535/49711534233_1223078a46_n.jpg",
    "id_album": "-1326601535",
    "description": "Phoenix_307448",
    "title": "Phoenix_307448",
    "link_img": "https://live.staticflickr.com/65535/49711534233_aa539439f8_o.jpg",
    "id_image": "Phoenix_307448",
    "count_view": 0
  },
  {
    "link_thumb": "https://live.staticflickr.com/65535/49711319047_7615718f15_n.jpg",
    "id_album": "1187037014",
    "description": "Battle_347695",
    "title": "Battle_347695",
    "link_img": "https://live.staticflickr.com/65535/49711319047_3b2bb323b4_o.jpg",
    "id_image": "Battle_347695",
    "count_view": 0
  },
  {
    "link_thumb": "https://live.staticflickr.com/65535/49712275036_f1272044fd_n.jpg",
    "id_album": "-709711865",
    "description": "Wolf_493414",
    "title": "Wolf_493414",
    "link_img": "https://live.staticflickr.com/65535/49712275036_23ac201fda_o.jpg",
    "id_image": "Wolf_493414",
    "count_view": 0
  },
  {
    "link_thumb": "https://live.staticflickr.com/65535/49711979017_cfc7a01642_n.jpg",
    "id_album": "-1972042284",
    "description": "Fairy_312407",
    "title": "Fairy_312407",
    "link_img": "https://live.staticflickr.com/65535/49711979017_3612ab4e33_o.jpg",
    "id_image": "Fairy_312407",
    "count_view": 0
  },
  {
    "link_thumb": "https://live.staticflickr.com/65535/49711410586_ccac139b49_n.jpg",
    "id_album": "850176884",
    "description": "Dragon_284814",
    "title": "Dragon_284814",
    "link_img": "https://live.staticflickr.com/65535/49711410586_a337c58813_o.jpg",
    "id_image": "Dragon_284814",
    "count_view": 0
  },
  {
    "link_thumb": "https://live.staticflickr.com/65535/49710976468_c48dbecac6_n.jpg",
    "id_album": "850176884",
    "description": "Dragon_711446",
    "title": "Dragon_711446",
    "link_img": "https://live.staticflickr.com/65535/49710976468_4f7b6f1abb_o.jpg",
    "id_image": "Dragon_711446",
    "count_view": 0
  },
  {
    "link_thumb": "https://live.staticflickr.com/65535/49710874911_b8b6a8c490_n.jpg",
    "id_album": "-1000175186",
    "description": "AngelWarrior_154208",
    "title": "AngelWarrior_154208",
    "link_img": "https://live.staticflickr.com/65535/49710874911_06dfa24c9b_o.jpg",
    "id_image": "AngelWarrior_154208",
    "count_view": 0
  },
  {
    "link_thumb": "https://live.staticflickr.com/65535/49711469592_42754aedf2_n.jpg",
    "id_album": "-437872736",
    "description": "Creature_152624",
    "title": "Creature_152624",
    "link_img": "https://live.staticflickr.com/65535/49711469592_93a0ea27ca_o.jpg",
    "id_image": "Creature_152624",
    "count_view": 0
  },
  {
    "link_thumb": "https://live.staticflickr.com/65535/49711514408_9f4afeb64e_n.jpg",
    "id_album": "1892085513",
    "description": "Oriental_941726",
    "title": "Oriental_941726",
    "link_img": "https://live.staticflickr.com/65535/49711514408_f56daaa87b_o.jpg",
    "id_image": "Oriental_941726",
    "count_view": 0
  },
  {
    "link_thumb": "https://live.staticflickr.com/65535/49711844491_455d4094cb_n.jpg",
    "id_album": "1402713104",
    "description": "Landscape_869745",
    "title": "Landscape_869745",
    "link_img": "https://live.staticflickr.com/65535/49711844491_03278cba20_o.jpg",
    "id_image": "Landscape_869745",
    "count_view": 0
  },
  {
    "link_thumb": "https://live.staticflickr.com/65535/49712437642_81967e6727_n.jpg",
    "id_album": "-1611961467",
    "description": "Samurai_975700",
    "title": "Samurai_975700",
    "link_img": "https://live.staticflickr.com/65535/49712437642_594a0f7ec2_o.jpg",
    "id_image": "Samurai_975700",
    "count_view": 0
  },
  {
    "link_thumb": "https://live.staticflickr.com/65535/49710506103_de8e494bfe_n.jpg",
    "id_album": "-1541846310",
    "description": "Castle_293138",
    "title": "Castle_293138",
    "link_img": "https://live.staticflickr.com/65535/49710506103_0d27fd8aac_o.jpg",
    "id_image": "Castle_293138",
    "count_view": 0
  },
  {
    "link_thumb": "https://live.staticflickr.com/65535/49710945476_6bb003f3e1_n.jpg",
    "id_album": "523598895",
    "description": "Artistic_154314",
    "title": "Artistic_154314",
    "link_img": "https://live.staticflickr.com/65535/49710945476_35078eb9fe_o.jpg",
    "id_image": "Artistic_154314",
    "count_view": 0
  },
  {
    "link_thumb": "https://live.staticflickr.com/65535/49711133186_54e322b303_n.jpg",
    "id_album": "-1964113117",
    "description": "City_952009",
    "title": "City_952009",
    "link_img": "https://live.staticflickr.com/65535/49711133186_bd612bc0c6_o.jpg",
    "id_image": "City_952009",
    "count_view": 0
  },
  {
    "link_thumb": "https://live.staticflickr.com/65535/49711552447_ecc056b737_n.jpg",
    "id_album": "-437872736",
    "description": "Creature_397636",
    "title": "Creature_397636",
    "link_img": "https://live.staticflickr.com/65535/49711552447_c05a8672cb_o.jpg",
    "id_image": "Creature_397636",
    "count_view": 0
  },
  {
    "link_thumb": "https://live.staticflickr.com/65535/49713028517_de3ff0cf16_n.jpg",
    "id_album": "-1675918237",
    "description": "WomenWarrior_994310",
    "title": "WomenWarrior_994310",
    "link_img": "https://live.staticflickr.com/65535/49713028517_982defe71a_o.jpg",
    "id_image": "WomenWarrior_994310",
    "count_view": 0
  },
  {
    "link_thumb": "https://live.staticflickr.com/65535/49710661163_d11da0a45a_n.jpg",
    "id_album": "-437872736",
    "description": "Creature_325638",
    "title": "Creature_325638",
    "link_img": "https://live.staticflickr.com/65535/49710661163_4516483cf9_o.jpg",
    "id_image": "Creature_325638",
    "count_view": 0
  },
  {
    "link_thumb": "https://live.staticflickr.com/65535/49711343172_64ec9b8e38_n.jpg",
    "id_album": "-1846011410",
    "description": "Bird_875008",
    "title": "Bird_875008",
    "link_img": "https://live.staticflickr.com/65535/49711343172_d5b9707cf3_o.jpg",
    "id_image": "Bird_875008",
    "count_view": 0
  },
  {
    "link_thumb": "https://live.staticflickr.com/65535/49711801091_d849edc012_n.jpg",
    "id_album": "1402713104",
    "description": "Landscape_679263",
    "title": "Landscape_679263",
    "link_img": "https://live.staticflickr.com/65535/49711801091_0e315b4136_o.jpg",
    "id_image": "Landscape_679263",
    "count_view": 0
  },
  {
    "link_thumb": "https://live.staticflickr.com/65535/49712533857_dd23c5c18d_n.jpg",
    "id_album": "-1261420436",
    "description": "Warrior_582400",
    "title": "Warrior_582400",
    "link_img": "https://live.staticflickr.com/65535/49712533857_7ddb4aac07_o.jpg",
    "id_image": "Warrior_582400",
    "count_view": 0
  },
  {
    "link_thumb": "https://live.staticflickr.com/65535/49710546173_066e9afefc_n.jpg",
    "id_album": "430704260",
    "description": "Child_753386",
    "title": "Child_753386",
    "link_img": "https://live.staticflickr.com/65535/49710546173_458a481850_o.jpg",
    "id_image": "Child_753386",
    "count_view": 0
  },
  {
    "link_thumb": "https://live.staticflickr.com/65535/49711551116_dd0fa7e701_n.jpg",
    "id_album": "850176884",
    "description": "Dragon_888530",
    "title": "Dragon_888530",
    "link_img": "https://live.staticflickr.com/65535/49711551116_efdc581f09_o.jpg",
    "id_image": "Dragon_888530",
    "count_view": 0
  },
  {
    "link_thumb": "https://live.staticflickr.com/65535/49711238831_1ae86280de_n.jpg",
    "id_album": "-437872736",
    "description": "Creature_511077",
    "title": "Creature_511077",
    "link_img": "https://live.staticflickr.com/65535/49711238831_1cfe4fa178_o.jpg",
    "id_image": "Creature_511077",
    "count_view": 0
  },
  {
    "link_thumb": "https://live.staticflickr.com/65535/49712494846_bb923aba2d_n.jpg",
    "id_album": "-867594484",
    "description": "Women_521271",
    "title": "Women_521271",
    "link_img": "https://live.staticflickr.com/65535/49712494846_c8755afbec_o.jpg",
    "id_image": "Women_521271",
    "count_view": 0
  },
  {
    "link_thumb": "https://live.staticflickr.com/65535/49711758551_e10a27cde6_n.jpg",
    "id_album": "-1933715543",
    "description": "Horse_592598",
    "title": "Horse_592598",
    "link_img": "https://live.staticflickr.com/65535/49711758551_d80dd54b46_o.jpg",
    "id_image": "Horse_592598",
    "count_view": 0
  },
  {
    "link_thumb": "https://live.staticflickr.com/65535/49710768153_3e1bc0811a_n.jpg",
    "id_album": "-437872736",
    "description": "Creature_958981",
    "title": "Creature_958981",
    "link_img": "https://live.staticflickr.com/65535/49710768153_e96ae9c5b6_o.jpg",
    "id_image": "Creature_958981",
    "count_view": 0
  },
  {
    "link_thumb": "https://live.staticflickr.com/65535/49710637858_d622e2a52d_n.jpg",
    "id_album": "-437872736",
    "description": "Creature_270509",
    "title": "Creature_270509",
    "link_img": "https://live.staticflickr.com/65535/49710637858_4abb451b81_o.jpg",
    "id_image": "Creature_270509",
    "count_view": 0
  },
  {
    "link_thumb": "https://live.staticflickr.com/65535/49711186241_a58c6c9dab_n.jpg",
    "id_album": "-437872736",
    "description": "Creature_309820",
    "title": "Creature_309820",
    "link_img": "https://live.staticflickr.com/65535/49711186241_eddbb1024e_o.jpg",
    "id_image": "Creature_309820",
    "count_view": 0
  },
  {
    "link_thumb": "https://live.staticflickr.com/65535/49711128851_a6478d6e6c_n.jpg",
    "id_album": "-1964113117",
    "description": "City_911172",
    "title": "City_911172",
    "link_img": "https://live.staticflickr.com/65535/49711128851_b9ee70f192_o.jpg",
    "id_image": "City_911172",
    "count_view": 0
  },
  {
    "link_thumb": "https://live.staticflickr.com/65535/49711933588_ae83096f54_n.jpg",
    "id_album": "1861288871",
    "description": "Women_784185",
    "title": "Women_784185",
    "link_img": "https://live.staticflickr.com/65535/49711933588_69a46c0495_o.jpg",
    "id_image": "Women_784185",
    "count_view": 0
  },
  {
    "link_thumb": "https://live.staticflickr.com/65535/49712273612_01b59449d2_n.jpg",
    "id_album": "-833110404",
    "description": "Landscape_475366",
    "title": "Landscape_475366",
    "link_img": "https://live.staticflickr.com/65535/49712273612_4d53eb230d_o.jpg",
    "id_image": "Landscape_475366",
    "count_view": 0
  },
  {
    "link_thumb": "https://live.staticflickr.com/65535/49710945741_be1b52ce41_n.jpg",
    "id_album": "523598895",
    "description": "Artistic_155114",
    "title": "Artistic_155114",
    "link_img": "https://live.staticflickr.com/65535/49710945741_aca49f3ef6_o.jpg",
    "id_image": "Artistic_155114",
    "count_view": 0
  },
  {
    "link_thumb": "https://live.staticflickr.com/65535/49711488297_98174e4a3b_n.jpg",
    "id_album": "-437872736",
    "description": "Creature_234580",
    "title": "Creature_234580",
    "link_img": "https://live.staticflickr.com/65535/49711488297_a0821e1cf3_o.jpg",
    "id_image": "Creature_234580",
    "count_view": 0
  },
  {
    "link_thumb": "https://live.staticflickr.com/65535/49712291391_85a0754c1f_n.jpg",
    "id_album": "-709711865",
    "description": "Wolf_84732",
    "title": "Wolf_84732",
    "link_img": "https://live.staticflickr.com/65535/49712291391_e958044ece_o.jpg",
    "id_image": "Wolf_84732",
    "count_view": 0
  },
  {
    "link_thumb": "https://live.staticflickr.com/65535/49710875411_fbd4236d1e_n.jpg",
    "id_album": "-1000175186",
    "description": "AngelWarrior_159996",
    "title": "AngelWarrior_159996",
    "link_img": "https://live.staticflickr.com/65535/49710875411_cb2f60006f_o.jpg",
    "id_image": "AngelWarrior_159996",
    "count_view": 0
  },
  {
    "link_thumb": "https://live.staticflickr.com/65535/49711689671_f6ac505895_n.jpg",
    "id_album": "-1083189875",
    "description": "Forest_175394",
    "title": "Forest_175394",
    "link_img": "https://live.staticflickr.com/65535/49711689671_cd5827a761_o.jpg",
    "id_image": "Forest_175394",
    "count_view": 0
  },
  {
    "link_thumb": "https://live.staticflickr.com/65535/49710539788_94a0987dc0_n.jpg",
    "id_album": "-1741487325",
    "description": "Cat_970320",
    "title": "Cat_970320",
    "link_img": "https://live.staticflickr.com/65535/49710539788_cb6f166e9b_o.jpg",
    "id_image": "Cat_970320",
    "count_view": 0
  },
  {
    "link_thumb": "https://live.staticflickr.com/65535/49710843838_8d94b586fb_n.jpg",
    "id_album": "850176884",
    "description": "Dragon_188276",
    "title": "Dragon_188276",
    "link_img": "https://live.staticflickr.com/65535/49710843838_b3d99c5bdb_o.jpg",
    "id_image": "Dragon_188276",
    "count_view": 0
  },
  {
    "link_thumb": "https://live.staticflickr.com/65535/49711677967_3eb421b87c_n.jpg",
    "id_album": "850176884",
    "description": "Dragon_103576",
    "title": "Dragon_103576",
    "link_img": "https://live.staticflickr.com/65535/49711677967_9b751155e3_o.jpg",
    "id_image": "Dragon_103576",
    "count_view": 0
  },
  {
    "link_thumb": "https://live.staticflickr.com/65535/49711352061_6dcfa8582d_n.jpg",
    "id_album": "850176884",
    "description": "DRAGON26101916503168",
    "title": "DRAGON26101916503168",
    "link_img": "https://live.staticflickr.com/65535/49711352061_55fa36ae51_o.jpg",
    "id_image": "DRAGON26101916503168",
    "count_view": 0
  },
  {
    "link_thumb": "https://live.staticflickr.com/65535/49713020322_79a3bc8fc3_n.jpg",
    "id_album": "-1675918237",
    "description": "WomenWarrior_897440",
    "title": "WomenWarrior_897440",
    "link_img": "https://live.staticflickr.com/65535/49713020322_44b529de2f_o.jpg",
    "id_image": "WomenWarrior_897440",
    "count_view": 0
  },
  {
    "link_thumb": "https://live.staticflickr.com/65535/49711486882_2ebe84e9f1_n.jpg",
    "id_album": "-437872736",
    "description": "Creature_225249",
    "title": "Creature_225249",
    "link_img": "https://live.staticflickr.com/65535/49711486882_1b326c5459_o.jpg",
    "id_image": "Creature_225249",
    "count_view": 0
  },
  {
    "link_thumb": "https://live.staticflickr.com/65535/49712728642_6b98576c80_n.jpg",
    "id_album": "295204930",
    "description": "Women_701326",
    "title": "Women_701326",
    "link_img": "https://live.staticflickr.com/65535/49712728642_3ac707e9bc_o.jpg",
    "id_image": "Women_701326",
    "count_view": 0
  },
  {
    "link_thumb": "https://live.staticflickr.com/65535/49710422433_9f3efb306a_n.jpg",
    "id_album": "523598895",
    "description": "Artistic_234613",
    "title": "Artistic_234613",
    "link_img": "https://live.staticflickr.com/65535/49710422433_d4550cae5a_o.jpg",
    "id_image": "Artistic_234613",
    "count_view": 0
  },
  {
    "link_thumb": "https://live.staticflickr.com/65535/49711581971_da63100167_n.jpg",
    "id_album": "850176884",
    "description": "Dragon_968596",
    "title": "Dragon_968596",
    "link_img": "https://live.staticflickr.com/65535/49711581971_739b2628df_o.jpg",
    "id_image": "Dragon_968596",
    "count_view": 0
  },
  {
    "link_thumb": "https://live.staticflickr.com/65535/49711045386_16b753efd9_n.jpg",
    "id_album": "-1541846310",
    "description": "Castle_439036",
    "title": "Castle_439036",
    "link_img": "https://live.staticflickr.com/65535/49711045386_d5b3c7f590_o.jpg",
    "id_image": "Castle_439036",
    "count_view": 0
  },
  {
    "link_thumb": "https://live.staticflickr.com/65535/49711228052_cc251312cf_n.jpg",
    "id_album": "-1913845949",
    "description": "Animal_595247",
    "title": "Animal_595247",
    "link_img": "https://live.staticflickr.com/65535/49711228052_0a93a9cbf4_o.jpg",
    "id_image": "Animal_595247",
    "count_view": 0
  },
  {
    "link_thumb": "https://live.staticflickr.com/65535/49711687247_89a81abb96_n.jpg",
    "id_album": "850176884",
    "description": "Dragon_122332",
    "title": "Dragon_122332",
    "link_img": "https://live.staticflickr.com/65535/49711687247_ec83de2165_o.jpg",
    "id_image": "Dragon_122332",
    "count_view": 0
  },
  {
    "link_thumb": "https://live.staticflickr.com/65535/49711604677_6cc08f3d4d_n.jpg",
    "id_album": "-437872736",
    "description": "Creature_958662",
    "title": "Creature_958662",
    "link_img": "https://live.staticflickr.com/65535/49711604677_32976f7de4_o.jpg",
    "id_image": "Creature_958662",
    "count_view": 0
  },
  {
    "link_thumb": "https://live.staticflickr.com/65535/49711242108_35c50ba7b8_n.jpg",
    "id_album": "-1967191405",
    "description": "Hydra_909821",
    "title": "Hydra_909821",
    "link_img": "https://live.staticflickr.com/65535/49711242108_9b7f28b68b_o.jpg",
    "id_image": "Hydra_909821",
    "count_view": 0
  },
  {
    "link_thumb": "https://live.staticflickr.com/65535/49711095996_49d5d785bb_n.jpg",
    "id_album": "-1964113117",
    "description": "City_314024",
    "title": "City_314024",
    "link_img": "https://live.staticflickr.com/65535/49711095996_250033b67c_o.jpg",
    "id_image": "City_314024",
    "count_view": 0
  },
  {
    "link_thumb": "https://live.staticflickr.com/65535/49710958166_a7592738d9_n.jpg",
    "id_album": "523598895",
    "description": "Artistic_280176",
    "title": "Artistic_280176",
    "link_img": "https://live.staticflickr.com/65535/49710958166_d2b5449605_o.jpg",
    "id_image": "Artistic_280176",
    "count_view": 0
  },
  {
    "link_thumb": "https://live.staticflickr.com/65535/49710474998_4b9e310084_n.jpg",
    "id_album": "1187037014",
    "description": "Battle_740998",
    "title": "Battle_740998",
    "link_img": "https://live.staticflickr.com/65535/49710474998_1ae846926b_o.jpg",
    "id_image": "Battle_740998",
    "count_view": 0
  },
  {
    "link_thumb": "https://live.staticflickr.com/65535/49711145596_54190301a0_n.jpg",
    "id_album": "-437872736",
    "description": "Creature_153757",
    "title": "Creature_153757",
    "link_img": "https://live.staticflickr.com/65535/49711145596_65c691817d_o.jpg",
    "id_image": "Creature_153757",
    "count_view": 0
  },
  {
    "link_thumb": "https://live.staticflickr.com/65535/49711880357_b7a7d662ba_n.jpg",
    "id_album": "850176884",
    "description": "Dragon_908982",
    "title": "Dragon_908982",
    "link_img": "https://live.staticflickr.com/65535/49711880357_7bc66c0744_o.jpg",
    "id_image": "Dragon_908982",
    "count_view": 0
  },
  {
    "link_thumb": "https://live.staticflickr.com/65535/49711348011_b122fa933c_n.jpg",
    "id_album": "850176884",
    "description": "DRAGON26101916495833",
    "title": "DRAGON26101916495833",
    "link_img": "https://live.staticflickr.com/65535/49711348011_ae53253de2_o.jpg",
    "id_image": "DRAGON26101916495833",
    "count_view": 0
  },
  {
    "link_thumb": "https://live.staticflickr.com/65535/49710654183_7e7ff997c9_n.jpg",
    "id_album": "-437872736",
    "description": "Creature_313387",
    "title": "Creature_313387",
    "link_img": "https://live.staticflickr.com/65535/49710654183_ae5c85571c_o.jpg",
    "id_image": "Creature_313387",
    "count_view": 0
  },
  {
    "link_thumb": "https://live.staticflickr.com/65535/49711848777_93f4ecb263_n.jpg",
    "id_album": "850176884",
    "description": "Dragon_78873",
    "title": "Dragon_78873",
    "link_img": "https://live.staticflickr.com/65535/49711848777_1b6533acc3_o.jpg",
    "id_image": "Dragon_78873",
    "count_view": 0
  },
  {
    "link_thumb": "https://live.staticflickr.com/65535/49710460273_3e07f05904_n.jpg",
    "id_album": "1187037014",
    "description": "Battle_331046",
    "title": "Battle_331046",
    "link_img": "https://live.staticflickr.com/65535/49710460273_a651ea64a8_o.jpg",
    "id_image": "Battle_331046",
    "count_view": 0
  },
  {
    "link_thumb": "https://live.staticflickr.com/65535/49711562141_2bfb85d981_n.jpg",
    "id_album": "850176884",
    "description": "Dragon_912385",
    "title": "Dragon_912385",
    "link_img": "https://live.staticflickr.com/65535/49711562141_298039c74b_o.jpg",
    "id_image": "Dragon_912385",
    "count_view": 0
  },
  {
    "link_thumb": "https://live.staticflickr.com/65535/49710994878_3d62b831f3_n.jpg",
    "id_album": "850176884",
    "description": "Dragon_806216",
    "title": "Dragon_806216",
    "link_img": "https://live.staticflickr.com/65535/49710994878_39c596d552_o.jpg",
    "id_image": "Dragon_806216",
    "count_view": 0
  },
  {
    "link_thumb": "https://live.staticflickr.com/65535/49712238481_1bf304b95a_n.jpg",
    "id_album": "-1261420436",
    "description": "Warrior_940180",
    "title": "Warrior_940180",
    "link_img": "https://live.staticflickr.com/65535/49712238481_f580e0cbf0_o.jpg",
    "id_image": "Warrior_940180",
    "count_view": 0
  },
  {
    "link_thumb": "https://live.staticflickr.com/65535/49711406931_2111805465_n.jpg",
    "id_album": "850176884",
    "description": "Dragon_270544",
    "title": "Dragon_270544",
    "link_img": "https://live.staticflickr.com/65535/49711406931_8b9844f60c_o.jpg",
    "id_image": "Dragon_270544",
    "count_view": 0
  },
  {
    "link_thumb": "https://live.staticflickr.com/65535/49711855036_23c1ef33c5_n.jpg",
    "id_album": "1402713104",
    "description": "Landscape_911423",
    "title": "Landscape_911423",
    "link_img": "https://live.staticflickr.com/65535/49711855036_e808749906_o.jpg",
    "id_image": "Landscape_911423",
    "count_view": 0
  },
  {
    "link_thumb": "https://live.staticflickr.com/65535/49711442598_191ff891c8_n.jpg",
    "id_album": "-1284959130",
    "description": "LegendOfTheFiveRings_550176",
    "title": "LegendOfTheFiveRings_550176",
    "link_img": "https://live.staticflickr.com/65535/49711442598_e32c646f5c_o.jpg",
    "id_image": "LegendOfTheFiveRings_550176",
    "count_view": 0
  },
  {
    "link_thumb": "https://live.staticflickr.com/65535/49711600821_6160114b5e_n.jpg",
    "id_album": "134100487",
    "description": "Elf_125669",
    "title": "Elf_125669",
    "link_img": "https://live.staticflickr.com/65535/49711600821_2c080fe676_o.jpg",
    "id_image": "Elf_125669",
    "count_view": 0
  },
  {
    "link_thumb": "https://live.staticflickr.com/65535/49711276106_fd60100d57_n.jpg",
    "id_album": "-437872736",
    "description": "Creature_928576",
    "title": "Creature_928576",
    "link_img": "https://live.staticflickr.com/65535/49711276106_98d7ddcd92_o.jpg",
    "id_image": "Creature_928576",
    "count_view": 0
  },
  {
    "link_thumb": "https://live.staticflickr.com/65535/49711250481_a504904ed4_n.jpg",
    "id_album": "-437872736",
    "description": "Creature_572773",
    "title": "Creature_572773",
    "link_img": "https://live.staticflickr.com/65535/49711250481_98bf853cec_o.jpg",
    "id_image": "Creature_572773",
    "count_view": 0
  },
  {
    "link_thumb": "https://live.staticflickr.com/65535/49711209321_46e1e01df4_n.jpg",
    "id_album": "-437872736",
    "description": "Creature_342057",
    "title": "Creature_342057",
    "link_img": "https://live.staticflickr.com/65535/49711209321_92b080849e_o.jpg",
    "id_image": "Creature_342057",
    "count_view": 0
  },
  {
    "link_thumb": "https://live.staticflickr.com/65535/49711993837_5dd6868046_n.jpg",
    "id_album": "-1972042284",
    "description": "Fairy_542250",
    "title": "Fairy_542250",
    "link_img": "https://live.staticflickr.com/65535/49711993837_c8695f709f_o.jpg",
    "id_image": "Fairy_542250",
    "count_view": 0
  },
  {
    "link_thumb": "https://live.staticflickr.com/65535/49711434283_b2c06f8be7_n.jpg",
    "id_album": "-833110404",
    "description": "Landscape_555971",
    "title": "Landscape_555971",
    "link_img": "https://live.staticflickr.com/65535/49711434283_377fd8e9a5_o.jpg",
    "id_image": "Landscape_555971",
    "count_view": 0
  },
  {
    "link_thumb": "https://live.staticflickr.com/65535/49710731343_2edcf5cfd7_n.jpg",
    "id_album": "-437872736",
    "description": "Creature_779240",
    "title": "Creature_779240",
    "link_img": "https://live.staticflickr.com/65535/49710731343_696d922ab1_o.jpg",
    "id_image": "Creature_779240",
    "count_view": 0
  },
  {
    "link_thumb": "https://live.staticflickr.com/65535/49712458402_cdc78f44e8_n.jpg",
    "id_album": "-395228614",
    "description": "Ship_542652",
    "title": "Ship_542652",
    "link_img": "https://live.staticflickr.com/65535/49712458402_baa6a190c3_o.jpg",
    "id_image": "Ship_542652",
    "count_view": 0
  },
  {
    "link_thumb": "https://live.staticflickr.com/65535/49711460997_9e3e719037_n.jpg",
    "id_album": "-1964113117",
    "description": "City_983505",
    "title": "City_983505",
    "link_img": "https://live.staticflickr.com/65535/49711460997_057ebefb8b_o.jpg",
    "id_image": "City_983505",
    "count_view": 0
  },
  {
    "link_thumb": "https://live.staticflickr.com/65535/49711216158_79b533acb5_n.jpg",
    "id_album": "857581314",
    "description": "Griffin_292479",
    "title": "Griffin_292479",
    "link_img": "https://live.staticflickr.com/65535/49711216158_0d3732e370_o.jpg",
    "id_image": "Griffin_292479",
    "count_view": 0
  },
  {
    "link_thumb": "https://live.staticflickr.com/65535/49710394413_8eea2251c7_n.jpg",
    "id_album": "-1560111795",
    "description": "Archer_150438",
    "title": "Archer_150438",
    "link_img": "https://live.staticflickr.com/65535/49710394413_a612e9bf93_o.jpg",
    "id_image": "Archer_150438",
    "count_view": 0
  },
  {
    "link_thumb": "https://live.staticflickr.com/65535/49712103852_d3aa8eca1e_n.jpg",
    "id_album": "469960528",
    "description": "Knight_448116",
    "title": "Knight_448116",
    "link_img": "https://live.staticflickr.com/65535/49712103852_eab1ee15d7_o.jpg",
    "id_image": "Knight_448116",
    "count_view": 0
  },
  {
    "link_thumb": "https://live.staticflickr.com/65535/49711199746_43ca054f2f_n.jpg",
    "id_album": "-437872736",
    "description": "Creature_329080",
    "title": "Creature_329080",
    "link_img": "https://live.staticflickr.com/65535/49711199746_d593410573_o.jpg",
    "id_image": "Creature_329080",
    "count_view": 0
  },
  {
    "link_thumb": "https://live.staticflickr.com/65535/49711542426_9ae9a6c918_n.jpg",
    "id_album": "850176884",
    "description": "Dragon_869185",
    "title": "Dragon_869185",
    "link_img": "https://live.staticflickr.com/65535/49711542426_7352864e46_o.jpg",
    "id_image": "Dragon_869185",
    "count_view": 0
  },
  {
    "link_thumb": "https://live.staticflickr.com/65535/49712626817_3ba1cd25ac_n.jpg",
    "id_album": "-1126835654",
    "description": "Women_112739",
    "title": "Women_112739",
    "link_img": "https://live.staticflickr.com/65535/49712626817_685c1718a6_o.jpg",
    "id_image": "Women_112739",
    "count_view": 0
  },
  {
    "link_thumb": "https://live.staticflickr.com/65535/49710874323_c4156f602c_n.jpg",
    "id_album": "850176884",
    "description": "Dragon_286242",
    "title": "Dragon_286242",
    "link_img": "https://live.staticflickr.com/65535/49710874323_79e03e21bf_o.jpg",
    "id_image": "Dragon_286242",
    "count_view": 0
  },
  {
    "link_thumb": "https://live.staticflickr.com/65535/49711469187_7a3340510a_n.jpg",
    "id_album": "-437872736",
    "description": "Creature_152082",
    "title": "Creature_152082",
    "link_img": "https://live.staticflickr.com/65535/49711469187_0998c803c6_o.jpg",
    "id_image": "Creature_152082",
    "count_view": 0
  },
  {
    "link_thumb": "https://live.staticflickr.com/65535/49711436236_54d77c73cb_n.jpg",
    "id_album": "850176884",
    "description": "Dragon_376574",
    "title": "Dragon_376574",
    "link_img": "https://live.staticflickr.com/65535/49711436236_a47717dfda_o.jpg",
    "id_image": "Dragon_376574",
    "count_view": 0
  },
  {
    "link_thumb": "https://live.staticflickr.com/65535/49711759992_04e954ebf2_n.jpg",
    "id_album": "850176884",
    "description": "Dragon_387810",
    "title": "Dragon_387810",
    "link_img": "https://live.staticflickr.com/65535/49711759992_a2d5462dcc_o.jpg",
    "id_image": "Dragon_387810",
    "count_view": 0
  },
  {
    "link_thumb": "https://live.staticflickr.com/65535/49711199833_72c92f889f_n.jpg",
    "id_album": "402434752",
    "description": "Giant_673595",
    "title": "Giant_673595",
    "link_img": "https://live.staticflickr.com/65535/49711199833_c5b58418dd_o.jpg",
    "id_image": "Giant_673595",
    "count_view": 0
  },
  {
    "link_thumb": "https://live.staticflickr.com/65535/49710968563_960a871ab4_n.jpg",
    "id_album": "850176884",
    "description": "Dragon_681012",
    "title": "Dragon_681012",
    "link_img": "https://live.staticflickr.com/65535/49710968563_2658d03497_o.jpg",
    "id_image": "Dragon_681012",
    "count_view": 0
  }
]