[
  {
    "link_thumb": "https://live.staticflickr.com/65535/49712745397_4f8be5fe08_n.jpg",
    "id_album": "295204930",
    "description": "Women_742046",
    "title": "Women_742046",
    "link_img": "https://live.staticflickr.com/65535/49712745397_85136b4f6c_o.jpg",
    "id_image": "Women_742046",
    "count_view": 0
  },
  {
    "link_thumb": "https://live.staticflickr.com/65535/49711752837_1fc961d6c0_n.jpg",
    "id_album": "850176884",
    "description": "Dragon_354832",
    "title": "Dragon_354832",
    "link_img": "https://live.staticflickr.com/65535/49711752837_9bcfda52a1_o.jpg",
    "id_image": "Dragon_354832",
    "count_view": 0
  },
  {
    "link_thumb": "https://live.staticflickr.com/65535/49710921678_983205bace_n.jpg",
    "id_album": "850176884",
    "description": "Dragon_47695",
    "title": "Dragon_47695",
    "link_img": "https://live.staticflickr.com/65535/49710921678_0c9f261e40_o.jpg",
    "id_image": "Dragon_47695",
    "count_view": 0
  },
  {
    "link_thumb": "https://live.staticflickr.com/65535/49711056656_dd81d72253_n.jpg",
    "id_album": "-1541846310",
    "description": "Castle_753976",
    "title": "Castle_753976",
    "link_img": "https://live.staticflickr.com/65535/49711056656_f52a8ffc2f_o.jpg",
    "id_image": "Castle_753976",
    "count_view": 0
  },
  {
    "link_thumb": "https://live.staticflickr.com/65535/49711604961_0ab538fd79_n.jpg",
    "id_album": "134100487",
    "description": "Elf_238433",
    "title": "Elf_238433",
    "link_img": "https://live.staticflickr.com/65535/49711604961_1facb63a4b_o.jpg",
    "id_image": "Elf_238433",
    "count_view": 0
  },
  {
    "link_thumb": "https://live.staticflickr.com/65535/49711600821_6160114b5e_n.jpg",
    "id_album": "134100487",
    "description": "Elf_125669",
    "title": "Elf_125669",
    "link_img": "https://live.staticflickr.com/65535/49711600821_2c080fe676_o.jpg",
    "id_image": "Elf_125669",
    "count_view": 0
  },
  {
    "link_thumb": "https://live.staticflickr.com/65535/49712591022_aa2efb346e_n.jpg",
    "id_album": "-709711865",
    "description": "Wolf_108278",
    "title": "Wolf_108278",
    "link_img": "https://live.staticflickr.com/65535/49712591022_a0685da1d4_o.jpg",
    "id_image": "Wolf_108278",
    "count_view": 0
  },
  {
    "link_thumb": "https://live.staticflickr.com/65535/49712713147_dac544f733_n.jpg",
    "id_album": "295204930",
    "description": "Women_393634",
    "title": "Women_393634",
    "link_img": "https://live.staticflickr.com/65535/49712713147_eb46f29438_o.jpg",
    "id_image": "Women_393634",
    "count_view": 0
  },
  {
    "link_thumb": "https://live.staticflickr.com/65535/49710980591_5fc063f458_n.jpg",
    "id_album": "523598895",
    "description": "Artistic_869734",
    "title": "Artistic_869734",
    "link_img": "https://live.staticflickr.com/65535/49710980591_243663a41c_o.jpg",
    "id_image": "Artistic_869734",
    "count_view": 0
  },
  {
    "link_thumb": "https://live.staticflickr.com/65535/49711450073_d8bc56517a_n.jpg",
    "id_album": "416744915",
    "description": "Lion_970420",
    "title": "Lion_970420",
    "link_img": "https://live.staticflickr.com/65535/49711450073_d3cd7b9724_o.jpg",
    "id_image": "Lion_970420",
    "count_view": 0
  },
  {
    "link_thumb": "https://live.staticflickr.com/65535/49710710483_3e7164231f_n.jpg",
    "id_album": "-437872736",
    "description": "Creature_551712",
    "title": "Creature_551712",
    "link_img": "https://live.staticflickr.com/65535/49710710483_4babb97c5e_o.jpg",
    "id_image": "Creature_551712",
    "count_view": 0
  },
  {
    "link_thumb": "https://live.staticflickr.com/65535/49710915771_eb6a4725ca_n.jpg",
    "id_album": "-1913845949",
    "description": "Animal_739365",
    "title": "Animal_739365",
    "link_img": "https://live.staticflickr.com/65535/49710915771_04ff5cdceb_o.jpg",
    "id_image": "Animal_739365",
    "count_view": 0
  },
  {
    "link_thumb": "https://live.staticflickr.com/65535/49711349467_8e95eb87d5_n.jpg",
    "id_album": "406431601",
    "description": "Building_860866",
    "title": "Building_860866",
    "link_img": "https://live.staticflickr.com/65535/49711349467_174188bca2_o.jpg",
    "id_image": "Building_860866",
    "count_view": 0
  },
  {
    "link_thumb": "https://live.staticflickr.com/65535/49710640463_af4dc55da9_n.jpg",
    "id_album": "-437872736",
    "description": "Creature_282600",
    "title": "Creature_282600",
    "link_img": "https://live.staticflickr.com/65535/49710640463_20a3552702_o.jpg",
    "id_image": "Creature_282600",
    "count_view": 0
  },
  {
    "link_thumb": "https://live.staticflickr.com/65535/49711662337_6f9cb016bf_n.jpg",
    "id_album": "7198985",
    "description": "Demon_588969",
    "title": "Demon_588969",
    "link_img": "https://live.staticflickr.com/65535/49711662337_47bdaba03d_o.jpg",
    "id_image": "Demon_588969",
    "count_view": 0
  },
  {
    "link_thumb": "https://live.staticflickr.com/65535/49711304221_675b793703_n.jpg",
    "id_album": "-437872736",
    "description": "Creature_958975",
    "title": "Creature_958975",
    "link_img": "https://live.staticflickr.com/65535/49711304221_ce9a9f7095_o.jpg",
    "id_image": "Creature_958975",
    "count_view": 0
  },
  {
    "link_thumb": "https://live.staticflickr.com/65535/49711739902_0a04a97b92_n.jpg",
    "id_album": "850176884",
    "description": "Dragon_317975",
    "title": "Dragon_317975",
    "link_img": "https://live.staticflickr.com/65535/49711739902_560722743f_o.jpg",
    "id_image": "Dragon_317975",
    "count_view": 0
  },
  {
    "link_thumb": "https://live.staticflickr.com/65535/49711680892_caf0a1e2cf_n.jpg",
    "id_album": "850176884",
    "description": "Dragon_118559",
    "title": "Dragon_118559",
    "link_img": "https://live.staticflickr.com/65535/49711680892_359a067dd5_o.jpg",
    "id_image": "Dragon_118559",
    "count_view": 0
  },
  {
    "link_thumb": "https://live.staticflickr.com/65535/49711464107_e746c064d3_n.jpg",
    "id_album": "-437872736",
    "description": "Creature_115347",
    "title": "Creature_115347",
    "link_img": "https://live.staticflickr.com/65535/49711464107_5d479e616b_o.jpg",
    "id_image": "Creature_115347",
    "count_view": 0
  },
  {
    "link_thumb": "https://live.staticflickr.com/65535/49712629157_452d5bafc9_n.jpg",
    "id_album": "-1126835654",
    "description": "Women_841523",
    "title": "Women_841523",
    "link_img": "https://live.staticflickr.com/65535/49712629157_d662e54506_o.jpg",
    "id_image": "Women_841523",
    "count_view": 0
  },
  {
    "link_thumb": "https://live.staticflickr.com/65535/49712126727_2b5e55bfee_n.jpg",
    "id_album": "1402713104",
    "description": "Landscape_697380",
    "title": "Landscape_697380",
    "link_img": "https://live.staticflickr.com/65535/49712126727_977a78ec15_o.jpg",
    "id_image": "Landscape_697380",
    "count_view": 0
  },
  {
    "link_thumb": "https://live.staticflickr.com/65535/49710326113_3da75c330e_n.jpg",
    "id_album": "-2109465612",
    "description": "Adventure_238415",
    "title": "Adventure_238415",
    "link_img": "https://live.staticflickr.com/65535/49710326113_861d71ab96_o.jpg",
    "id_image": "Adventure_238415",
    "count_view": 0
  },
  {
    "link_thumb": "https://live.staticflickr.com/65535/49711608581_6c216934fe_n.jpg",
    "id_album": "134100487",
    "description": "Elf_333399",
    "title": "Elf_333399",
    "link_img": "https://live.staticflickr.com/65535/49711608581_4e74e313fa_o.jpg",
    "id_image": "Elf_333399",
    "count_view": 0
  },
  {
    "link_thumb": "https://live.staticflickr.com/65535/49711250212_357af59790_n.jpg",
    "id_album": "-1913845949",
    "description": "Animal_984051",
    "title": "Animal_984051",
    "link_img": "https://live.staticflickr.com/65535/49711250212_1d33dd995c_o.jpg",
    "id_image": "Animal_984051",
    "count_view": 0
  },
  {
    "link_thumb": "https://live.staticflickr.com/65535/49711269693_73c954cc12_n.jpg",
    "id_album": "1402713104",
    "description": "Landscape_698829",
    "title": "Landscape_698829",
    "link_img": "https://live.staticflickr.com/65535/49711269693_79124fddf4_o.jpg",
    "id_image": "Landscape_698829",
    "count_view": 0
  },
  {
    "link_thumb": "https://live.staticflickr.com/65535/49712559727_9533c56b99_n.jpg",
    "id_album": "-1261420436",
    "description": "Warrior_928551",
    "title": "Warrior_928551",
    "link_img": "https://live.staticflickr.com/65535/49712559727_218f0407da_o.jpg",
    "id_image": "Warrior_928551",
    "count_view": 0
  },
  {
    "link_thumb": "https://live.staticflickr.com/65535/49710534323_1175d4de2a_n.jpg",
    "id_album": "-1741487325",
    "description": "Cat_573427",
    "title": "Cat_573427",
    "link_img": "https://live.staticflickr.com/65535/49710534323_a2dbdf670f_o.jpg",
    "id_image": "Cat_573427",
    "count_view": 0
  },
  {
    "link_thumb": "https://live.staticflickr.com/65535/49712594997_ba3074546f_n.jpg",
    "id_album": "-709711865",
    "description": "Wolf_335782",
    "title": "Wolf_335782",
    "link_img": "https://live.staticflickr.com/65535/49712594997_3bc7c3e5fc_o.jpg",
    "id_image": "Wolf_335782",
    "count_view": 0
  },
  {
    "link_thumb": "https://live.staticflickr.com/65535/49711686562_d22d576dfb_n.jpg",
    "id_album": "850176884",
    "description": "Dragon_122323",
    "title": "Dragon_122323",
    "link_img": "https://live.staticflickr.com/65535/49711686562_a4d363ee72_o.jpg",
    "id_image": "Dragon_122323",
    "count_view": 0
  },
  {
    "link_thumb": "https://live.staticflickr.com/65535/49711460997_9e3e719037_n.jpg",
    "id_album": "-1964113117",
    "description": "City_983505",
    "title": "City_983505",
    "link_img": "https://live.staticflickr.com/65535/49711460997_057ebefb8b_o.jpg",
    "id_image": "City_983505",
    "count_view": 0
  },
  {
    "link_thumb": "https://live.staticflickr.com/65535/49710498303_0833aa27cf_n.jpg",
    "id_album": "-1541846310",
    "description": "Castle_147452",
    "title": "Castle_147452",
    "link_img": "https://live.staticflickr.com/65535/49710498303_092044ae1b_o.jpg",
    "id_image": "Castle_147452",
    "count_view": 0
  },
  {
    "link_thumb": "https://live.staticflickr.com/65535/49711277471_d79ed64a9f_n.jpg",
    "id_album": "-437872736",
    "description": "Creature_958638",
    "title": "Creature_958638",
    "link_img": "https://live.staticflickr.com/65535/49711277471_2890a29226_o.jpg",
    "id_image": "Creature_958638",
    "count_view": 0
  },
  {
    "link_thumb": "https://live.staticflickr.com/65535/49712117146_999854d22a_n.jpg",
    "id_album": "-1611961467",
    "description": "Samurai_994113",
    "title": "Samurai_994113",
    "link_img": "https://live.staticflickr.com/65535/49712117146_26fb2eeacc_o.jpg",
    "id_image": "Samurai_994113",
    "count_view": 0
  },
  {
    "link_thumb": "https://live.staticflickr.com/65535/49711342007_5581f500ab_n.jpg",
    "id_album": "-1846011410",
    "description": "Bird_711470",
    "title": "Bird_711470",
    "link_img": "https://live.staticflickr.com/65535/49711342007_a2243dcea5_o.jpg",
    "id_image": "Bird_711470",
    "count_view": 0
  },
  {
    "link_thumb": "https://live.staticflickr.com/65535/49712360977_d668dc9c3e_n.jpg",
    "id_album": "1892085513",
    "description": "Oriental_253850",
    "title": "Oriental_253850",
    "link_img": "https://live.staticflickr.com/65535/49712360977_a0dfa8e79e_o.jpg",
    "id_image": "Oriental_253850",
    "count_view": 0
  },
  {
    "link_thumb": "https://live.staticflickr.com/65535/49711168968_34ee0f8942_n.jpg",
    "id_album": "-1083189875",
    "description": "Forest_677435",
    "title": "Forest_677435",
    "link_img": "https://live.staticflickr.com/65535/49711168968_ebaf519d0b_o.jpg",
    "id_image": "Forest_677435",
    "count_view": 0
  },
  {
    "link_thumb": "https://live.staticflickr.com/65535/49710342068_f3878d1d29_n.jpg",
    "id_album": "-1000175186",
    "description": "AngelWarrior_238556",
    "title": "AngelWarrior_238556",
    "link_img": "https://live.staticflickr.com/65535/49710342068_613912995b_o.jpg",
    "id_image": "AngelWarrior_238556",
    "count_view": 0
  },
  {
    "link_thumb": "https://live.staticflickr.com/65535/49712670451_4fde10045d_n.jpg",
    "id_album": "-1675918237",
    "description": "WomenWarrior_785735",
    "title": "WomenWarrior_785735",
    "link_img": "https://live.staticflickr.com/65535/49712670451_b791c05749_o.jpg",
    "id_image": "WomenWarrior_785735",
    "count_view": 0
  },
  {
    "link_thumb": "https://live.staticflickr.com/65535/49712089862_6f705350fa_n.jpg",
    "id_album": "1957967226",
    "description": "House_600182",
    "title": "House_600182",
    "link_img": "https://live.staticflickr.com/65535/49712089862_43674e0068_o.jpg",
    "id_image": "House_600182",
    "count_view": 0
  },
  {
    "link_thumb": "https://live.staticflickr.com/65535/49712842187_1dba0ab9b1_n.jpg",
    "id_album": "-867594484",
    "description": "Women_593928",
    "title": "Women_593928",
    "link_img": "https://live.staticflickr.com/65535/49712842187_6311f47c95_o.jpg",
    "id_image": "Women_593928",
    "count_view": 0
  },
  {
    "link_thumb": "https://live.staticflickr.com/65535/49712243467_139180e872_n.jpg",
    "id_album": "-833110404",
    "description": "Landscape_301018",
    "title": "Landscape_301018",
    "link_img": "https://live.staticflickr.com/65535/49712243467_5cef8b39ce_o.jpg",
    "id_image": "Landscape_301018",
    "count_view": 0
  },
  {
    "link_thumb": "https://live.staticflickr.com/65535/49711693501_43aca658a8_n.jpg",
    "id_album": "-1083189875",
    "description": "Forest_331653",
    "title": "Forest_331653",
    "link_img": "https://live.staticflickr.com/65535/49711693501_0a5d416c70_o.jpg",
    "id_image": "Forest_331653",
    "count_view": 0
  },
  {
    "link_thumb": "https://live.staticflickr.com/65535/49711065553_46c6869bfa_n.jpg",
    "id_album": "-1594184835",
    "description": "Dwarf_911262",
    "title": "Dwarf_911262",
    "link_img": "https://live.staticflickr.com/65535/49711065553_170067a474_o.jpg",
    "id_image": "Dwarf_911262",
    "count_view": 0
  },
  {
    "link_thumb": "https://live.staticflickr.com/65535/49711305932_ca3b19ed60_n.jpg",
    "id_album": "1187037014",
    "description": "Battle_113122",
    "title": "Battle_113122",
    "link_img": "https://live.staticflickr.com/65535/49711305932_860daacc67_o.jpg",
    "id_image": "Battle_113122",
    "count_view": 0
  },
  {
    "link_thumb": "https://live.staticflickr.com/65535/49711469592_42754aedf2_n.jpg",
    "id_album": "-437872736",
    "description": "Creature_152624",
    "title": "Creature_152624",
    "link_img": "https://live.staticflickr.com/65535/49711469592_93a0ea27ca_o.jpg",
    "id_image": "Creature_152624",
    "count_view": 0
  },
  {
    "link_thumb": "https://live.staticflickr.com/65535/49712137501_caf6ca8811_n.jpg",
    "id_album": "-395228614",
    "description": "Ship_695093",
    "title": "Ship_695093",
    "link_img": "https://live.staticflickr.com/65535/49712137501_d1e7f4e738_o.jpg",
    "id_image": "Ship_695093",
    "count_view": 0
  },
  {
    "link_thumb": "https://live.staticflickr.com/65535/49711845433_f4e2d15cfe_n.jpg",
    "id_album": "295204930",
    "description": "Women_340996",
    "title": "Women_340996",
    "link_img": "https://live.staticflickr.com/65535/49711845433_83281837d4_o.jpg",
    "id_image": "Women_340996",
    "count_view": 0
  },
  {
    "link_thumb": "https://live.staticflickr.com/65535/49711008418_a403570430_n.jpg",
    "id_album": "850176884",
    "description": "Dragon_870690",
    "title": "Dragon_870690",
    "link_img": "https://live.staticflickr.com/65535/49711008418_6b87ef96dd_o.jpg",
    "id_image": "Dragon_870690",
    "count_view": 0
  },
  {
    "link_thumb": "https://live.staticflickr.com/65535/49711544666_5d8da1af42_n.jpg",
    "id_album": "850176884",
    "description": "Dragon_872520",
    "title": "Dragon_872520",
    "link_img": "https://live.staticflickr.com/65535/49711544666_fd9bf1190b_o.jpg",
    "id_image": "Dragon_872520",
    "count_view": 0
  },
  {
    "link_thumb": "https://live.staticflickr.com/65535/49711692241_a4ecb90396_n.jpg",
    "id_album": "-1083189875",
    "description": "Forest_284057",
    "title": "Forest_284057",
    "link_img": "https://live.staticflickr.com/65535/49711692241_1e774ff6b9_o.jpg",
    "id_image": "Forest_284057",
    "count_view": 0
  },
  {
    "link_thumb": "https://live.staticflickr.com/65535/49711311407_e8ac805b68_n.jpg",
    "id_album": "1187037014",
    "description": "Battle_242335",
    "title": "Battle_242335",
    "link_img": "https://live.staticflickr.com/65535/49711311407_1b37d33196_o.jpg",
    "id_image": "Battle_242335",
    "count_view": 0
  },
  {
    "link_thumb": "https://live.staticflickr.com/65535/49711378063_e0d9acdaf1_n.jpg",
    "id_album": "-833110404",
    "description": "Landscape_288852",
    "title": "Landscape_288852",
    "link_img": "https://live.staticflickr.com/65535/49711378063_f7132fb2be_o.jpg",
    "id_image": "Landscape_288852",
    "count_view": 0
  },
  {
    "link_thumb": "https://live.staticflickr.com/65535/49711394366_b7e577c032_n.jpg",
    "id_album": "850176884",
    "description": "Dragon_239494",
    "title": "Dragon_239494",
    "link_img": "https://live.staticflickr.com/65535/49711394366_133649fa56_o.jpg",
    "id_image": "Dragon_239494",
    "count_view": 0
  },
  {
    "link_thumb": "https://live.staticflickr.com/65535/49712247002_9fef637368_n.jpg",
    "id_album": "-833110404",
    "description": "Landscape_310029",
    "title": "Landscape_310029",
    "link_img": "https://live.staticflickr.com/65535/49712247002_ea00f7293f_o.jpg",
    "id_image": "Landscape_310029",
    "count_view": 0
  },
  {
    "link_thumb": "https://live.staticflickr.com/65535/49710389138_3860756cea_n.jpg",
    "id_album": "-1913845949",
    "description": "Animal_928820",
    "title": "Animal_928820",
    "link_img": "https://live.staticflickr.com/65535/49710389138_ab43305909_o.jpg",
    "id_image": "Animal_928820",
    "count_view": 0
  },
  {
    "link_thumb": "https://live.staticflickr.com/65535/49711800896_65cc792149_n.jpg",
    "id_album": "1402713104",
    "description": "Landscape_679256",
    "title": "Landscape_679256",
    "link_img": "https://live.staticflickr.com/65535/49711800896_ec3f925f95_o.jpg",
    "id_image": "Landscape_679256",
    "count_view": 0
  },
  {
    "link_thumb": "https://live.staticflickr.com/65535/49710903478_177deedfaf_n.jpg",
    "id_album": "850176884",
    "description": "Dragon_388309",
    "title": "Dragon_388309",
    "link_img": "https://live.staticflickr.com/65535/49710903478_b9b90cfd20_o.jpg",
    "id_image": "Dragon_388309",
    "count_view": 0
  },
  {
    "link_thumb": "https://live.staticflickr.com/65535/49710906531_b02e7db9b7_n.jpg",
    "id_album": "-1913845949",
    "description": "Animal_636039",
    "title": "Animal_636039",
    "link_img": "https://live.staticflickr.com/65535/49710906531_8cf82b4a55_o.jpg",
    "id_image": "Animal_636039",
    "count_view": 0
  },
  {
    "link_thumb": "https://live.staticflickr.com/65535/49711537262_acba954e05_n.jpg",
    "id_album": "-437872736",
    "description": "Creature_348013",
    "title": "Creature_348013",
    "link_img": "https://live.staticflickr.com/65535/49711537262_eb984c916b_o.jpg",
    "id_image": "Creature_348013",
    "count_view": 0
  },
  {
    "link_thumb": "https://live.staticflickr.com/65535/49711732052_fa34ea530e_n.jpg",
    "id_album": "850176884",
    "description": "Dragon_283849",
    "title": "Dragon_283849",
    "link_img": "https://live.staticflickr.com/65535/49711732052_49973fa4bb_o.jpg",
    "id_image": "Dragon_283849",
    "count_view": 0
  },
  {
    "link_thumb": "https://live.staticflickr.com/65535/49711324532_83dda2f426_n.jpg",
    "id_album": "1187037014",
    "description": "Battle_43691",
    "title": "Battle_43691",
    "link_img": "https://live.staticflickr.com/65535/49711324532_c61f10d5c4_o.jpg",
    "id_image": "Battle_43691",
    "count_view": 0
  },
  {
    "link_thumb": "https://live.staticflickr.com/65535/49711123353_f2a4aab2d2_n.jpg",
    "id_album": "-1972042284",
    "description": "Fairy_338134",
    "title": "Fairy_338134",
    "link_img": "https://live.staticflickr.com/65535/49711123353_f35c110718_o.jpg",
    "id_image": "Fairy_338134",
    "count_view": 0
  },
  {
    "link_thumb": "https://live.staticflickr.com/65535/49712027247_5040499e8f_n.jpg",
    "id_album": "-1083189875",
    "description": "Forest_679748",
    "title": "Forest_679748",
    "link_img": "https://live.staticflickr.com/65535/49712027247_877f14b9c1_o.jpg",
    "id_image": "Forest_679748",
    "count_view": 0
  },
  {
    "link_thumb": "https://live.staticflickr.com/65535/49711506782_0ddc227b58_n.jpg",
    "id_album": "-437872736",
    "description": "Creature_301048",
    "title": "Creature_301048",
    "link_img": "https://live.staticflickr.com/65535/49711506782_c1b8211cb2_o.jpg",
    "id_image": "Creature_301048",
    "count_view": 0
  },
  {
    "link_thumb": "https://live.staticflickr.com/65535/49712241296_c4f5ba1cf3_n.jpg",
    "id_album": "1173975892",
    "description": "Werewolf_126995",
    "title": "Werewolf_126995",
    "link_img": "https://live.staticflickr.com/65535/49712241296_aa13968a69_o.jpg",
    "id_image": "Werewolf_126995",
    "count_view": 0
  },
  {
    "link_thumb": "https://live.staticflickr.com/65535/49711140588_78d0f86437_n.jpg",
    "id_album": "-1972042284",
    "description": "Fairy_694776",
    "title": "Fairy_694776",
    "link_img": "https://live.staticflickr.com/65535/49711140588_1fed7b2151_o.jpg",
    "id_image": "Fairy_694776",
    "count_view": 0
  },
  {
    "link_thumb": "https://live.staticflickr.com/65535/49711684342_5fc9d90008_n.jpg",
    "id_album": "850176884",
    "description": "Dragon_122304",
    "title": "Dragon_122304",
    "link_img": "https://live.staticflickr.com/65535/49711684342_e6b9375dbb_o.jpg",
    "id_image": "Dragon_122304",
    "count_view": 0
  },
  {
    "link_thumb": "https://live.staticflickr.com/65535/49711296073_e4d9e415e9_n.jpg",
    "id_album": "1402713104",
    "description": "Landscape_861563",
    "title": "Landscape_861563",
    "link_img": "https://live.staticflickr.com/65535/49711296073_432a7098a6_o.jpg",
    "id_image": "Landscape_861563",
    "count_view": 0
  },
  {
    "link_thumb": "https://live.staticflickr.com/65535/49711417373_8b89f250ff_n.jpg",
    "id_album": "-833110404",
    "description": "Landscape_493155",
    "title": "Landscape_493155",
    "link_img": "https://live.staticflickr.com/65535/49711417373_828b14b3f5_o.jpg",
    "id_image": "Landscape_493155",
    "count_view": 0
  },
  {
    "link_thumb": "https://live.staticflickr.com/65535/49711686126_57dc77cd44_n.jpg",
    "id_album": "-1972042284",
    "description": "Fairy_91788",
    "title": "Fairy_91788",
    "link_img": "https://live.staticflickr.com/65535/49711686126_3a8dc2e871_o.jpg",
    "id_image": "Fairy_91788",
    "count_view": 0
  },
  {
    "link_thumb": "https://live.staticflickr.com/65535/49712173141_29f21d8949_n.jpg",
    "id_album": "46520366",
    "description": "Turtle_666432",
    "title": "Turtle_666432",
    "link_img": "https://live.staticflickr.com/65535/49712173141_5f2cd884ec_o.jpg",
    "id_image": "Turtle_666432",
    "count_view": 0
  },
  {
    "link_thumb": "https://live.staticflickr.com/65535/49710401983_e847378273_n.jpg",
    "id_album": "-1560111795",
    "description": "Archer_902772",
    "title": "Archer_902772",
    "link_img": "https://live.staticflickr.com/65535/49710401983_d3e6956ed5_o.jpg",
    "id_image": "Archer_902772",
    "count_view": 0
  },
  {
    "link_thumb": "https://live.staticflickr.com/65535/49710837483_6417649a35_n.jpg",
    "id_album": "850176884",
    "description": "Dragon_150410",
    "title": "Dragon_150410",
    "link_img": "https://live.staticflickr.com/65535/49710837483_6972aeaa19_o.jpg",
    "id_image": "Dragon_150410",
    "count_view": 0
  },
  {
    "link_thumb": "https://live.staticflickr.com/65535/49711782047_32a09b9c5b_n.jpg",
    "id_album": "850176884",
    "description": "Dragon_491436",
    "title": "Dragon_491436",
    "link_img": "https://live.staticflickr.com/65535/49711782047_96e5f3a5cf_o.jpg",
    "id_image": "Dragon_491436",
    "count_view": 0
  },
  {
    "link_thumb": "https://live.staticflickr.com/65535/49712219281_2ec4921781_n.jpg",
    "id_album": "-1261420436",
    "description": "Warrior_688688",
    "title": "Warrior_688688",
    "link_img": "https://live.staticflickr.com/65535/49712219281_219ca2030e_o.jpg",
    "id_image": "Warrior_688688",
    "count_view": 0
  },
  {
    "link_thumb": "https://live.staticflickr.com/65535/49711661998_ae22d70747_n.jpg",
    "id_album": "-1261420436",
    "description": "Warrior_11362",
    "title": "Warrior_11362",
    "link_img": "https://live.staticflickr.com/65535/49711661998_7578b9d734_o.jpg",
    "id_image": "Warrior_11362",
    "count_view": 0
  },
  {
    "link_thumb": "https://live.staticflickr.com/65535/49987496901_dd319c5a2d_n.jpg",
    "id_album": "-1703946758",
    "description": "ANIME_PIC_cb2f91d24d6ad5a1e524406f22f218e0",
    "title": "ANIME_PIC_cb2f91d24d6ad5a1e524406f22f218e0",
    "link_img": "https://live.staticflickr.com/65535/49987496901_ceddd2055f_o.jpg",
    "id_image": "ANIME_PIC_cb2f91d24d6ad5a1e524406f22f218e0",
    "count_view": 0
  },
  {
    "link_thumb": "https://live.staticflickr.com/65535/49710905653_67074eb322_n.jpg",
    "id_album": "850176884",
    "description": "Dragon_403949",
    "title": "Dragon_403949",
    "link_img": "https://live.staticflickr.com/65535/49710905653_2037dcab9c_o.jpg",
    "id_image": "Dragon_403949",
    "count_view": 0
  },
  {
    "link_thumb": "https://live.staticflickr.com/65535/49712276936_045f862238_n.jpg",
    "id_album": "-709711865",
    "description": "Wolf_558908",
    "title": "Wolf_558908",
    "link_img": "https://live.staticflickr.com/65535/49712276936_858ccb4ec5_o.jpg",
    "id_image": "Wolf_558908",
    "count_view": 0
  },
  {
    "link_thumb": "https://live.staticflickr.com/65535/49711592607_a96f1ae6a7_n.jpg",
    "id_album": "-437872736",
    "description": "Creature_848223",
    "title": "Creature_848223",
    "link_img": "https://live.staticflickr.com/65535/49711592607_1ec7f865a7_o.jpg",
    "id_image": "Creature_848223",
    "count_view": 0
  },
  {
    "link_thumb": "https://live.staticflickr.com/65535/49711181828_24a32e6935_n.jpg",
    "id_album": "-1083189875",
    "description": "Forest_867446",
    "title": "Forest_867446",
    "link_img": "https://live.staticflickr.com/65535/49711181828_0f1660d204_o.jpg",
    "id_image": "Forest_867446",
    "count_view": 0
  },
  {
    "link_thumb": "https://live.staticflickr.com/65535/49711163306_f41243c71f_n.jpg",
    "id_album": "-437872736",
    "description": "Creature_235384",
    "title": "Creature_235384",
    "link_img": "https://live.staticflickr.com/65535/49711163306_7a5cd30c5d_o.jpg",
    "id_image": "Creature_235384",
    "count_view": 0
  },
  {
    "link_thumb": "https://live.staticflickr.com/65535/49711374478_4ef9964d40_n.jpg",
    "id_album": "-833110404",
    "description": "Landscape_283728",
    "title": "Landscape_283728",
    "link_img": "https://live.staticflickr.com/65535/49711374478_011dff8431_o.jpg",
    "id_image": "Landscape_283728",
    "count_view": 0
  },
  {
    "link_thumb": "https://live.staticflickr.com/65535/49711035571_01454295f1_n.jpg",
    "id_album": "-1541846310",
    "description": "Castle_177522",
    "title": "Castle_177522",
    "link_img": "https://live.staticflickr.com/65535/49711035571_3dab69329c_o.jpg",
    "id_image": "Castle_177522",
    "count_view": 0
  },
  {
    "link_thumb": "https://live.staticflickr.com/65535/49711458282_298f02ac79_n.jpg",
    "id_album": "-1964113117",
    "description": "City_957843",
    "title": "City_957843",
    "link_img": "https://live.staticflickr.com/65535/49711458282_5554bd8247_o.jpg",
    "id_image": "City_957843",
    "count_view": 0
  },
  {
    "link_thumb": "https://live.staticflickr.com/65535/49711291446_6e4f99e343_n.jpg",
    "id_album": "-437872736",
    "description": "Creature_958873",
    "title": "Creature_958873",
    "link_img": "https://live.staticflickr.com/65535/49711291446_dc4e9d79ec_o.jpg",
    "id_image": "Creature_958873",
    "count_view": 0
  },
  {
    "link_thumb": "https://live.staticflickr.com/65535/49712471747_5bd4f299cd_n.jpg",
    "id_album": "1209361954",
    "description": "Sylvan_197028",
    "title": "Sylvan_197028",
    "link_img": "https://live.staticflickr.com/65535/49712471747_51618af93c_o.jpg",
    "id_image": "Sylvan_197028",
    "count_view": 0
  },
  {
    "link_thumb": "https://live.staticflickr.com/65535/49711637038_8805cc424d_n.jpg",
    "id_album": "46520366",
    "description": "Turtle_546351",
    "title": "Turtle_546351",
    "link_img": "https://live.staticflickr.com/65535/49711637038_1602253a73_o.jpg",
    "id_image": "Turtle_546351",
    "count_view": 0
  },
  {
    "link_thumb": "https://live.staticflickr.com/65535/49711985867_21d3e1e32c_n.jpg",
    "id_album": "-1972042284",
    "description": "Fairy_372740",
    "title": "Fairy_372740",
    "link_img": "https://live.staticflickr.com/65535/49711985867_2b7c930abd_o.jpg",
    "id_image": "Fairy_372740",
    "count_view": 0
  },
  {
    "link_thumb": "https://live.staticflickr.com/65535/49712658571_0c6741ea1d_n.jpg",
    "id_album": "-1675918237",
    "description": "WomenWarrior_706920",
    "title": "WomenWarrior_706920",
    "link_img": "https://live.staticflickr.com/65535/49712658571_dcb2264d37_o.jpg",
    "id_image": "WomenWarrior_706920",
    "count_view": 0
  },
  {
    "link_thumb": "https://live.staticflickr.com/65535/49711597943_7bb0c84a8b_n.jpg",
    "id_album": "-395228614",
    "description": "Ship_349142",
    "title": "Ship_349142",
    "link_img": "https://live.staticflickr.com/65535/49711597943_7e9764d65f_o.jpg",
    "id_image": "Ship_349142",
    "count_view": 0
  },
  {
    "link_thumb": "https://live.staticflickr.com/65535/49711201917_c6ae1c4061_n.jpg",
    "id_album": "-1000175186",
    "description": "AngelWarrior_280846",
    "title": "AngelWarrior_280846",
    "link_img": "https://live.staticflickr.com/65535/49711201917_3757b23591_o.jpg",
    "id_image": "AngelWarrior_280846",
    "count_view": 0
  },
  {
    "link_thumb": "https://live.staticflickr.com/65535/49712524522_18a35be476_n.jpg",
    "id_album": "-1261420436",
    "description": "Warrior_249374",
    "title": "Warrior_249374",
    "link_img": "https://live.staticflickr.com/65535/49712524522_7e9f0e4dc7_o.jpg",
    "id_image": "Warrior_249374",
    "count_view": 0
  },
  {
    "link_thumb": "https://live.staticflickr.com/65535/49711226617_d6eeed52b3_n.jpg",
    "id_album": "-1913845949",
    "description": "Animal_512019",
    "title": "Animal_512019",
    "link_img": "https://live.staticflickr.com/65535/49711226617_86decfff1d_o.jpg",
    "id_image": "Animal_512019",
    "count_view": 0
  },
  {
    "link_thumb": "https://live.staticflickr.com/65535/49712314252_11c6559d1f_n.jpg",
    "id_album": "1006968559",
    "description": "LordoftheRings_858373",
    "title": "LordoftheRings_858373",
    "link_img": "https://live.staticflickr.com/65535/49712314252_d4891df9bd_o.jpg",
    "id_image": "LordoftheRings_858373",
    "count_view": 0
  },
  {
    "link_thumb": "https://live.staticflickr.com/65535/49711183512_e46998d4e5_n.jpg",
    "id_album": "-2109465612",
    "description": "Adventure_229241",
    "title": "Adventure_229241",
    "link_img": "https://live.staticflickr.com/65535/49711183512_692d26bcfd_o.jpg",
    "id_image": "Adventure_229241",
    "count_view": 0
  },
  {
    "link_thumb": "https://live.staticflickr.com/65535/49713021247_f0af99d9f1_n.jpg",
    "id_album": "-1675918237",
    "description": "WomenWarrior_900221",
    "title": "WomenWarrior_900221",
    "link_img": "https://live.staticflickr.com/65535/49713021247_4dd2498271_o.jpg",
    "id_image": "WomenWarrior_900221",
    "count_view": 0
  },
  {
    "link_thumb": "https://live.staticflickr.com/65535/49711850078_51919df51c_n.jpg",
    "id_album": "295204930",
    "description": "Women_372385",
    "title": "Women_372385",
    "link_img": "https://live.staticflickr.com/65535/49711850078_660c958bd0_o.jpg",
    "id_image": "Women_372385",
    "count_view": 0
  },
  {
    "link_thumb": "https://live.staticflickr.com/65535/49710970783_71f9ac1cd6_n.jpg",
    "id_album": "850176884",
    "description": "Dragon_692312",
    "title": "Dragon_692312",
    "link_img": "https://live.staticflickr.com/65535/49710970783_c32d274fb6_o.jpg",
    "id_image": "Dragon_692312",
    "count_view": 0
  },
  {
    "link_thumb": "https://live.staticflickr.com/65535/49710415368_6196f0c08f_n.jpg",
    "id_album": "523598895",
    "description": "Artistic_181481",
    "title": "Artistic_181481",
    "link_img": "https://live.staticflickr.com/65535/49710415368_d6cc709376_o.jpg",
    "id_image": "Artistic_181481",
    "count_view": 0
  },
  {
    "link_thumb": "https://live.staticflickr.com/65535/49712110736_9342e7bf8f_n.jpg",
    "id_album": "-1611961467",
    "description": "Samurai_774250",
    "title": "Samurai_774250",
    "link_img": "https://live.staticflickr.com/65535/49712110736_c8ac8238ce_o.jpg",
    "id_image": "Samurai_774250",
    "count_view": 0
  },
  {
    "link_thumb": "https://live.staticflickr.com/65535/49711789702_dfcfddee97_n.jpg",
    "id_album": "850176884",
    "description": "Dragon_517931",
    "title": "Dragon_517931",
    "link_img": "https://live.staticflickr.com/65535/49711789702_5560f16aec_o.jpg",
    "id_image": "Dragon_517931",
    "count_view": 0
  },
  {
    "link_thumb": "https://live.staticflickr.com/65535/49711337351_50f4a97669_n.jpg",
    "id_album": "7198985",
    "description": "Demon_582392",
    "title": "Demon_582392",
    "link_img": "https://live.staticflickr.com/65535/49711337351_d2fec56848_o.jpg",
    "id_image": "Demon_582392",
    "count_view": 0
  },
  {
    "link_thumb": "https://live.staticflickr.com/65535/49711294081_4fb4b8b4a0_n.jpg",
    "id_album": "-437872736",
    "description": "Creature_958896",
    "title": "Creature_958896",
    "link_img": "https://live.staticflickr.com/65535/49711294081_d34f0ee7a1_o.jpg",
    "id_image": "Creature_958896",
    "count_view": 0
  },
  {
    "link_thumb": "https://live.staticflickr.com/65535/49711602916_c519b7a496_n.jpg",
    "id_album": "134100487",
    "description": "Elf_157156",
    "title": "Elf_157156",
    "link_img": "https://live.staticflickr.com/65535/49711602916_d5c3685d92_o.jpg",
    "id_image": "Elf_157156",
    "count_view": 0
  },
  {
    "link_thumb": "https://live.staticflickr.com/65535/49711712163_5566c9a9c4_n.jpg",
    "id_album": "1173975892",
    "description": "Werewolf_603823",
    "title": "Werewolf_603823",
    "link_img": "https://live.staticflickr.com/65535/49711712163_2be4b8d51e_o.jpg",
    "id_image": "Werewolf_603823",
    "count_view": 0
  },
  {
    "link_thumb": "https://live.staticflickr.com/65535/49711541628_1dbd32cc19_n.jpg",
    "id_album": "-1326601535",
    "description": "Phoenix_729093",
    "title": "Phoenix_729093",
    "link_img": "https://live.staticflickr.com/65535/49711541628_209e8976d6_o.jpg",
    "id_image": "Phoenix_729093",
    "count_view": 0
  },
  {
    "link_thumb": "https://live.staticflickr.com/65535/49711807206_d971a3708d_n.jpg",
    "id_album": "1402713104",
    "description": "Landscape_708765",
    "title": "Landscape_708765",
    "link_img": "https://live.staticflickr.com/65535/49711807206_930d5af0c9_o.jpg",
    "id_image": "Landscape_708765",
    "count_view": 0
  },
  {
    "link_thumb": "https://live.staticflickr.com/65535/49711108061_1e71596716_n.jpg",
    "id_album": "-1964113117",
    "description": "City_586383",
    "title": "City_586383",
    "link_img": "https://live.staticflickr.com/65535/49711108061_b8f0ef5c38_o.jpg",
    "id_image": "City_586383",
    "count_view": 0
  },
  {
    "link_thumb": "https://live.staticflickr.com/65535/49711243991_eb33c37ee1_n.jpg",
    "id_album": "-437872736",
    "description": "Creature_519637",
    "title": "Creature_519637",
    "link_img": "https://live.staticflickr.com/65535/49711243991_00813b2df1_o.jpg",
    "id_image": "Creature_519637",
    "count_view": 0
  },
  {
    "link_thumb": "https://live.staticflickr.com/65535/49711657661_83111ce214_n.jpg",
    "id_album": "-1972042284",
    "description": "Fairy_331798",
    "title": "Fairy_331798",
    "link_img": "https://live.staticflickr.com/65535/49711657661_04620ff470_o.jpg",
    "id_image": "Fairy_331798",
    "count_view": 0
  },
  {
    "link_thumb": "https://live.staticflickr.com/65535/49710937201_1e5c0f61d9_n.jpg",
    "id_album": "523598895",
    "description": "Artistic_114879",
    "title": "Artistic_114879",
    "link_img": "https://live.staticflickr.com/65535/49710937201_df4ea90237_o.jpg",
    "id_image": "Artistic_114879",
    "count_view": 0
  },
  {
    "link_thumb": "https://live.staticflickr.com/65535/49712622492_3339932dcc_n.jpg",
    "id_album": "-709711865",
    "description": "Wolf_989258",
    "title": "Wolf_989258",
    "link_img": "https://live.staticflickr.com/65535/49712622492_e8bdf377c4_o.jpg",
    "id_image": "Wolf_989258",
    "count_view": 0
  },
  {
    "link_thumb": "https://live.staticflickr.com/65535/49711437582_2b3c0c9f37_n.jpg",
    "id_album": "-1964113117",
    "description": "City_699815",
    "title": "City_699815",
    "link_img": "https://live.staticflickr.com/65535/49711437582_e4dff7c8aa_o.jpg",
    "id_image": "City_699815",
    "count_view": 0
  },
  {
    "link_thumb": "https://live.staticflickr.com/65535/49711479328_f0078d0ab1_n.jpg",
    "id_album": "-222719689",
    "description": "Men_261262",
    "title": "Men_261262",
    "link_img": "https://live.staticflickr.com/65535/49711479328_2cdd6e41de_o.jpg",
    "id_image": "Men_261262",
    "count_view": 0
  },
  {
    "link_thumb": "https://live.staticflickr.com/65535/49711511013_cf283d663f_n.jpg",
    "id_album": "1892085513",
    "description": "Oriental_702574",
    "title": "Oriental_702574",
    "link_img": "https://live.staticflickr.com/65535/49711511013_4b1d2bac29_o.jpg",
    "id_image": "Oriental_702574",
    "count_view": 0
  },
  {
    "link_thumb": "https://live.staticflickr.com/65535/49712268951_8c503768f7_n.jpg",
    "id_album": "-656526651",
    "description": "Wizard_955763",
    "title": "Wizard_955763",
    "link_img": "https://live.staticflickr.com/65535/49712268951_10d66a5282_o.jpg",
    "id_image": "Wizard_955763",
    "count_view": 0
  },
  {
    "link_thumb": "https://live.staticflickr.com/65535/49799132112_6e094beef6_n.jpg",
    "id_album": "-1703946758",
    "description": "ANIME_PIC_726db04f5325b6545d1af0d788b0016d",
    "title": "ANIME_PIC_726db04f5325b6545d1af0d788b0016d",
    "link_img": "https://live.staticflickr.com/65535/49799132112_e29955b481_o.jpg",
    "id_image": "ANIME_PIC_726db04f5325b6545d1af0d788b0016d",
    "count_view": 0
  },
  {
    "link_thumb": "https://live.staticflickr.com/65535/49710797943_5ec0d68a31_n.jpg",
    "id_album": "7198985",
    "description": "Demon_183965",
    "title": "Demon_183965",
    "link_img": "https://live.staticflickr.com/65535/49710797943_58d57d6076_o.jpg",
    "id_image": "Demon_183965",
    "count_view": 0
  },
  {
    "link_thumb": "https://live.staticflickr.com/65535/49710957381_4098df1d4a_n.jpg",
    "id_album": "523598895",
    "description": "Artistic_252187",
    "title": "Artistic_252187",
    "link_img": "https://live.staticflickr.com/65535/49710957381_eb48b31e31_o.jpg",
    "id_image": "Artistic_252187",
    "count_view": 0
  },
  {
    "link_thumb": "https://live.staticflickr.com/65535/49711932472_d8b6b4b46f_n.jpg",
    "id_album": "134100487",
    "description": "Elf_342576",
    "title": "Elf_342576",
    "link_img": "https://live.staticflickr.com/65535/49711932472_2978580eed_o.jpg",
    "id_image": "Elf_342576",
    "count_view": 0
  },
  {
    "link_thumb": "https://live.staticflickr.com/65535/49712101141_82cabb5f5b_n.jpg",
    "id_album": "1223576123",
    "description": "Ruin_98091",
    "title": "Ruin_98091",
    "link_img": "https://live.staticflickr.com/65535/49712101141_34dae86799_o.jpg",
    "id_image": "Ruin_98091",
    "count_view": 0
  },
  {
    "link_thumb": "https://live.staticflickr.com/65535/49710978593_c89ac733d9_n.jpg",
    "id_album": "850176884",
    "description": "Dragon_720136",
    "title": "Dragon_720136",
    "link_img": "https://live.staticflickr.com/65535/49710978593_2617da6f7b_o.jpg",
    "id_image": "Dragon_720136",
    "count_view": 0
  },
  {
    "link_thumb": "https://live.staticflickr.com/65535/49710720543_9f8d617db6_n.jpg",
    "id_album": "-437872736",
    "description": "Creature_670629",
    "title": "Creature_670629",
    "link_img": "https://live.staticflickr.com/65535/49710720543_c54bbb0308_o.jpg",
    "id_image": "Creature_670629",
    "count_view": 0
  },
  {
    "link_thumb": "https://live.staticflickr.com/65535/49711352732_844dc6556c_n.jpg",
    "id_album": "406431601",
    "description": "Building_949912",
    "title": "Building_949912",
    "link_img": "https://live.staticflickr.com/65535/49711352732_eb9d2d8714_o.jpg",
    "id_image": "Building_949912",
    "count_view": 0
  },
  {
    "link_thumb": "https://live.staticflickr.com/65535/49711844857_d9e44735c4_n.jpg",
    "id_album": "850176884",
    "description": "Dragon_779243",
    "title": "Dragon_779243",
    "link_img": "https://live.staticflickr.com/65535/49711844857_229dfd1e73_o.jpg",
    "id_image": "Dragon_779243",
    "count_view": 0
  },
  {
    "link_thumb": "https://live.staticflickr.com/65535/49711608373_bee9eb1fce_n.jpg",
    "id_album": "-5356651",
    "description": "Sorcerer_530751",
    "title": "Sorcerer_530751",
    "link_img": "https://live.staticflickr.com/65535/49711608373_7dd3ff5138_o.jpg",
    "id_image": "Sorcerer_530751",
    "count_view": 0
  },
  {
    "link_thumb": "https://live.staticflickr.com/65535/49710925173_b96674434b_n.jpg",
    "id_album": "850176884",
    "description": "Dragon_491440",
    "title": "Dragon_491440",
    "link_img": "https://live.staticflickr.com/65535/49710925173_d883f6600e_o.jpg",
    "id_image": "Dragon_491440",
    "count_view": 0
  },
  {
    "link_thumb": "https://live.staticflickr.com/65535/49710990811_285f5e9620_n.jpg",
    "id_album": "1187037014",
    "description": "Battle_294007",
    "title": "Battle_294007",
    "link_img": "https://live.staticflickr.com/65535/49710990811_c608a7488e_o.jpg",
    "id_image": "Battle_294007",
    "count_view": 0
  },
  {
    "link_thumb": "https://live.staticflickr.com/65535/49712293381_a44561674e_n.jpg",
    "id_album": "-709711865",
    "description": "Wolf_881752",
    "title": "Wolf_881752",
    "link_img": "https://live.staticflickr.com/65535/49712293381_42db3de84c_o.jpg",
    "id_image": "Wolf_881752",
    "count_view": 0
  },
  {
    "link_thumb": "https://live.staticflickr.com/65535/49711099298_d55ddaa59a_n.jpg",
    "id_album": "134100487",
    "description": "Elf_777997",
    "title": "Elf_777997",
    "link_img": "https://live.staticflickr.com/65535/49711099298_3dfde72fe9_o.jpg",
    "id_image": "Elf_777997",
    "count_view": 0
  },
  {
    "link_thumb": "https://live.staticflickr.com/65535/49711653827_631c29c6a6_n.jpg",
    "id_album": "1903411565",
    "description": "Deer_913004",
    "title": "Deer_913004",
    "link_img": "https://live.staticflickr.com/65535/49711653827_f57f640041_o.jpg",
    "id_image": "Deer_913004",
    "count_view": 0
  },
  {
    "link_thumb": "https://live.staticflickr.com/65535/49711514408_9f4afeb64e_n.jpg",
    "id_album": "1892085513",
    "description": "Oriental_941726",
    "title": "Oriental_941726",
    "link_img": "https://live.staticflickr.com/65535/49711514408_f56daaa87b_o.jpg",
    "id_image": "Oriental_941726",
    "count_view": 0
  },
  {
    "link_thumb": "https://live.staticflickr.com/65535/49711707027_b3b5465774_n.jpg",
    "id_album": "850176884",
    "description": "Dragon_204163",
    "title": "Dragon_204163",
    "link_img": "https://live.staticflickr.com/65535/49711707027_e186c9a0d6_o.jpg",
    "id_image": "Dragon_204163",
    "count_view": 0
  },
  {
    "link_thumb": "https://live.staticflickr.com/65535/49711755187_9140f5b796_n.jpg",
    "id_album": "850176884",
    "description": "Dragon_371619",
    "title": "Dragon_371619",
    "link_img": "https://live.staticflickr.com/65535/49711755187_8c452c2842_o.jpg",
    "id_image": "Dragon_371619",
    "count_view": 0
  },
  {
    "link_thumb": "https://live.staticflickr.com/65535/49711223972_020cf91dd4_n.jpg",
    "id_album": "-1913845949",
    "description": "Animal_332012",
    "title": "Animal_332012",
    "link_img": "https://live.staticflickr.com/65535/49711223972_8e2b085a28_o.jpg",
    "id_image": "Animal_332012",
    "count_view": 0
  },
  {
    "link_thumb": "https://live.staticflickr.com/65535/49710357858_d18082d13d_n.jpg",
    "id_album": "-1000175186",
    "description": "AngelWarrior_993604",
    "title": "AngelWarrior_993604",
    "link_img": "https://live.staticflickr.com/65535/49710357858_3e47d892e6_o.jpg",
    "id_image": "AngelWarrior_993604",
    "count_view": 0
  },
  {
    "link_thumb": "https://live.staticflickr.com/65535/49710381203_c67a292a80_n.jpg",
    "id_album": "-1913845949",
    "description": "Animal_700945",
    "title": "Animal_700945",
    "link_img": "https://live.staticflickr.com/65535/49710381203_253d542c92_o.jpg",
    "id_image": "Animal_700945",
    "count_view": 0
  },
  {
    "link_thumb": "https://live.staticflickr.com/65535/49711617201_108b708362_n.jpg",
    "id_album": "134100487",
    "description": "Elf_508560",
    "title": "Elf_508560",
    "link_img": "https://live.staticflickr.com/65535/49711617201_2a6c7b0b72_o.jpg",
    "id_image": "Elf_508560",
    "count_view": 0
  },
  {
    "link_thumb": "https://live.staticflickr.com/65535/49712366607_0a02d2e928_n.jpg",
    "id_album": "1892085513",
    "description": "Oriental_319554",
    "title": "Oriental_319554",
    "link_img": "https://live.staticflickr.com/65535/49712366607_2c7189eb92_o.jpg",
    "id_image": "Oriental_319554",
    "count_view": 0
  },
  {
    "link_thumb": "https://live.staticflickr.com/65535/49711238831_1ae86280de_n.jpg",
    "id_album": "-437872736",
    "description": "Creature_511077",
    "title": "Creature_511077",
    "link_img": "https://live.staticflickr.com/65535/49711238831_1cfe4fa178_o.jpg",
    "id_image": "Creature_511077",
    "count_view": 0
  },
  {
    "link_thumb": "https://live.staticflickr.com/65535/49711037743_dd0f05664b_n.jpg",
    "id_album": "850176884",
    "description": "Dragon_937796",
    "title": "Dragon_937796",
    "link_img": "https://live.staticflickr.com/65535/49711037743_518affabb6_o.jpg",
    "id_image": "Dragon_937796",
    "count_view": 0
  },
  {
    "link_thumb": "https://live.staticflickr.com/65535/49710456733_887c9da5f8_n.jpg",
    "id_album": "1187037014",
    "description": "Battle_291932",
    "title": "Battle_291932",
    "link_img": "https://live.staticflickr.com/65535/49710456733_edf9f90b51_o.jpg",
    "id_image": "Battle_291932",
    "count_view": 0
  },
  {
    "link_thumb": "https://live.staticflickr.com/65535/49711196667_9e6569c80b_n.jpg",
    "id_album": "-956471126",
    "description": "AliceInWonderland_865621",
    "title": "AliceInWonderland_865621",
    "link_img": "https://live.staticflickr.com/65535/49711196667_177411db6b_o.jpg",
    "id_image": "AliceInWonderland_865621",
    "count_view": 0
  },
  {
    "link_thumb": "https://live.staticflickr.com/65535/49711839991_f03055614a_n.jpg",
    "id_album": "1402713104",
    "description": "Landscape_867415",
    "title": "Landscape_867415",
    "link_img": "https://live.staticflickr.com/65535/49711839991_847bb9577f_o.jpg",
    "id_image": "Landscape_867415",
    "count_view": 0
  },
  {
    "link_thumb": "https://live.staticflickr.com/65535/49711493612_dda344defd_n.jpg",
    "id_album": "-437872736",
    "description": "Creature_261244",
    "title": "Creature_261244",
    "link_img": "https://live.staticflickr.com/65535/49711493612_5eb3266bd7_o.jpg",
    "id_image": "Creature_261244",
    "count_view": 0
  },
  {
    "link_thumb": "https://live.staticflickr.com/65535/49712070367_1868bcaeea_n.jpg",
    "id_album": "1131236559",
    "description": "Gods_764563",
    "title": "Gods_764563",
    "link_img": "https://live.staticflickr.com/65535/49712070367_7d33d2bebc_o.jpg",
    "id_image": "Gods_764563",
    "count_view": 0
  },
  {
    "link_thumb": "https://live.staticflickr.com/65535/49712694502_143b2d28be_n.jpg",
    "id_album": "295204930",
    "description": "Women_280081",
    "title": "Women_280081",
    "link_img": "https://live.staticflickr.com/65535/49712694502_93fb0861b9_o.jpg",
    "id_image": "Women_280081",
    "count_view": 0
  },
  {
    "link_thumb": "https://live.staticflickr.com/65535/49712201541_f898ec7de7_n.jpg",
    "id_album": "-1261420436",
    "description": "Warrior_225450",
    "title": "Warrior_225450",
    "link_img": "https://live.staticflickr.com/65535/49712201541_b89a58f2a3_o.jpg",
    "id_image": "Warrior_225450",
    "count_view": 0
  },
  {
    "link_thumb": "https://live.staticflickr.com/65535/49711406686_0254fb1a51_n.jpg",
    "id_album": "850176884",
    "description": "Dragon_270135",
    "title": "Dragon_270135",
    "link_img": "https://live.staticflickr.com/65535/49711406686_3d94e75fed_o.jpg",
    "id_image": "Dragon_270135",
    "count_view": 0
  },
  {
    "link_thumb": "https://live.staticflickr.com/65535/49711548408_eff641feae_n.jpg",
    "id_album": "1587588550",
    "description": "Place_218930",
    "title": "Place_218930",
    "link_img": "https://live.staticflickr.com/65535/49711548408_2c7a8dc292_o.jpg",
    "id_image": "Place_218930",
    "count_view": 0
  },
  {
    "link_thumb": "https://live.staticflickr.com/65535/49712012981_d27d43a6a4_n.jpg",
    "id_album": "-222719689",
    "description": "Men_100057",
    "title": "Men_100057",
    "link_img": "https://live.staticflickr.com/65535/49712012981_2c52033052_o.jpg",
    "id_image": "Men_100057",
    "count_view": 0
  },
  {
    "link_thumb": "https://live.staticflickr.com/65535/49712176991_385cbb010f_n.jpg",
    "id_album": "431597977",
    "description": "Unicorn_229679",
    "title": "Unicorn_229679",
    "link_img": "https://live.staticflickr.com/65535/49712176991_ce73409591_o.jpg",
    "id_image": "Unicorn_229679",
    "count_view": 0
  },
  {
    "link_thumb": "https://live.staticflickr.com/65535/49711191762_b1723523b6_n.jpg",
    "id_album": "-2109465612",
    "description": "Adventure_353142",
    "title": "Adventure_353142",
    "link_img": "https://live.staticflickr.com/65535/49711191762_e8fc6bb734_o.jpg",
    "id_image": "Adventure_353142",
    "count_view": 0
  },
  {
    "link_thumb": "https://live.staticflickr.com/65535/49711133336_0a307e4da0_n.jpg",
    "id_album": "-1964113117",
    "description": "City_952791",
    "title": "City_952791",
    "link_img": "https://live.staticflickr.com/65535/49711133336_b6fa90f393_o.jpg",
    "id_image": "City_952791",
    "count_view": 0
  },
  {
    "link_thumb": "https://live.staticflickr.com/65535/49712392257_71ddd39638_n.jpg",
    "id_album": "-1326601535",
    "description": "Phoenix_191606",
    "title": "Phoenix_191606",
    "link_img": "https://live.staticflickr.com/65535/49712392257_599baf549f_o.jpg",
    "id_image": "Phoenix_191606",
    "count_view": 0
  },
  {
    "link_thumb": "https://live.staticflickr.com/65535/49711756838_2c816f6625_n.jpg",
    "id_album": "-709711865",
    "description": "Wolf_844166",
    "title": "Wolf_844166",
    "link_img": "https://live.staticflickr.com/65535/49711756838_bb1a2ed61c_o.jpg",
    "id_image": "Wolf_844166",
    "count_view": 0
  },
  {
    "link_thumb": "https://live.staticflickr.com/65535/49711974036_79407f3275_n.jpg",
    "id_album": "-833110404",
    "description": "Landscape_85089",
    "title": "Landscape_85089",
    "link_img": "https://live.staticflickr.com/65535/49711974036_827ca9b39c_o.jpg",
    "id_image": "Landscape_85089",
    "count_view": 0
  },
  {
    "link_thumb": "https://live.staticflickr.com/65535/49711031266_ced1aed5a9_n.jpg",
    "id_album": "-1541846310",
    "description": "Castle_121897",
    "title": "Castle_121897",
    "link_img": "https://live.staticflickr.com/65535/49711031266_5a433460a9_o.jpg",
    "id_image": "Castle_121897",
    "count_view": 0
  },
  {
    "link_thumb": "https://live.staticflickr.com/65535/49712477042_71f187306c_n.jpg",
    "id_album": "1186644325",
    "description": "Tattoo_489370",
    "title": "Tattoo_489370",
    "link_img": "https://live.staticflickr.com/65535/49712477042_fe0655ccdd_o.jpg",
    "id_image": "Tattoo_489370",
    "count_view": 0
  },
  {
    "link_thumb": "https://live.staticflickr.com/65535/49711747492_5b5009e336_n.jpg",
    "id_album": "850176884",
    "description": "Dragon_331874",
    "title": "Dragon_331874",
    "link_img": "https://live.staticflickr.com/65535/49711747492_981f9e10a6_o.jpg",
    "id_image": "Dragon_331874",
    "count_view": 0
  },
  {
    "link_thumb": "https://live.staticflickr.com/65535/49712489212_479a532af6_n.jpg",
    "id_album": "405170427",
    "description": "Tiger_884139",
    "title": "Tiger_884139",
    "link_img": "https://live.staticflickr.com/65535/49712489212_9cc639369a_o.jpg",
    "id_image": "Tiger_884139",
    "count_view": 0
  },
  {
    "link_thumb": "https://live.staticflickr.com/65535/49712007723_d1886888c2_n.jpg",
    "id_album": "-867594484",
    "description": "Women_694673",
    "title": "Women_694673",
    "link_img": "https://live.staticflickr.com/65535/49712007723_1ec25f3b50_o.jpg",
    "id_image": "Women_694673",
    "count_view": 0
  },
  {
    "link_thumb": "https://live.staticflickr.com/65535/49710605828_9bf810c49e_n.jpg",
    "id_album": "-437872736",
    "description": "Creature_130057",
    "title": "Creature_130057",
    "link_img": "https://live.staticflickr.com/65535/49710605828_d6ecd38d4f_o.jpg",
    "id_image": "Creature_130057",
    "count_view": 0
  },
  {
    "link_thumb": "https://live.staticflickr.com/65535/49711040098_a95ded388d_n.jpg",
    "id_album": "850176884",
    "description": "Dragon_945748",
    "title": "Dragon_945748",
    "link_img": "https://live.staticflickr.com/65535/49711040098_4ea45f2e66_o.jpg",
    "id_image": "Dragon_945748",
    "count_view": 0
  },
  {
    "link_thumb": "https://live.staticflickr.com/65535/49712069161_2141028e8f_n.jpg",
    "id_album": "-1326601535",
    "description": "Phoenix_105314",
    "title": "Phoenix_105314",
    "link_img": "https://live.staticflickr.com/65535/49712069161_7e5498b68f_o.jpg",
    "id_image": "Phoenix_105314",
    "count_view": 0
  },
  {
    "link_thumb": "https://live.staticflickr.com/65535/49711854741_55703e5c89_n.jpg",
    "id_album": "1402713104",
    "description": "Landscape_910931",
    "title": "Landscape_910931",
    "link_img": "https://live.staticflickr.com/65535/49711854741_53f6ced717_o.jpg",
    "id_image": "Landscape_910931",
    "count_view": 0
  },
  {
    "link_thumb": "https://live.staticflickr.com/65535/49710880321_a64726fc5b_n.jpg",
    "id_album": "-1000175186",
    "description": "AngelWarrior_486417",
    "title": "AngelWarrior_486417",
    "link_img": "https://live.staticflickr.com/65535/49710880321_57df9dc89b_o.jpg",
    "id_image": "AngelWarrior_486417",
    "count_view": 0
  },
  {
    "link_thumb": "https://live.staticflickr.com/65535/49711378187_6bbf58e9ca_n.jpg",
    "id_album": "-1541846310",
    "description": "Castle_704646",
    "title": "Castle_704646",
    "link_img": "https://live.staticflickr.com/65535/49711378187_072be12351_o.jpg",
    "id_image": "Castle_704646",
    "count_view": 0
  },
  {
    "link_thumb": "https://live.staticflickr.com/65535/49711759352_e7ce46294a_n.jpg",
    "id_album": "850176884",
    "description": "Dragon_386168",
    "title": "Dragon_386168",
    "link_img": "https://live.staticflickr.com/65535/49711759352_18bca411e7_o.jpg",
    "id_image": "Dragon_386168",
    "count_view": 0
  },
  {
    "link_thumb": "https://live.staticflickr.com/65535/49711441256_bf9e8154bf_n.jpg",
    "id_album": "850176884",
    "description": "Dragon_402984",
    "title": "Dragon_402984",
    "link_img": "https://live.staticflickr.com/65535/49711441256_e6e465f812_o.jpg",
    "id_image": "Dragon_402984",
    "count_view": 0
  },
  {
    "link_thumb": "https://live.staticflickr.com/65535/49711516217_5bcca48f5c_n.jpg",
    "id_album": "-437872736",
    "description": "Creature_316150",
    "title": "Creature_316150",
    "link_img": "https://live.staticflickr.com/65535/49711516217_342fcfb0bd_o.jpg",
    "id_image": "Creature_316150",
    "count_view": 0
  },
  {
    "link_thumb": "https://live.staticflickr.com/65535/49712177282_dbd4108977_n.jpg",
    "id_album": "1402713104",
    "description": "Landscape_906148",
    "title": "Landscape_906148",
    "link_img": "https://live.staticflickr.com/65535/49712177282_b582d8fbcb_o.jpg",
    "id_image": "Landscape_906148",
    "count_view": 0
  },
  {
    "link_thumb": "https://live.staticflickr.com/65535/49710401548_682932ffa9_n.jpg",
    "id_album": "-1560111795",
    "description": "Archer_845408",
    "title": "Archer_845408",
    "link_img": "https://live.staticflickr.com/65535/49710401548_7a5bd3735c_o.jpg",
    "id_image": "Archer_845408",
    "count_view": 0
  },
  {
    "link_thumb": "https://live.staticflickr.com/65535/49711442358_8b9a3bd413_n.jpg",
    "id_album": "-1284959130",
    "description": "LegendOfTheFiveRings_550175",
    "title": "LegendOfTheFiveRings_550175",
    "link_img": "https://live.staticflickr.com/65535/49711442358_978d2329bd_o.jpg",
    "id_image": "LegendOfTheFiveRings_550175",
    "count_view": 0
  },
  {
    "link_thumb": "https://live.staticflickr.com/65535/49712845812_7721c07f91_n.jpg",
    "id_album": "-867594484",
    "description": "Women_618462",
    "title": "Women_618462",
    "link_img": "https://live.staticflickr.com/65535/49712845812_a66d2f505f_o.jpg",
    "id_image": "Women_618462",
    "count_view": 0
  },
  {
    "link_thumb": "https://live.staticflickr.com/65535/49710950358_70bd06e899_n.jpg",
    "id_album": "850176884",
    "description": "Dragon_582406",
    "title": "Dragon_582406",
    "link_img": "https://live.staticflickr.com/65535/49710950358_1530095beb_o.jpg",
    "id_image": "Dragon_582406",
    "count_view": 0
  },
  {
    "link_thumb": "https://live.staticflickr.com/65535/49710965146_e2718965a4_n.jpg",
    "id_album": "523598895",
    "description": "Artistic_387771",
    "title": "Artistic_387771",
    "link_img": "https://live.staticflickr.com/65535/49710965146_9375ebdd25_o.jpg",
    "id_image": "Artistic_387771",
    "count_view": 0
  },
  {
    "link_thumb": "https://live.staticflickr.com/65535/49711209086_e06e9187c2_n.jpg",
    "id_album": "-437872736",
    "description": "Creature_342054",
    "title": "Creature_342054",
    "link_img": "https://live.staticflickr.com/65535/49711209086_6be16c8154_o.jpg",
    "id_image": "Creature_342054",
    "count_view": 0
  },
  {
    "link_thumb": "https://live.staticflickr.com/65535/49711586603_1456e5a73c_n.jpg",
    "id_album": "407101116",
    "description": "SeaMonster_379188",
    "title": "SeaMonster_379188",
    "link_img": "https://live.staticflickr.com/65535/49711586603_c71ea4869b_o.jpg",
    "id_image": "SeaMonster_379188",
    "count_view": 0
  },
  {
    "link_thumb": "https://live.staticflickr.com/65535/49711879567_362fe6af5f_n.jpg",
    "id_album": "850176884",
    "description": "Dragon_907565",
    "title": "Dragon_907565",
    "link_img": "https://live.staticflickr.com/65535/49711879567_4c105f79bf_o.jpg",
    "id_image": "Dragon_907565",
    "count_view": 0
  },
  {
    "link_thumb": "https://live.staticflickr.com/65535/49711884783_fae4fcef36_n.jpg",
    "id_album": "295204930",
    "description": "Women_736394",
    "title": "Women_736394",
    "link_img": "https://live.staticflickr.com/65535/49711884783_e2c657b3d3_o.jpg",
    "id_image": "Women_736394",
    "count_view": 0
  },
  {
    "link_thumb": "https://live.staticflickr.com/65535/49711545196_d786eb5010_n.jpg",
    "id_album": "850176884",
    "description": "Dragon_873495",
    "title": "Dragon_873495",
    "link_img": "https://live.staticflickr.com/65535/49711545196_44957d0a46_o.jpg",
    "id_image": "Dragon_873495",
    "count_view": 0
  },
  {
    "link_thumb": "https://live.staticflickr.com/65535/49711652561_2329ebdf96_n.jpg",
    "id_album": "-1972042284",
    "description": "Fairy_270972",
    "title": "Fairy_270972",
    "link_img": "https://live.staticflickr.com/65535/49711652561_fb53e27529_o.jpg",
    "id_image": "Fairy_270972",
    "count_view": 0
  },
  {
    "link_thumb": "https://live.staticflickr.com/65535/49710756083_e00c20292f_n.jpg",
    "id_album": "-437872736",
    "description": "Creature_958879",
    "title": "Creature_958879",
    "link_img": "https://live.staticflickr.com/65535/49710756083_1ea915aae0_o.jpg",
    "id_image": "Creature_958879",
    "count_view": 0
  },
  {
    "link_thumb": "https://live.staticflickr.com/65535/49711340166_792d196fee_n.jpg",
    "id_album": "7198985",
    "description": "Demon_697651",
    "title": "Demon_697651",
    "link_img": "https://live.staticflickr.com/65535/49711340166_ef2983863f_o.jpg",
    "id_image": "Demon_697651",
    "count_view": 0
  },
  {
    "link_thumb": "https://live.staticflickr.com/65535/49711500133_d59a16a949_n.jpg",
    "id_album": "1892085513",
    "description": "Oriental_214545",
    "title": "Oriental_214545",
    "link_img": "https://live.staticflickr.com/65535/49711500133_685d06dbb1_o.jpg",
    "id_image": "Oriental_214545",
    "count_view": 0
  },
  {
    "link_thumb": "https://live.staticflickr.com/65535/49711954263_783b5f285f_n.jpg",
    "id_album": "-867594484",
    "description": "Women_509503",
    "title": "Women_509503",
    "link_img": "https://live.staticflickr.com/65535/49711954263_5be70195c5_o.jpg",
    "id_image": "Women_509503",
    "count_view": 0
  },
  {
    "link_thumb": "https://live.staticflickr.com/65535/49710877478_d03c2bdbb5_n.jpg",
    "id_album": "850176884",
    "description": "Dragon_302381",
    "title": "Dragon_302381",
    "link_img": "https://live.staticflickr.com/65535/49710877478_29dbb2946f_o.jpg",
    "id_image": "Dragon_302381",
    "count_view": 0
  },
  {
    "link_thumb": "https://live.staticflickr.com/65535/49711395282_33f46f0376_n.jpg",
    "id_album": "-1741487325",
    "description": "Cat_702642",
    "title": "Cat_702642",
    "link_img": "https://live.staticflickr.com/65535/49711395282_078f7c9e4a_o.jpg",
    "id_image": "Cat_702642",
    "count_view": 0
  },
  {
    "link_thumb": "https://live.staticflickr.com/65535/49710452728_0445a85a47_n.jpg",
    "id_album": "1187037014",
    "description": "Battle_238432",
    "title": "Battle_238432",
    "link_img": "https://live.staticflickr.com/65535/49710452728_6c02c5383b_o.jpg",
    "id_image": "Battle_238432",
    "count_view": 0
  },
  {
    "link_thumb": "https://live.staticflickr.com/65535/49710485553_361cfe207c_n.jpg",
    "id_album": "-1846011410",
    "description": "Bird_94731",
    "title": "Bird_94731",
    "link_img": "https://live.staticflickr.com/65535/49710485553_d4f478e373_o.jpg",
    "id_image": "Bird_94731",
    "count_view": 0
  },
  {
    "link_thumb": "https://live.staticflickr.com/65535/49711500757_11f0f2d5b4_n.jpg",
    "id_album": "-437872736",
    "description": "Creature_281785",
    "title": "Creature_281785",
    "link_img": "https://live.staticflickr.com/65535/49711500757_edf41853f8_o.jpg",
    "id_image": "Creature_281785",
    "count_view": 0
  },
  {
    "link_thumb": "https://live.staticflickr.com/65535/49712192767_90c3602dae_n.jpg",
    "id_album": "1402713104",
    "description": "Landscape_955942",
    "title": "Landscape_955942",
    "link_img": "https://live.staticflickr.com/65535/49712192767_c381e746c8_o.jpg",
    "id_image": "Landscape_955942",
    "count_view": 0
  },
  {
    "link_thumb": "https://live.staticflickr.com/65535/49711534233_1223078a46_n.jpg",
    "id_album": "-1326601535",
    "description": "Phoenix_307448",
    "title": "Phoenix_307448",
    "link_img": "https://live.staticflickr.com/65535/49711534233_aa539439f8_o.jpg",
    "id_image": "Phoenix_307448",
    "count_view": 0
  },
  {
    "link_thumb": "https://live.staticflickr.com/65535/49711764367_181fc6d4f8_n.jpg",
    "id_album": "850176884",
    "description": "Dragon_414703",
    "title": "Dragon_414703",
    "link_img": "https://live.staticflickr.com/65535/49711764367_b8193ea025_o.jpg",
    "id_image": "Dragon_414703",
    "count_view": 0
  },
  {
    "link_thumb": "https://live.staticflickr.com/65535/49711499362_b5cc50bdbe_n.jpg",
    "id_album": "-437872736",
    "description": "Creature_274045",
    "title": "Creature_274045",
    "link_img": "https://live.staticflickr.com/65535/49711499362_13709a7c5d_o.jpg",
    "id_image": "Creature_274045",
    "count_view": 0
  },
  {
    "link_thumb": "https://live.staticflickr.com/65535/49712203721_4cd9c98052_n.jpg",
    "id_album": "-1261420436",
    "description": "Warrior_258101",
    "title": "Warrior_258101",
    "link_img": "https://live.staticflickr.com/65535/49712203721_b5d1bf7298_o.jpg",
    "id_image": "Warrior_258101",
    "count_view": 0
  },
  {
    "link_thumb": "https://live.staticflickr.com/65535/49710652158_6d8c54d88b_n.jpg",
    "id_album": "-437872736",
    "description": "Creature_310657",
    "title": "Creature_310657",
    "link_img": "https://live.staticflickr.com/65535/49710652158_cf28e28917_o.jpg",
    "id_image": "Creature_310657",
    "count_view": 0
  },
  {
    "link_thumb": "https://live.staticflickr.com/65535/49711937266_551ac382a4_n.jpg",
    "id_album": "-833110404",
    "description": "Landscape_404690",
    "title": "Landscape_404690",
    "link_img": "https://live.staticflickr.com/65535/49711937266_ddf48f0f3d_o.jpg",
    "id_image": "Landscape_404690",
    "count_view": 0
  },
  {
    "link_thumb": "https://live.staticflickr.com/65535/49711242007_af0856453d_n.jpg",
    "id_album": "-1913845949",
    "description": "Animal_844163",
    "title": "Animal_844163",
    "link_img": "https://live.staticflickr.com/65535/49711242007_f86544943f_o.jpg",
    "id_image": "Animal_844163",
    "count_view": 0
  },
  {
    "link_thumb": "https://live.staticflickr.com/65535/49710736173_9ff0c7022f_n.jpg",
    "id_album": "-437872736",
    "description": "Creature_912999",
    "title": "Creature_912999",
    "link_img": "https://live.staticflickr.com/65535/49710736173_46071f1d5e_o.jpg",
    "id_image": "Creature_912999",
    "count_view": 0
  },
  {
    "link_thumb": "https://live.staticflickr.com/65535/49711791712_37776975ec_n.jpg",
    "id_album": "850176884",
    "description": "Dragon_521897",
    "title": "Dragon_521897",
    "link_img": "https://live.staticflickr.com/65535/49711791712_59c3da4581_o.jpg",
    "id_image": "Dragon_521897",
    "count_view": 0
  },
  {
    "link_thumb": "https://live.staticflickr.com/65535/49711683842_a3e3903f1b_n.jpg",
    "id_album": "850176884",
    "description": "Dragon_122297",
    "title": "Dragon_122297",
    "link_img": "https://live.staticflickr.com/65535/49711683842_edcf81a201_o.jpg",
    "id_image": "Dragon_122297",
    "count_view": 0
  },
  {
    "link_thumb": "https://live.staticflickr.com/65535/49711290026_5a35df7b3f_n.jpg",
    "id_album": "-437872736",
    "description": "Creature_958719",
    "title": "Creature_958719",
    "link_img": "https://live.staticflickr.com/65535/49711290026_9121ab4614_o.jpg",
    "id_image": "Creature_958719",
    "count_view": 0
  },
  {
    "link_thumb": "https://live.staticflickr.com/65535/49710493283_1cf162db20_n.jpg",
    "id_album": "406431601",
    "description": "Building_911856",
    "title": "Building_911856",
    "link_img": "https://live.staticflickr.com/65535/49710493283_17edab901d_o.jpg",
    "id_image": "Building_911856",
    "count_view": 0
  },
  {
    "link_thumb": "https://live.staticflickr.com/65535/49711670842_c97b9d1d64_n.jpg",
    "id_album": "850176884",
    "description": "DRAGON2610191649386",
    "title": "DRAGON2610191649386",
    "link_img": "https://live.staticflickr.com/65535/49711670842_92654e9fa3_o.jpg",
    "id_image": "DRAGON2610191649386",
    "count_view": 0
  },
  {
    "link_thumb": "https://live.staticflickr.com/65535/49712312897_864dc023b3_n.jpg",
    "id_album": "1006968559",
    "description": "LordoftheRings_528414",
    "title": "LordoftheRings_528414",
    "link_img": "https://live.staticflickr.com/65535/49712312897_e6382c5cc9_o.jpg",
    "id_image": "LordoftheRings_528414",
    "count_view": 0
  },
  {
    "link_thumb": "https://live.staticflickr.com/65535/49711326051_d1f7de15a2_n.jpg",
    "id_album": "1903411565",
    "description": "Deer_224427",
    "title": "Deer_224427",
    "link_img": "https://live.staticflickr.com/65535/49711326051_7ca9a6a8fa_o.jpg",
    "id_image": "Deer_224427",
    "count_view": 0
  },
  {
    "link_thumb": "https://live.staticflickr.com/65535/49710840553_d108b2144f_n.jpg",
    "id_album": "850176884",
    "description": "Dragon_173825",
    "title": "Dragon_173825",
    "link_img": "https://live.staticflickr.com/65535/49710840553_418bd3910c_o.jpg",
    "id_image": "Dragon_173825",
    "count_view": 0
  },
  {
    "link_thumb": "https://live.staticflickr.com/65535/49711183412_74920a55f1_n.jpg",
    "id_album": "-2109465612",
    "description": "Adventure_225850",
    "title": "Adventure_225850",
    "link_img": "https://live.staticflickr.com/65535/49711183412_6784650017_o.jpg",
    "id_image": "Adventure_225850",
    "count_view": 0
  },
  {
    "link_thumb": "https://live.staticflickr.com/65535/49712217911_2e6d6b9f02_n.jpg",
    "id_album": "-1261420436",
    "description": "Warrior_679733",
    "title": "Warrior_679733",
    "link_img": "https://live.staticflickr.com/65535/49712217911_85033ea739_o.jpg",
    "id_image": "Warrior_679733",
    "count_view": 0
  },
  {
    "link_thumb": "https://live.staticflickr.com/65535/49711187628_0bc096a2f5_n.jpg",
    "id_album": "-1083189875",
    "description": "Forest_981226",
    "title": "Forest_981226",
    "link_img": "https://live.staticflickr.com/65535/49711187628_9855a5a81f_o.jpg",
    "id_image": "Forest_981226",
    "count_view": 0
  },
  {
    "link_thumb": "https://live.staticflickr.com/65535/49711356407_2062db5e10_n.jpg",
    "id_album": "-1541846310",
    "description": "Castle_146497",
    "title": "Castle_146497",
    "link_img": "https://live.staticflickr.com/65535/49711356407_82b7ef4378_o.jpg",
    "id_image": "Castle_146497",
    "count_view": 0
  },
  {
    "link_thumb": "https://live.staticflickr.com/65535/49710988188_9696115394_n.jpg",
    "id_album": "850176884",
    "description": "Dragon_78311",
    "title": "Dragon_78311",
    "link_img": "https://live.staticflickr.com/65535/49710988188_80e59688e6_o.jpg",
    "id_image": "Dragon_78311",
    "count_view": 0
  },
  {
    "link_thumb": "https://live.staticflickr.com/65535/49711316211_d9748071c8_n.jpg",
    "id_album": "2021464556",
    "description": "Dark_222946",
    "title": "Dark_222946",
    "link_img": "https://live.staticflickr.com/65535/49711316211_83255a543d_o.jpg",
    "id_image": "Dark_222946",
    "count_view": 0
  },
  {
    "link_thumb": "https://live.staticflickr.com/65535/49712182232_3ee52e98de_n.jpg",
    "id_album": "1402713104",
    "description": "Landscape_926965",
    "title": "Landscape_926965",
    "link_img": "https://live.staticflickr.com/65535/49712182232_467813df5a_o.jpg",
    "id_image": "Landscape_926965",
    "count_view": 0
  },
  {
    "link_thumb": "https://live.staticflickr.com/65535/49711549576_ee4b8cc70a_n.jpg",
    "id_album": "850176884",
    "description": "Dragon_883155",
    "title": "Dragon_883155",
    "link_img": "https://live.staticflickr.com/65535/49711549576_a4ac1befda_o.jpg",
    "id_image": "Dragon_883155",
    "count_view": 0
  },
  {
    "link_thumb": "https://live.staticflickr.com/65535/49711166156_059778b650_n.jpg",
    "id_album": "-437872736",
    "description": "Creature_245732",
    "title": "Creature_245732",
    "link_img": "https://live.staticflickr.com/65535/49711166156_405fd34afa_o.jpg",
    "id_image": "Creature_245732",
    "count_view": 0
  },
  {
    "link_thumb": "https://live.staticflickr.com/65535/49712325482_9606426630_n.jpg",
    "id_album": "-1613076477",
    "description": "Magic_424507",
    "title": "Magic_424507",
    "link_img": "https://live.staticflickr.com/65535/49712325482_7acc275ea1_o.jpg",
    "id_image": "Magic_424507",
    "count_view": 0
  },
  {
    "link_thumb": "https://live.staticflickr.com/65535/49711739527_527029f7ba_n.jpg",
    "id_album": "850176884",
    "description": "Dragon_317052",
    "title": "Dragon_317052",
    "link_img": "https://live.staticflickr.com/65535/49711739527_c7d03ec843_o.jpg",
    "id_image": "Dragon_317052",
    "count_view": 0
  },
  {
    "link_thumb": "https://live.staticflickr.com/65535/49711442836_aa300dc669_n.jpg",
    "id_album": "850176884",
    "description": "Dragon_413658",
    "title": "Dragon_413658",
    "link_img": "https://live.staticflickr.com/65535/49711442836_0de3effb1e_o.jpg",
    "id_image": "Dragon_413658",
    "count_view": 0
  },
  {
    "link_thumb": "https://live.staticflickr.com/65535/49711452837_329237f622_n.jpg",
    "id_album": "-1964113117",
    "description": "City_905827",
    "title": "City_905827",
    "link_img": "https://live.staticflickr.com/65535/49711452837_ea9507d55e_o.jpg",
    "id_image": "City_905827",
    "count_view": 0
  },
  {
    "link_thumb": "https://live.staticflickr.com/65535/49712532762_514e018e5c_n.jpg",
    "id_album": "-1261420436",
    "description": "Warrior_552716",
    "title": "Warrior_552716",
    "link_img": "https://live.staticflickr.com/65535/49712532762_f055cd36f1_o.jpg",
    "id_image": "Warrior_552716",
    "count_view": 0
  },
  {
    "link_thumb": "https://live.staticflickr.com/65535/49710918743_9d29178779_n.jpg",
    "id_album": "850176884",
    "description": "Dragon_463768",
    "title": "Dragon_463768",
    "link_img": "https://live.staticflickr.com/65535/49710918743_a757996862_o.jpg",
    "id_image": "Dragon_463768",
    "count_view": 0
  },
  {
    "link_thumb": "https://live.staticflickr.com/65535/49711756612_05bdcb88c5_n.jpg",
    "id_album": "850176884",
    "description": "Dragon_376351",
    "title": "Dragon_376351",
    "link_img": "https://live.staticflickr.com/65535/49711756612_2a5c9d6e4c_o.jpg",
    "id_image": "Dragon_376351",
    "count_view": 0
  },
  {
    "link_thumb": "https://live.staticflickr.com/65535/49712170897_1b7462c94a_n.jpg",
    "id_album": "1402713104",
    "description": "Landscape_874063",
    "title": "Landscape_874063",
    "link_img": "https://live.staticflickr.com/65535/49712170897_1f7c12efd2_o.jpg",
    "id_image": "Landscape_874063",
    "count_view": 0
  },
  {
    "link_thumb": "https://live.staticflickr.com/65535/49711112158_7f60623036_n.jpg",
    "id_album": "-1972042284",
    "description": "Fairy_154167",
    "title": "Fairy_154167",
    "link_img": "https://live.staticflickr.com/65535/49711112158_0e420195af_o.jpg",
    "id_image": "Fairy_154167",
    "count_view": 0
  },
  {
    "link_thumb": "https://live.staticflickr.com/65535/49711546317_670236564e_n.jpg",
    "id_album": "-437872736",
    "description": "Creature_379122",
    "title": "Creature_379122",
    "link_img": "https://live.staticflickr.com/65535/49711546317_e51161ff82_o.jpg",
    "id_image": "Creature_379122",
    "count_view": 0
  },
  {
    "link_thumb": "https://live.staticflickr.com/65535/49712207792_7128f31b24_n.jpg",
    "id_album": "1402713104",
    "description": "Landscape_993945",
    "title": "Landscape_993945",
    "link_img": "https://live.staticflickr.com/65535/49712207792_0d67c895ee_o.jpg",
    "id_image": "Landscape_993945",
    "count_view": 0
  },
  {
    "link_thumb": "https://live.staticflickr.com/65535/49710709503_0056d8588f_n.jpg",
    "id_album": "-437872736",
    "description": "Creature_533749",
    "title": "Creature_533749",
    "link_img": "https://live.staticflickr.com/65535/49710709503_3764c61e67_o.jpg",
    "id_image": "Creature_533749",
    "count_view": 0
  },
  {
    "link_thumb": "https://live.staticflickr.com/65535/49711424672_c6015fde34_n.jpg",
    "id_album": "-1964113117",
    "description": "City_442082",
    "title": "City_442082",
    "link_img": "https://live.staticflickr.com/65535/49711424672_e9961e03ac_o.jpg",
    "id_image": "City_442082",
    "count_view": 0
  },
  {
    "link_thumb": "https://live.staticflickr.com/65535/49711385237_653e911195_n.jpg",
    "id_album": "-1541846310",
    "description": "Castle_867579",
    "title": "Castle_867579",
    "link_img": "https://live.staticflickr.com/65535/49711385237_286731c5b4_o.jpg",
    "id_image": "Castle_867579",
    "count_view": 0
  },
  {
    "link_thumb": "https://live.staticflickr.com/65535/49711197657_7ced95528e_n.jpg",
    "id_album": "-1000175186",
    "description": "AngelWarrior_129828",
    "title": "AngelWarrior_129828",
    "link_img": "https://live.staticflickr.com/65535/49711197657_ac6f481a9b_o.jpg",
    "id_image": "AngelWarrior_129828",
    "count_view": 0
  },
  {
    "link_thumb": "https://live.staticflickr.com/65535/49712435182_d08b768cd9_n.jpg",
    "id_album": "-1611961467",
    "description": "Samurai_842664",
    "title": "Samurai_842664",
    "link_img": "https://live.staticflickr.com/65535/49712435182_fbf7449cd0_o.jpg",
    "id_image": "Samurai_842664",
    "count_view": 0
  },
  {
    "link_thumb": "https://live.staticflickr.com/65535/49711567051_7b4ecd3344_n.jpg",
    "id_album": "850176884",
    "description": "Dragon_921715",
    "title": "Dragon_921715",
    "link_img": "https://live.staticflickr.com/65535/49711567051_ac9311c3f0_o.jpg",
    "id_image": "Dragon_921715",
    "count_view": 0
  },
  {
    "link_thumb": "https://live.staticflickr.com/65535/49711141828_608144c4a4_n.jpg",
    "id_album": "-1972042284",
    "description": "Fairy_701320",
    "title": "Fairy_701320",
    "link_img": "https://live.staticflickr.com/65535/49711141828_a5184ace0d_o.jpg",
    "id_image": "Fairy_701320",
    "count_view": 0
  },
  {
    "link_thumb": "https://live.staticflickr.com/65535/49712458191_e1a4d55f22_n.jpg",
    "id_album": "1861288871",
    "description": "Women_764590",
    "title": "Women_764590",
    "link_img": "https://live.staticflickr.com/65535/49712458191_8ebb85458a_o.jpg",
    "id_image": "Women_764590",
    "count_view": 0
  },
  {
    "link_thumb": "https://live.staticflickr.com/65535/49711296922_33f1a9102b_n.jpg",
    "id_album": "523598895",
    "description": "Artistic_556443",
    "title": "Artistic_556443",
    "link_img": "https://live.staticflickr.com/65535/49711296922_9f0f6104f4_o.jpg",
    "id_image": "Artistic_556443",
    "count_view": 0
  },
  {
    "link_thumb": "https://live.staticflickr.com/65535/49711432557_1e631e8f3b_n.jpg",
    "id_album": "-1964113117",
    "description": "City_593481",
    "title": "City_593481",
    "link_img": "https://live.staticflickr.com/65535/49711432557_38eebef3d4_o.jpg",
    "id_image": "City_593481",
    "count_view": 0
  },
  {
    "link_thumb": "https://live.staticflickr.com/65535/49711572588_d4056d9973_n.jpg",
    "id_album": "-1611961467",
    "description": "Samurai_585250",
    "title": "Samurai_585250",
    "link_img": "https://live.staticflickr.com/65535/49711572588_db74b5553c_o.jpg",
    "id_image": "Samurai_585250",
    "count_view": 0
  },
  {
    "link_thumb": "https://live.staticflickr.com/65535/49711520207_55b541de73_n.jpg",
    "id_album": "-437872736",
    "description": "Creature_323591",
    "title": "Creature_323591",
    "link_img": "https://live.staticflickr.com/65535/49711520207_0bf30e91a7_o.jpg",
    "id_image": "Creature_323591",
    "count_view": 0
  },
  {
    "link_thumb": "https://live.staticflickr.com/65535/49711690013_59b6f4dea7_n.jpg",
    "id_album": "-1261420436",
    "description": "Warrior_804233",
    "title": "Warrior_804233",
    "link_img": "https://live.staticflickr.com/65535/49711690013_ec6378876e_o.jpg",
    "id_image": "Warrior_804233",
    "count_view": 0
  },
  {
    "link_thumb": "https://live.staticflickr.com/65535/49711265446_53e8f68da9_n.jpg",
    "id_album": "-437872736",
    "description": "Creature_742091",
    "title": "Creature_742091",
    "link_img": "https://live.staticflickr.com/65535/49711265446_2ccd8a487f_o.jpg",
    "id_image": "Creature_742091",
    "count_view": 0
  },
  {
    "link_thumb": "https://live.staticflickr.com/65535/49710899426_b9e2fd9ed9_n.jpg",
    "id_album": "-1913845949",
    "description": "Animal_330851",
    "title": "Animal_330851",
    "link_img": "https://live.staticflickr.com/65535/49710899426_068cdc1888_o.jpg",
    "id_image": "Animal_330851",
    "count_view": 0
  },
  {
    "link_thumb": "https://live.staticflickr.com/65535/49711689671_f6ac505895_n.jpg",
    "id_album": "-1083189875",
    "description": "Forest_175394",
    "title": "Forest_175394",
    "link_img": "https://live.staticflickr.com/65535/49711689671_cd5827a761_o.jpg",
    "id_image": "Forest_175394",
    "count_view": 0
  },
  {
    "link_thumb": "https://live.staticflickr.com/65535/49712190062_c9ff30e061_n.jpg",
    "id_album": "1402713104",
    "description": "Landscape_947447",
    "title": "Landscape_947447",
    "link_img": "https://live.staticflickr.com/65535/49712190062_7e3e1ec37b_o.jpg",
    "id_image": "Landscape_947447",
    "count_view": 0
  },
  {
    "link_thumb": "https://live.staticflickr.com/65535/49711351261_64d5692b12_n.jpg",
    "id_album": "850176884",
    "description": "DRAGON26101916502259",
    "title": "DRAGON26101916502259",
    "link_img": "https://live.staticflickr.com/65535/49711351261_ba99108289_o.jpg",
    "id_image": "DRAGON26101916502259",
    "count_view": 0
  },
  {
    "link_thumb": "https://live.staticflickr.com/65535/49711172931_49d5e0c739_n.jpg",
    "id_album": "-437872736",
    "description": "Creature_271120",
    "title": "Creature_271120",
    "link_img": "https://live.staticflickr.com/65535/49711172931_58e14011ff_o.jpg",
    "id_image": "Creature_271120",
    "count_view": 0
  },
  {
    "link_thumb": "https://live.staticflickr.com/65535/49712193137_dde4069a99_n.jpg",
    "id_album": "1402713104",
    "description": "Landscape_955948",
    "title": "Landscape_955948",
    "link_img": "https://live.staticflickr.com/65535/49712193137_0ff1f643d0_o.jpg",
    "id_image": "Landscape_955948",
    "count_view": 0
  }
]