[
  {
    "link_thumb": "https://live.staticflickr.com/65535/49712453267_4afb72c48e_n.jpg",
    "id_album": "-395228614",
    "description": "Ship_210444",
    "title": "Ship_210444",
    "link_img": "https://live.staticflickr.com/65535/49712453267_f70aa4f995_o.jpg",
    "id_image": "Ship_210444",
    "count_view": 0
  },
  {
    "link_thumb": "https://live.staticflickr.com/65535/49712143377_2e3b8d8015_n.jpg",
    "id_album": "1402713104",
    "description": "Landscape_793333",
    "title": "Landscape_793333",
    "link_img": "https://live.staticflickr.com/65535/49712143377_326b8fa85b_o.jpg",
    "id_image": "Landscape_793333",
    "count_view": 0
  },
  {
    "link_thumb": "https://live.staticflickr.com/65535/49711078188_57cc9bb042_n.jpg",
    "id_album": "134100487",
    "description": "Elf_486553",
    "title": "Elf_486553",
    "link_img": "https://live.staticflickr.com/65535/49711078188_54ce7c2066_o.jpg",
    "id_image": "Elf_486553",
    "count_view": 0
  },
  {
    "link_thumb": "https://live.staticflickr.com/65535/49711762848_0707328af4_n.jpg",
    "id_album": "-709711865",
    "description": "Wolf_912294",
    "title": "Wolf_912294",
    "link_img": "https://live.staticflickr.com/65535/49711762848_126e1f1ceb_o.jpg",
    "id_image": "Wolf_912294",
    "count_view": 0
  },
  {
    "link_thumb": "https://live.staticflickr.com/65535/49711822463_7295c5743c_n.jpg",
    "id_album": "295204930",
    "description": "Women_138806",
    "title": "Women_138806",
    "link_img": "https://live.staticflickr.com/65535/49711822463_919e594df7_o.jpg",
    "id_image": "Women_138806",
    "count_view": 0
  },
  {
    "link_thumb": "https://live.staticflickr.com/65535/49711354956_8c826c161d_n.jpg",
    "id_album": "850176884",
    "description": "Dragon_109212",
    "title": "Dragon_109212",
    "link_img": "https://live.staticflickr.com/65535/49711354956_4973074168_o.jpg",
    "id_image": "Dragon_109212",
    "count_view": 0
  },
  {
    "link_thumb": "https://live.staticflickr.com/65535/49710886433_10dfa4784d_n.jpg",
    "id_album": "850176884",
    "description": "Dragon_326324",
    "title": "Dragon_326324",
    "link_img": "https://live.staticflickr.com/65535/49710886433_94be81c423_o.jpg",
    "id_image": "Dragon_326324",
    "count_view": 0
  },
  {
    "link_thumb": "https://live.staticflickr.com/65535/49710921678_983205bace_n.jpg",
    "id_album": "850176884",
    "description": "Dragon_47695",
    "title": "Dragon_47695",
    "link_img": "https://live.staticflickr.com/65535/49710921678_0c9f261e40_o.jpg",
    "id_image": "Dragon_47695",
    "count_view": 0
  },
  {
    "link_thumb": "https://live.staticflickr.com/65535/49711291446_6e4f99e343_n.jpg",
    "id_album": "-437872736",
    "description": "Creature_958873",
    "title": "Creature_958873",
    "link_img": "https://live.staticflickr.com/65535/49711291446_dc4e9d79ec_o.jpg",
    "id_image": "Creature_958873",
    "count_view": 0
  },
  {
    "link_thumb": "https://live.staticflickr.com/65535/49710638918_de4081de80_n.jpg",
    "id_album": "-437872736",
    "description": "Creature_274307",
    "title": "Creature_274307",
    "link_img": "https://live.staticflickr.com/65535/49710638918_0e02435d9f_o.jpg",
    "id_image": "Creature_274307",
    "count_view": 0
  },
  {
    "link_thumb": "https://live.staticflickr.com/65535/49711416116_6f359af0ff_n.jpg",
    "id_album": "850176884",
    "description": "Dragon_312260",
    "title": "Dragon_312260",
    "link_img": "https://live.staticflickr.com/65535/49711416116_dbded2410b_o.jpg",
    "id_image": "Dragon_312260",
    "count_view": 0
  },
  {
    "link_thumb": "https://live.staticflickr.com/65535/49711444497_5dce60b7e4_n.jpg",
    "id_album": "-1964113117",
    "description": "City_853221",
    "title": "City_853221",
    "link_img": "https://live.staticflickr.com/65535/49711444497_868794981f_o.jpg",
    "id_image": "City_853221",
    "count_view": 0
  },
  {
    "link_thumb": "https://live.staticflickr.com/65535/49712255102_294e542890_n.jpg",
    "id_album": "-833110404",
    "description": "Landscape_393476",
    "title": "Landscape_393476",
    "link_img": "https://live.staticflickr.com/65535/49712255102_a52ab85e27_o.jpg",
    "id_image": "Landscape_393476",
    "count_view": 0
  },
  {
    "link_thumb": "https://live.staticflickr.com/65535/49711459322_e114ed8659_n.jpg",
    "id_album": "-1964113117",
    "description": "City_962394",
    "title": "City_962394",
    "link_img": "https://live.staticflickr.com/65535/49711459322_c29b0c3e32_o.jpg",
    "id_image": "City_962394",
    "count_view": 0
  },
  {
    "link_thumb": "https://live.staticflickr.com/65535/49711342007_5581f500ab_n.jpg",
    "id_album": "-1846011410",
    "description": "Bird_711470",
    "title": "Bird_711470",
    "link_img": "https://live.staticflickr.com/65535/49711342007_a2243dcea5_o.jpg",
    "id_image": "Bird_711470",
    "count_view": 0
  },
  {
    "link_thumb": "https://live.staticflickr.com/65535/49711023286_52b02b19cc_n.jpg",
    "id_album": "406431601",
    "description": "Building_234254",
    "title": "Building_234254",
    "link_img": "https://live.staticflickr.com/65535/49711023286_b5ca18a63b_o.jpg",
    "id_image": "Building_234254",
    "count_view": 0
  },
  {
    "link_thumb": "https://live.staticflickr.com/65535/49711110718_d79d989b16_n.jpg",
    "id_album": "-1972042284",
    "description": "Fairy_127980",
    "title": "Fairy_127980",
    "link_img": "https://live.staticflickr.com/65535/49711110718_64e235f5c3_o.jpg",
    "id_image": "Fairy_127980",
    "count_view": 0
  },
  {
    "link_thumb": "https://live.staticflickr.com/65535/49711707027_b3b5465774_n.jpg",
    "id_album": "850176884",
    "description": "Dragon_204163",
    "title": "Dragon_204163",
    "link_img": "https://live.staticflickr.com/65535/49711707027_e186c9a0d6_o.jpg",
    "id_image": "Dragon_204163",
    "count_view": 0
  },
  {
    "link_thumb": "https://live.staticflickr.com/65535/49711797426_ed4f44222c_n.jpg",
    "id_album": "1402713104",
    "description": "Landscape_667677",
    "title": "Landscape_667677",
    "link_img": "https://live.staticflickr.com/65535/49711797426_a53c206e51_o.jpg",
    "id_image": "Landscape_667677",
    "count_view": 0
  },
  {
    "link_thumb": "https://live.staticflickr.com/65535/49712070367_1868bcaeea_n.jpg",
    "id_album": "1131236559",
    "description": "Gods_764563",
    "title": "Gods_764563",
    "link_img": "https://live.staticflickr.com/65535/49712070367_7d33d2bebc_o.jpg",
    "id_image": "Gods_764563",
    "count_view": 0
  },
  {
    "link_thumb": "https://live.staticflickr.com/65535/49712205766_3c5a033e3a_n.jpg",
    "id_album": "-1261420436",
    "description": "Warrior_312161",
    "title": "Warrior_312161",
    "link_img": "https://live.staticflickr.com/65535/49712205766_8554e08776_o.jpg",
    "id_image": "Warrior_312161",
    "count_view": 0
  },
  {
    "link_thumb": "https://live.staticflickr.com/65535/49798809851_10d837e67a_n.jpg",
    "id_album": "-1703946758",
    "description": "ANIME_PIC_1c5307de2c56ac4a1f28dc6df2f07127",
    "title": "ANIME_PIC_1c5307de2c56ac4a1f28dc6df2f07127",
    "link_img": "https://live.staticflickr.com/65535/49798809851_b2de783894_o.jpg",
    "id_image": "ANIME_PIC_1c5307de2c56ac4a1f28dc6df2f07127",
    "count_view": 0
  },
  {
    "link_thumb": "https://live.staticflickr.com/65535/49711302012_916792938c_n.jpg",
    "id_album": "523598895",
    "description": "Artistic_687770",
    "title": "Artistic_687770",
    "link_img": "https://live.staticflickr.com/65535/49711302012_fb4a1248aa_o.jpg",
    "id_image": "Artistic_687770",
    "count_view": 0
  },
  {
    "link_thumb": "https://live.staticflickr.com/65535/49711178731_45ccd250b9_n.jpg",
    "id_album": "-437872736",
    "description": "Creature_294390",
    "title": "Creature_294390",
    "link_img": "https://live.staticflickr.com/65535/49711178731_445fa5db94_o.jpg",
    "id_image": "Creature_294390",
    "count_view": 0
  },
  {
    "link_thumb": "https://live.staticflickr.com/65535/49711648158_8e3dbb047e_n.jpg",
    "id_album": "431597977",
    "description": "Unicorn_782034",
    "title": "Unicorn_782034",
    "link_img": "https://live.staticflickr.com/65535/49711648158_a1cc94780b_o.jpg",
    "id_image": "Unicorn_782034",
    "count_view": 0
  },
  {
    "link_thumb": "https://live.staticflickr.com/65535/49712696517_35cfda6837_n.jpg",
    "id_album": "295204930",
    "description": "Women_304638",
    "title": "Women_304638",
    "link_img": "https://live.staticflickr.com/65535/49712696517_3e3b57179b_o.jpg",
    "id_image": "Women_304638",
    "count_view": 0
  },
  {
    "link_thumb": "https://live.staticflickr.com/65535/49711411161_e8f78b2b90_n.jpg",
    "id_album": "850176884",
    "description": "Dragon_287712",
    "title": "Dragon_287712",
    "link_img": "https://live.staticflickr.com/65535/49711411161_1f437f62a2_o.jpg",
    "id_image": "Dragon_287712",
    "count_view": 0
  },
  {
    "link_thumb": "https://live.staticflickr.com/65535/49711680277_e93708e23c_n.jpg",
    "id_album": "850176884",
    "description": "Dragon_117378",
    "title": "Dragon_117378",
    "link_img": "https://live.staticflickr.com/65535/49711680277_6d45e1e9af_o.jpg",
    "id_image": "Dragon_117378",
    "count_view": 0
  },
  {
    "link_thumb": "https://live.staticflickr.com/65535/49711270746_e89f49edf7_n.jpg",
    "id_album": "-437872736",
    "description": "Creature_883150",
    "title": "Creature_883150",
    "link_img": "https://live.staticflickr.com/65535/49711270746_5113a7f3bf_o.jpg",
    "id_image": "Creature_883150",
    "count_view": 0
  },
  {
    "link_thumb": "https://live.staticflickr.com/65535/49711651112_4149a10b03_n.jpg",
    "id_album": "1903411565",
    "description": "Deer_592862",
    "title": "Deer_592862",
    "link_img": "https://live.staticflickr.com/65535/49711651112_50951550c6_o.jpg",
    "id_image": "Deer_592862",
    "count_view": 0
  },
  {
    "link_thumb": "https://live.staticflickr.com/65535/49711696702_a9f5870573_n.jpg",
    "id_album": "850176884",
    "description": "Dragon_151958",
    "title": "Dragon_151958",
    "link_img": "https://live.staticflickr.com/65535/49711696702_dd01ccf63d_o.jpg",
    "id_image": "Dragon_151958",
    "count_view": 0
  },
  {
    "link_thumb": "https://live.staticflickr.com/65535/49712755687_d8d3effecc_n.jpg",
    "id_album": "1861288871",
    "description": "Women_205364",
    "title": "Women_205364",
    "link_img": "https://live.staticflickr.com/65535/49712755687_ff5dea3602_o.jpg",
    "id_image": "Women_205364",
    "count_view": 0
  },
  {
    "link_thumb": "https://live.staticflickr.com/65535/49711771101_093985a6d0_n.jpg",
    "id_album": "1957967226",
    "description": "House_753655",
    "title": "House_753655",
    "link_img": "https://live.staticflickr.com/65535/49711771101_7ec3445235_o.jpg",
    "id_image": "House_753655",
    "count_view": 0
  },
  {
    "link_thumb": "https://live.staticflickr.com/65535/49711355537_380ce06556_n.jpg",
    "id_album": "-1541846310",
    "description": "Castle_129703",
    "title": "Castle_129703",
    "link_img": "https://live.staticflickr.com/65535/49711355537_2f8c9861a8_o.jpg",
    "id_image": "Castle_129703",
    "count_view": 0
  },
  {
    "link_thumb": "https://live.staticflickr.com/65535/49710421673_63363fe9f9_n.jpg",
    "id_album": "523598895",
    "description": "Artistic_225864",
    "title": "Artistic_225864",
    "link_img": "https://live.staticflickr.com/65535/49710421673_16f3ae73a7_o.jpg",
    "id_image": "Artistic_225864",
    "count_view": 0
  },
  {
    "link_thumb": "https://live.staticflickr.com/65535/49711143403_fecaf81cc5_n.jpg",
    "id_album": "-1972042284",
    "description": "Fairy_703281",
    "title": "Fairy_703281",
    "link_img": "https://live.staticflickr.com/65535/49711143403_b254951a2d_o.jpg",
    "id_image": "Fairy_703281",
    "count_view": 0
  },
  {
    "link_thumb": "https://live.staticflickr.com/65535/49711076218_36db43d736_n.jpg",
    "id_album": "134100487",
    "description": "Elf_382815",
    "title": "Elf_382815",
    "link_img": "https://live.staticflickr.com/65535/49711076218_6f411854ab_o.jpg",
    "id_image": "Elf_382815",
    "count_view": 0
  },
  {
    "link_thumb": "https://live.staticflickr.com/65535/49712208642_c1416a95fd_n.jpg",
    "id_album": "1402713104",
    "description": "Landscape_994578",
    "title": "Landscape_994578",
    "link_img": "https://live.staticflickr.com/65535/49712208642_659a8aca0e_o.jpg",
    "id_image": "Landscape_994578",
    "count_view": 0
  },
  {
    "link_thumb": "https://live.staticflickr.com/65535/49710852648_a8fbd1e4d6_n.jpg",
    "id_album": "850176884",
    "description": "Dragon_226212",
    "title": "Dragon_226212",
    "link_img": "https://live.staticflickr.com/65535/49710852648_d8ee848871_o.jpg",
    "id_image": "Dragon_226212",
    "count_view": 0
  },
  {
    "link_thumb": "https://live.staticflickr.com/65535/49711046773_8446f9e983_n.jpg",
    "id_album": "850176884",
    "description": "Dragon_96651",
    "title": "Dragon_96651",
    "link_img": "https://live.staticflickr.com/65535/49711046773_2001226ee1_o.jpg",
    "id_image": "Dragon_96651",
    "count_view": 0
  },
  {
    "link_thumb": "https://live.staticflickr.com/65535/49711921036_3d4fcd3cfe_n.jpg",
    "id_album": "-833110404",
    "description": "Landscape_301489",
    "title": "Landscape_301489",
    "link_img": "https://live.staticflickr.com/65535/49711921036_5be6edc369_o.jpg",
    "id_image": "Landscape_301489",
    "count_view": 0
  },
  {
    "link_thumb": "https://live.staticflickr.com/65535/49711678848_1cf7ec9766_n.jpg",
    "id_album": "-1261420436",
    "description": "Warrior_607026",
    "title": "Warrior_607026",
    "link_img": "https://live.staticflickr.com/65535/49711678848_25d9d16b16_o.jpg",
    "id_image": "Warrior_607026",
    "count_view": 0
  },
  {
    "link_thumb": "https://live.staticflickr.com/65535/49711477097_db7389d10d_n.jpg",
    "id_album": "-437872736",
    "description": "Creature_177872",
    "title": "Creature_177872",
    "link_img": "https://live.staticflickr.com/65535/49711477097_3235c4fbab_o.jpg",
    "id_image": "Creature_177872",
    "count_view": 0
  },
  {
    "link_thumb": "https://live.staticflickr.com/65535/49711902228_d35ed7d0a2_n.jpg",
    "id_album": "1861288871",
    "description": "Women_235322",
    "title": "Women_235322",
    "link_img": "https://live.staticflickr.com/65535/49711902228_ca8f2e2954_o.jpg",
    "id_image": "Women_235322",
    "count_view": 0
  },
  {
    "link_thumb": "https://live.staticflickr.com/65535/49712800132_1e76259bbb_n.jpg",
    "id_album": "1861288871",
    "description": "Women_816096",
    "title": "Women_816096",
    "link_img": "https://live.staticflickr.com/65535/49712800132_bff368f998_o.jpg",
    "id_image": "Women_816096",
    "count_view": 0
  },
  {
    "link_thumb": "https://live.staticflickr.com/65535/49711191556_5292eb1cef_n.jpg",
    "id_album": "-437872736",
    "description": "Creature_316993",
    "title": "Creature_316993",
    "link_img": "https://live.staticflickr.com/65535/49711191556_97ac3eaf6e_o.jpg",
    "id_image": "Creature_316993",
    "count_view": 0
  },
  {
    "link_thumb": "https://live.staticflickr.com/65535/49711499097_0c72c43517_n.jpg",
    "id_album": "-437872736",
    "description": "Creature_273377",
    "title": "Creature_273377",
    "link_img": "https://live.staticflickr.com/65535/49711499097_9dc088988e_o.jpg",
    "id_image": "Creature_273377",
    "count_view": 0
  },
  {
    "link_thumb": "https://live.staticflickr.com/65535/49712302241_28be1f0134_n.jpg",
    "id_album": "-362161606",
    "description": "WOMAN2610191652105",
    "title": "WOMAN2610191652105",
    "link_img": "https://live.staticflickr.com/65535/49712302241_537bf9078a_o.jpg",
    "id_image": "WOMAN2610191652105",
    "count_view": 0
  },
  {
    "link_thumb": "https://live.staticflickr.com/65535/49710911736_c045521a9d_n.jpg",
    "id_album": "-1913845949",
    "description": "Animal_636087",
    "title": "Animal_636087",
    "link_img": "https://live.staticflickr.com/65535/49710911736_b607556ee3_o.jpg",
    "id_image": "Animal_636087",
    "count_view": 0
  },
  {
    "link_thumb": "https://live.staticflickr.com/65535/49798843706_817a6f6ab6_n.jpg",
    "id_album": "-1703946758",
    "description": "ANIME_PIC_e22bebb478c0d75aedb432403fe4b249",
    "title": "ANIME_PIC_e22bebb478c0d75aedb432403fe4b249",
    "link_img": "https://live.staticflickr.com/65535/49798843706_da71940444_o.jpg",
    "id_image": "ANIME_PIC_e22bebb478c0d75aedb432403fe4b249",
    "count_view": 0
  },
  {
    "link_thumb": "https://live.staticflickr.com/65535/49711705148_3e5ba6e458_n.jpg",
    "id_album": "-1261420436",
    "description": "Warrior_987584",
    "title": "Warrior_987584",
    "link_img": "https://live.staticflickr.com/65535/49711705148_aea5a45c03_o.jpg",
    "id_image": "Warrior_987584",
    "count_view": 0
  },
  {
    "link_thumb": "https://live.staticflickr.com/65535/49710901863_f0668be3ee_n.jpg",
    "id_album": "850176884",
    "description": "Dragon_384006",
    "title": "Dragon_384006",
    "link_img": "https://live.staticflickr.com/65535/49710901863_174defcf3e_o.jpg",
    "id_image": "Dragon_384006",
    "count_view": 0
  },
  {
    "link_thumb": "https://live.staticflickr.com/65535/49710408213_d3c798bc6d_n.jpg",
    "id_album": "523598895",
    "description": "Artistic_122562",
    "title": "Artistic_122562",
    "link_img": "https://live.staticflickr.com/65535/49710408213_b492ba39da_o.jpg",
    "id_image": "Artistic_122562",
    "count_view": 0
  },
  {
    "link_thumb": "https://live.staticflickr.com/65535/49711192632_67d31b2b97_n.jpg",
    "id_album": "-2109465612",
    "description": "Adventure_702073",
    "title": "Adventure_702073",
    "link_img": "https://live.staticflickr.com/65535/49711192632_d3ec8fe5bd_o.jpg",
    "id_image": "Adventure_702073",
    "count_view": 0
  },
  {
    "link_thumb": "https://live.staticflickr.com/65535/49712669757_db380429e2_n.jpg",
    "id_album": "-1126835654",
    "description": "Women_976131",
    "title": "Women_976131",
    "link_img": "https://live.staticflickr.com/65535/49712669757_e8a423b7a9_o.jpg",
    "id_image": "Women_976131",
    "count_view": 0
  },
  {
    "link_thumb": "https://live.staticflickr.com/65535/49711532831_34b6ae95e3_n.jpg",
    "id_album": "850176884",
    "description": "Dragon_836307",
    "title": "Dragon_836307",
    "link_img": "https://live.staticflickr.com/65535/49711532831_fe85d2aab8_o.jpg",
    "id_image": "Dragon_836307",
    "count_view": 0
  },
  {
    "link_thumb": "https://live.staticflickr.com/65535/49710918471_214b558d3c_n.jpg",
    "id_album": "-1913845949",
    "description": "Animal_858509",
    "title": "Animal_858509",
    "link_img": "https://live.staticflickr.com/65535/49710918471_f196754ca0_o.jpg",
    "id_image": "Animal_858509",
    "count_view": 0
  },
  {
    "link_thumb": "https://live.staticflickr.com/65535/49712425222_387736922a_n.jpg",
    "id_album": "-1611961467",
    "description": "Samurai_169088",
    "title": "Samurai_169088",
    "link_img": "https://live.staticflickr.com/65535/49712425222_16d1f503a5_o.jpg",
    "id_image": "Samurai_169088",
    "count_view": 0
  },
  {
    "link_thumb": "https://live.staticflickr.com/65535/49711414083_6158115ec4_n.jpg",
    "id_album": "-833110404",
    "description": "Landscape_468962",
    "title": "Landscape_468962",
    "link_img": "https://live.staticflickr.com/65535/49711414083_2191cc4d56_o.jpg",
    "id_image": "Landscape_468962",
    "count_view": 0
  },
  {
    "link_thumb": "https://live.staticflickr.com/65535/49710549603_c486675cca_n.jpg",
    "id_album": "430704260",
    "description": "Child_921990",
    "title": "Child_921990",
    "link_img": "https://live.staticflickr.com/65535/49710549603_cf31d0d751_o.jpg",
    "id_image": "Child_921990",
    "count_view": 0
  },
  {
    "link_thumb": "https://live.staticflickr.com/65535/49711932472_d8b6b4b46f_n.jpg",
    "id_album": "134100487",
    "description": "Elf_342576",
    "title": "Elf_342576",
    "link_img": "https://live.staticflickr.com/65535/49711932472_2978580eed_o.jpg",
    "id_image": "Elf_342576",
    "count_view": 0
  },
  {
    "link_thumb": "https://live.staticflickr.com/65535/49711493922_86c7e8367a_n.jpg",
    "id_album": "-437872736",
    "description": "Creature_262122",
    "title": "Creature_262122",
    "link_img": "https://live.staticflickr.com/65535/49711493922_c5da6b9528_o.jpg",
    "id_image": "Creature_262122",
    "count_view": 0
  },
  {
    "link_thumb": "https://live.staticflickr.com/65535/49711049096_ee058d76ee_n.jpg",
    "id_album": "-1541846310",
    "description": "Castle_568501",
    "title": "Castle_568501",
    "link_img": "https://live.staticflickr.com/65535/49711049096_2b1af4a462_o.jpg",
    "id_image": "Castle_568501",
    "count_view": 0
  },
  {
    "link_thumb": "https://live.staticflickr.com/65535/49712350126_9d2119066f_n.jpg",
    "id_album": "-1126835654",
    "description": "Women_993301",
    "title": "Women_993301",
    "link_img": "https://live.staticflickr.com/65535/49712350126_97d6278338_o.jpg",
    "id_image": "Women_993301",
    "count_view": 0
  },
  {
    "link_thumb": "https://live.staticflickr.com/65535/49711220027_7d89235064_n.jpg",
    "id_album": "-1913845949",
    "description": "Animal_207492",
    "title": "Animal_207492",
    "link_img": "https://live.staticflickr.com/65535/49711220027_9e6d3551de_o.jpg",
    "id_image": "Animal_207492",
    "count_view": 0
  },
  {
    "link_thumb": "https://live.staticflickr.com/65535/49710863313_a9375e6d1f_n.jpg",
    "id_album": "850176884",
    "description": "Dragon_248637",
    "title": "Dragon_248637",
    "link_img": "https://live.staticflickr.com/65535/49710863313_56cb3c3f37_o.jpg",
    "id_image": "Dragon_248637",
    "count_view": 0
  },
  {
    "link_thumb": "https://live.staticflickr.com/65535/49710335113_53800c9447_n.jpg",
    "id_album": "-2109465612",
    "description": "Adventure_702083",
    "title": "Adventure_702083",
    "link_img": "https://live.staticflickr.com/65535/49710335113_b893bf2d67_o.jpg",
    "id_image": "Adventure_702083",
    "count_view": 0
  },
  {
    "link_thumb": "https://live.staticflickr.com/65535/49711957211_a453487b58_n.jpg",
    "id_album": "-833110404",
    "description": "Landscape_516505",
    "title": "Landscape_516505",
    "link_img": "https://live.staticflickr.com/65535/49711957211_6bda28ebbf_o.jpg",
    "id_image": "Landscape_516505",
    "count_view": 0
  },
  {
    "link_thumb": "https://live.staticflickr.com/65535/49711306777_18bdef90e0_n.jpg",
    "id_album": "1187037014",
    "description": "Battle_146470",
    "title": "Battle_146470",
    "link_img": "https://live.staticflickr.com/65535/49711306777_8ddb6c10bc_o.jpg",
    "id_image": "Battle_146470",
    "count_view": 0
  },
  {
    "link_thumb": "https://live.staticflickr.com/65535/49712045987_de8a23dfc1_n.jpg",
    "id_album": "-128218148",
    "description": "Fox_327043",
    "title": "Fox_327043",
    "link_img": "https://live.staticflickr.com/65535/49712045987_a549aeb062_o.jpg",
    "id_image": "Fox_327043",
    "count_view": 0
  },
  {
    "link_thumb": "https://live.staticflickr.com/65535/49710827428_ed07313fc3_n.jpg",
    "id_album": "850176884",
    "description": "Dragon_122318",
    "title": "Dragon_122318",
    "link_img": "https://live.staticflickr.com/65535/49710827428_74463fea96_o.jpg",
    "id_image": "Dragon_122318",
    "count_view": 0
  },
  {
    "link_thumb": "https://live.staticflickr.com/65535/49710516968_8d71399d11_n.jpg",
    "id_album": "-1541846310",
    "description": "Castle_691941",
    "title": "Castle_691941",
    "link_img": "https://live.staticflickr.com/65535/49710516968_ec01e850ac_o.jpg",
    "id_image": "Castle_691941",
    "count_view": 0
  },
  {
    "link_thumb": "https://live.staticflickr.com/65535/49710976586_7496623789_n.jpg",
    "id_album": "523598895",
    "description": "Artistic_655885",
    "title": "Artistic_655885",
    "link_img": "https://live.staticflickr.com/65535/49710976586_77ddecb817_o.jpg",
    "id_image": "Artistic_655885",
    "count_view": 0
  },
  {
    "link_thumb": "https://live.staticflickr.com/65535/49712407396_296d95f39e_n.jpg",
    "id_album": "295204930",
    "description": "Women_703235",
    "title": "Women_703235",
    "link_img": "https://live.staticflickr.com/65535/49712407396_5494f74d70_o.jpg",
    "id_image": "Women_703235",
    "count_view": 0
  },
  {
    "link_thumb": "https://live.staticflickr.com/65535/49712165833_7f8b977b68_n.jpg",
    "id_album": "-1675918237",
    "description": "WomenWarrior_921993",
    "title": "WomenWarrior_921993",
    "link_img": "https://live.staticflickr.com/65535/49712165833_8364634d29_o.jpg",
    "id_image": "WomenWarrior_921993",
    "count_view": 0
  },
  {
    "link_thumb": "https://live.staticflickr.com/65535/49711737522_d3da2ee72f_n.jpg",
    "id_album": "850176884",
    "description": "Dragon_312278",
    "title": "Dragon_312278",
    "link_img": "https://live.staticflickr.com/65535/49711737522_b8850a0d45_o.jpg",
    "id_image": "Dragon_312278",
    "count_view": 0
  },
  {
    "link_thumb": "https://live.staticflickr.com/65535/49712301037_e722e44bbb_n.jpg",
    "id_album": "-1284959130",
    "description": "LegendOfTheFiveRings_702323",
    "title": "LegendOfTheFiveRings_702323",
    "link_img": "https://live.staticflickr.com/65535/49712301037_57cdcfece0_o.jpg",
    "id_image": "LegendOfTheFiveRings_702323",
    "count_view": 0
  },
  {
    "link_thumb": "https://live.staticflickr.com/65535/49712386257_1cb11a3163_n.jpg",
    "id_album": "-639976841",
    "description": "Pegasus_409712",
    "title": "Pegasus_409712",
    "link_img": "https://live.staticflickr.com/65535/49712386257_c7456493fb_o.jpg",
    "id_image": "Pegasus_409712",
    "count_view": 0
  },
  {
    "link_thumb": "https://live.staticflickr.com/65535/49710881336_32e45cca91_n.jpg",
    "id_album": "-1000175186",
    "description": "AngelWarrior_494202",
    "title": "AngelWarrior_494202",
    "link_img": "https://live.staticflickr.com/65535/49710881336_5382e8dabc_o.jpg",
    "id_image": "AngelWarrior_494202",
    "count_view": 0
  },
  {
    "link_thumb": "https://live.staticflickr.com/65535/49711783532_5daaf65299_n.jpg",
    "id_album": "850176884",
    "description": "Dragon_494996",
    "title": "Dragon_494996",
    "link_img": "https://live.staticflickr.com/65535/49711783532_c7781fbbca_o.jpg",
    "id_image": "Dragon_494996",
    "count_view": 0
  },
  {
    "link_thumb": "https://live.staticflickr.com/65535/49711249761_c14099b452_n.jpg",
    "id_album": "-437872736",
    "description": "Creature_566547",
    "title": "Creature_566547",
    "link_img": "https://live.staticflickr.com/65535/49711249761_e6bbd7cfe8_o.jpg",
    "id_image": "Creature_566547",
    "count_view": 0
  },
  {
    "link_thumb": "https://live.staticflickr.com/65535/49711219282_967cae9434_n.jpg",
    "id_album": "-1913845949",
    "description": "Animal_197814",
    "title": "Animal_197814",
    "link_img": "https://live.staticflickr.com/65535/49711219282_1a255e371e_o.jpg",
    "id_image": "Animal_197814",
    "count_view": 0
  },
  {
    "link_thumb": "https://live.staticflickr.com/65535/49711252903_0498d90720_n.jpg",
    "id_album": "469960528",
    "description": "Knight_869166",
    "title": "Knight_869166",
    "link_img": "https://live.staticflickr.com/65535/49711252903_3f4dcb2428_o.jpg",
    "id_image": "Knight_869166",
    "count_view": 0
  },
  {
    "link_thumb": "https://live.staticflickr.com/65535/49710347958_a5b1cfe464_n.jpg",
    "id_album": "-1000175186",
    "description": "AngelWarrior_516638",
    "title": "AngelWarrior_516638",
    "link_img": "https://live.staticflickr.com/65535/49710347958_8b4ca5fc6a_o.jpg",
    "id_image": "AngelWarrior_516638",
    "count_view": 0
  },
  {
    "link_thumb": "https://live.staticflickr.com/65535/49711569971_79a4b07479_n.jpg",
    "id_album": "850176884",
    "description": "Dragon_930291",
    "title": "Dragon_930291",
    "link_img": "https://live.staticflickr.com/65535/49711569971_edc82c91b3_o.jpg",
    "id_image": "Dragon_930291",
    "count_view": 0
  },
  {
    "link_thumb": "https://live.staticflickr.com/65535/49711297891_2f0093ac9a_n.jpg",
    "id_album": "-437872736",
    "description": "Creature_958928",
    "title": "Creature_958928",
    "link_img": "https://live.staticflickr.com/65535/49711297891_e43225585f_o.jpg",
    "id_image": "Creature_958928",
    "count_view": 0
  },
  {
    "link_thumb": "https://live.staticflickr.com/65535/49711188038_43976cd2b7_n.jpg",
    "id_album": "-128218148",
    "description": "Fox_177801",
    "title": "Fox_177801",
    "link_img": "https://live.staticflickr.com/65535/49711188038_6037a52444_o.jpg",
    "id_image": "Fox_177801",
    "count_view": 0
  },
  {
    "link_thumb": "https://live.staticflickr.com/65535/49712383477_7a65b8c221_n.jpg",
    "id_album": "-639976841",
    "description": "Pegasus_145309",
    "title": "Pegasus_145309",
    "link_img": "https://live.staticflickr.com/65535/49712383477_056cb02f9b_o.jpg",
    "id_image": "Pegasus_145309",
    "count_view": 0
  },
  {
    "link_thumb": "https://live.staticflickr.com/65535/49711017496_1c7c18d752_n.jpg",
    "id_album": "-1846011410",
    "description": "Bird_635015",
    "title": "Bird_635015",
    "link_img": "https://live.staticflickr.com/65535/49711017496_4052e5fe48_o.jpg",
    "id_image": "Bird_635015",
    "count_view": 0
  },
  {
    "link_thumb": "https://live.staticflickr.com/65535/49799112532_895ecce132_n.jpg",
    "id_album": "-1703946758",
    "description": "ANIME_PIC_12611bdae83b6c6e75c54339646fb32e",
    "title": "ANIME_PIC_12611bdae83b6c6e75c54339646fb32e",
    "link_img": "https://live.staticflickr.com/65535/49799112532_e2454a88f8_o.jpg",
    "id_image": "ANIME_PIC_12611bdae83b6c6e75c54339646fb32e",
    "count_view": 0
  },
  {
    "link_thumb": "https://live.staticflickr.com/65535/49712596692_e156ab793b_n.jpg",
    "id_album": "-709711865",
    "description": "Wolf_463422",
    "title": "Wolf_463422",
    "link_img": "https://live.staticflickr.com/65535/49712596692_a220f3faa9_o.jpg",
    "id_image": "Wolf_463422",
    "count_view": 0
  },
  {
    "link_thumb": "https://live.staticflickr.com/65535/49710948281_57c27208de_n.jpg",
    "id_album": "523598895",
    "description": "Artistic_178859",
    "title": "Artistic_178859",
    "link_img": "https://live.staticflickr.com/65535/49710948281_47047961ec_o.jpg",
    "id_image": "Artistic_178859",
    "count_view": 0
  },
  {
    "link_thumb": "https://live.staticflickr.com/65535/49711689671_f6ac505895_n.jpg",
    "id_album": "-1083189875",
    "description": "Forest_175394",
    "title": "Forest_175394",
    "link_img": "https://live.staticflickr.com/65535/49711689671_cd5827a761_o.jpg",
    "id_image": "Forest_175394",
    "count_view": 0
  },
  {
    "link_thumb": "https://live.staticflickr.com/65535/49711424672_c6015fde34_n.jpg",
    "id_album": "-1964113117",
    "description": "City_442082",
    "title": "City_442082",
    "link_img": "https://live.staticflickr.com/65535/49711424672_e9961e03ac_o.jpg",
    "id_image": "City_442082",
    "count_view": 0
  },
  {
    "link_thumb": "https://live.staticflickr.com/65535/49711238108_510997c50d_n.jpg",
    "id_album": "1957967226",
    "description": "House_962003",
    "title": "House_962003",
    "link_img": "https://live.staticflickr.com/65535/49711238108_9bc3530702_o.jpg",
    "id_image": "House_962003",
    "count_view": 0
  },
  {
    "link_thumb": "https://live.staticflickr.com/65535/49712170897_1b7462c94a_n.jpg",
    "id_album": "1402713104",
    "description": "Landscape_874063",
    "title": "Landscape_874063",
    "link_img": "https://live.staticflickr.com/65535/49712170897_1f7c12efd2_o.jpg",
    "id_image": "Landscape_874063",
    "count_view": 0
  },
  {
    "link_thumb": "https://live.staticflickr.com/65535/49710891263_93ac19649d_n.jpg",
    "id_album": "850176884",
    "description": "Dragon_333312",
    "title": "Dragon_333312",
    "link_img": "https://live.staticflickr.com/65535/49710891263_af093680ed_o.jpg",
    "id_image": "Dragon_333312",
    "count_view": 0
  },
  {
    "link_thumb": "https://live.staticflickr.com/65535/49711408202_84d20c986c_n.jpg",
    "id_album": "430704260",
    "description": "Child_900343",
    "title": "Child_900343",
    "link_img": "https://live.staticflickr.com/65535/49711408202_f0a9c32c5d_o.jpg",
    "id_image": "Child_900343",
    "count_view": 0
  },
  {
    "link_thumb": "https://live.staticflickr.com/65535/49711542006_d152af881f_n.jpg",
    "id_album": "850176884",
    "description": "Dragon_867423",
    "title": "Dragon_867423",
    "link_img": "https://live.staticflickr.com/65535/49711542006_3114965843_o.jpg",
    "id_image": "Dragon_867423",
    "count_view": 0
  },
  {
    "link_thumb": "https://live.staticflickr.com/65535/49712030117_12a5650af7_n.jpg",
    "id_album": "-1083189875",
    "description": "Forest_709157",
    "title": "Forest_709157",
    "link_img": "https://live.staticflickr.com/65535/49712030117_0c7208f520_o.jpg",
    "id_image": "Forest_709157",
    "count_view": 0
  },
  {
    "link_thumb": "https://live.staticflickr.com/65535/49710916836_7dd9fe8817_n.jpg",
    "id_album": "-1913845949",
    "description": "Animal_829893",
    "title": "Animal_829893",
    "link_img": "https://live.staticflickr.com/65535/49710916836_00c630103b_o.jpg",
    "id_image": "Animal_829893",
    "count_view": 0
  },
  {
    "link_thumb": "https://live.staticflickr.com/65535/49711333636_49a0537b0a_n.jpg",
    "id_album": "7198985",
    "description": "Demon_227455",
    "title": "Demon_227455",
    "link_img": "https://live.staticflickr.com/65535/49711333636_9e40d3972e_o.jpg",
    "id_image": "Demon_227455",
    "count_view": 0
  },
  {
    "link_thumb": "https://live.staticflickr.com/65535/49711283147_eeda0f82fe_n.jpg",
    "id_album": "523598895",
    "description": "Artistic_288102",
    "title": "Artistic_288102",
    "link_img": "https://live.staticflickr.com/65535/49711283147_89c0d75d2f_o.jpg",
    "id_image": "Artistic_288102",
    "count_view": 0
  },
  {
    "link_thumb": "https://live.staticflickr.com/65535/49711697042_b7a2390ce5_n.jpg",
    "id_album": "850176884",
    "description": "Dragon_152098",
    "title": "Dragon_152098",
    "link_img": "https://live.staticflickr.com/65535/49711697042_27858b0cf8_o.jpg",
    "id_image": "Dragon_152098",
    "count_view": 0
  },
  {
    "link_thumb": "https://live.staticflickr.com/65535/49712566627_25d4d6c968_n.jpg",
    "id_album": "1173975892",
    "description": "Werewolf_487348",
    "title": "Werewolf_487348",
    "link_img": "https://live.staticflickr.com/65535/49712566627_e00df5cf64_o.jpg",
    "id_image": "Werewolf_487348",
    "count_view": 0
  },
  {
    "link_thumb": "https://live.staticflickr.com/65535/49710539788_94a0987dc0_n.jpg",
    "id_album": "-1741487325",
    "description": "Cat_970320",
    "title": "Cat_970320",
    "link_img": "https://live.staticflickr.com/65535/49710539788_cb6f166e9b_o.jpg",
    "id_image": "Cat_970320",
    "count_view": 0
  },
  {
    "link_thumb": "https://live.staticflickr.com/65535/49711794947_71bb2e8a34_n.jpg",
    "id_album": "850176884",
    "description": "Dragon_529452",
    "title": "Dragon_529452",
    "link_img": "https://live.staticflickr.com/65535/49711794947_4585eccab6_o.jpg",
    "id_image": "Dragon_529452",
    "count_view": 0
  },
  {
    "link_thumb": "https://live.staticflickr.com/65535/49712166271_3eccf8808b_n.jpg",
    "id_album": "405170427",
    "description": "Tiger_856406",
    "title": "Tiger_856406",
    "link_img": "https://live.staticflickr.com/65535/49712166271_8bf0ff4da9_o.jpg",
    "id_image": "Tiger_856406",
    "count_view": 0
  },
  {
    "link_thumb": "https://live.staticflickr.com/65535/49710622283_ed786ee113_n.jpg",
    "id_album": "-437872736",
    "description": "Creature_213481",
    "title": "Creature_213481",
    "link_img": "https://live.staticflickr.com/65535/49710622283_7cc6c8aec2_o.jpg",
    "id_image": "Creature_213481",
    "count_view": 0
  },
  {
    "link_thumb": "https://live.staticflickr.com/65535/49711780927_17bde68f13_n.jpg",
    "id_album": "850176884",
    "description": "Dragon_486476",
    "title": "Dragon_486476",
    "link_img": "https://live.staticflickr.com/65535/49711780927_2d7e395f9a_o.jpg",
    "id_image": "Dragon_486476",
    "count_view": 0
  },
  {
    "link_thumb": "https://live.staticflickr.com/65535/49711787547_76d4e778e8_n.jpg",
    "id_album": "850176884",
    "description": "Dragon_511411",
    "title": "Dragon_511411",
    "link_img": "https://live.staticflickr.com/65535/49711787547_c731007e76_o.jpg",
    "id_image": "Dragon_511411",
    "count_view": 0
  },
  {
    "link_thumb": "https://live.staticflickr.com/65535/49712414542_ae318e00d3_n.jpg",
    "id_album": "606798642",
    "description": "RedRidingHood_902711",
    "title": "RedRidingHood_902711",
    "link_img": "https://live.staticflickr.com/65535/49712414542_8863ec0258_o.jpg",
    "id_image": "RedRidingHood_902711",
    "count_view": 0
  },
  {
    "link_thumb": "https://live.staticflickr.com/65535/49711564322_6827b78b7c_n.jpg",
    "id_album": "-437872736",
    "description": "Creature_511593",
    "title": "Creature_511593",
    "link_img": "https://live.staticflickr.com/65535/49711564322_44ea9207b2_o.jpg",
    "id_image": "Creature_511593",
    "count_view": 0
  },
  {
    "link_thumb": "https://live.staticflickr.com/65535/49711487551_4dbf6fbff6_n.jpg",
    "id_album": "850176884",
    "description": "Dragon_585535",
    "title": "Dragon_585535",
    "link_img": "https://live.staticflickr.com/65535/49711487551_998b3f6539_o.jpg",
    "id_image": "Dragon_585535",
    "count_view": 0
  },
  {
    "link_thumb": "https://live.staticflickr.com/65535/49711243038_beaf32f5bb_n.jpg",
    "id_album": "469960528",
    "description": "Knight_158925",
    "title": "Knight_158925",
    "link_img": "https://live.staticflickr.com/65535/49711243038_1e870f6d13_o.jpg",
    "id_image": "Knight_158925",
    "count_view": 0
  },
  {
    "link_thumb": "https://live.staticflickr.com/65535/49712652037_345b70553b_n.jpg",
    "id_album": "-1126835654",
    "description": "Women_888666",
    "title": "Women_888666",
    "link_img": "https://live.staticflickr.com/65535/49712652037_d821d259c2_o.jpg",
    "id_image": "Women_888666",
    "count_view": 0
  },
  {
    "link_thumb": "https://live.staticflickr.com/65535/49711850276_a39d13f1c6_n.jpg",
    "id_album": "1402713104",
    "description": "Landscape_880119",
    "title": "Landscape_880119",
    "link_img": "https://live.staticflickr.com/65535/49711850276_aa833f52cc_o.jpg",
    "id_image": "Landscape_880119",
    "count_view": 0
  },
  {
    "link_thumb": "https://live.staticflickr.com/65535/49711468142_2b3f4b0da8_n.jpg",
    "id_album": "-437872736",
    "description": "Creature_147403",
    "title": "Creature_147403",
    "link_img": "https://live.staticflickr.com/65535/49711468142_89d4c503dd_o.jpg",
    "id_image": "Creature_147403",
    "count_view": 0
  },
  {
    "link_thumb": "https://live.staticflickr.com/65535/49711442598_191ff891c8_n.jpg",
    "id_album": "-1284959130",
    "description": "LegendOfTheFiveRings_550176",
    "title": "LegendOfTheFiveRings_550176",
    "link_img": "https://live.staticflickr.com/65535/49711442598_e32c646f5c_o.jpg",
    "id_image": "LegendOfTheFiveRings_550176",
    "count_view": 0
  },
  {
    "link_thumb": "https://live.staticflickr.com/65535/49711811708_d0d93a6198_n.jpg",
    "id_album": "-1126835654",
    "description": "Women_969700",
    "title": "Women_969700",
    "link_img": "https://live.staticflickr.com/65535/49711811708_4d70e04341_o.jpg",
    "id_image": "Women_969700",
    "count_view": 0
  },
  {
    "link_thumb": "https://live.staticflickr.com/65535/49711549302_b198112027_n.jpg",
    "id_album": "-437872736",
    "description": "Creature_385472",
    "title": "Creature_385472",
    "link_img": "https://live.staticflickr.com/65535/49711549302_79a954255c_o.jpg",
    "id_image": "Creature_385472",
    "count_view": 0
  },
  {
    "link_thumb": "https://live.staticflickr.com/65535/49710484828_74c4881400_n.jpg",
    "id_album": "-1846011410",
    "description": "Bird_875303",
    "title": "Bird_875303",
    "link_img": "https://live.staticflickr.com/65535/49710484828_c883096f7f_o.jpg",
    "id_image": "Bird_875303",
    "count_view": 0
  },
  {
    "link_thumb": "https://live.staticflickr.com/65535/49711793486_d47f481969_n.jpg",
    "id_album": "1402713104",
    "description": "Landscape_637175",
    "title": "Landscape_637175",
    "link_img": "https://live.staticflickr.com/65535/49711793486_ef0a17912d_o.jpg",
    "id_image": "Landscape_637175",
    "count_view": 0
  },
  {
    "link_thumb": "https://live.staticflickr.com/65535/49710983926_f2d457d1d6_n.jpg",
    "id_album": "1187037014",
    "description": "Battle_168620",
    "title": "Battle_168620",
    "link_img": "https://live.staticflickr.com/65535/49710983926_251e314efd_o.jpg",
    "id_image": "Battle_168620",
    "count_view": 0
  },
  {
    "link_thumb": "https://live.staticflickr.com/65535/49711165441_c948cf51f2_n.jpg",
    "id_album": "-437872736",
    "description": "Creature_242065",
    "title": "Creature_242065",
    "link_img": "https://live.staticflickr.com/65535/49711165441_2b2e3184a4_o.jpg",
    "id_image": "Creature_242065",
    "count_view": 0
  },
  {
    "link_thumb": "https://live.staticflickr.com/65535/49711870793_f7b3f6d209_n.jpg",
    "id_album": "295204930",
    "description": "Women_702751",
    "title": "Women_702751",
    "link_img": "https://live.staticflickr.com/65535/49711870793_6e548ed14d_o.jpg",
    "id_image": "Women_702751",
    "count_view": 0
  },
  {
    "link_thumb": "https://live.staticflickr.com/65535/49710863526_16f85524c2_n.jpg",
    "id_album": "-2109465612",
    "description": "Adventure_244600",
    "title": "Adventure_244600",
    "link_img": "https://live.staticflickr.com/65535/49710863526_e65c9b174d_o.jpg",
    "id_image": "Adventure_244600",
    "count_view": 0
  },
  {
    "link_thumb": "https://live.staticflickr.com/65535/49711664181_c50b175162_n.jpg",
    "id_album": "-1972042284",
    "description": "Fairy_395552",
    "title": "Fairy_395552",
    "link_img": "https://live.staticflickr.com/65535/49711664181_dbe9a712de_o.jpg",
    "id_image": "Fairy_395552",
    "count_view": 0
  },
  {
    "link_thumb": "https://live.staticflickr.com/65535/49711858481_7f0bcbbf05_n.jpg",
    "id_album": "1402713104",
    "description": "Landscape_923151",
    "title": "Landscape_923151",
    "link_img": "https://live.staticflickr.com/65535/49711858481_6ebe8af137_o.jpg",
    "id_image": "Landscape_923151",
    "count_view": 0
  },
  {
    "link_thumb": "https://live.staticflickr.com/65535/49712160556_52bdc59179_n.jpg",
    "id_album": "405170427",
    "description": "Tiger_591186",
    "title": "Tiger_591186",
    "link_img": "https://live.staticflickr.com/65535/49712160556_5b2e16912c_o.jpg",
    "id_image": "Tiger_591186",
    "count_view": 0
  },
  {
    "link_thumb": "https://live.staticflickr.com/65535/49711356011_5fc32da46f_n.jpg",
    "id_album": "850176884",
    "description": "Dragon_114895",
    "title": "Dragon_114895",
    "link_img": "https://live.staticflickr.com/65535/49711356011_394f3b4112_o.jpg",
    "id_image": "Dragon_114895",
    "count_view": 0
  },
  {
    "link_thumb": "https://live.staticflickr.com/65535/49712046156_9f77756489_n.jpg",
    "id_album": "1892085513",
    "description": "Oriental_546593",
    "title": "Oriental_546593",
    "link_img": "https://live.staticflickr.com/65535/49712046156_a73c83f905_o.jpg",
    "id_image": "Oriental_546593",
    "count_view": 0
  },
  {
    "link_thumb": "https://live.staticflickr.com/65535/49711795717_4c6b910c89_n.jpg",
    "id_album": "850176884",
    "description": "Dragon_531439",
    "title": "Dragon_531439",
    "link_img": "https://live.staticflickr.com/65535/49711795717_9e1e7cdf66_o.jpg",
    "id_image": "Dragon_531439",
    "count_view": 0
  },
  {
    "link_thumb": "https://live.staticflickr.com/65535/49711113703_e68399e920_n.jpg",
    "id_album": "-1972042284",
    "description": "Fairy_197025",
    "title": "Fairy_197025",
    "link_img": "https://live.staticflickr.com/65535/49711113703_8846dfa50b_o.jpg",
    "id_image": "Fairy_197025",
    "count_view": 0
  },
  {
    "link_thumb": "https://live.staticflickr.com/65535/49710957936_ee4fb2131a_n.jpg",
    "id_album": "523598895",
    "description": "Artistic_270228",
    "title": "Artistic_270228",
    "link_img": "https://live.staticflickr.com/65535/49710957936_d19edac02a_o.jpg",
    "id_image": "Artistic_270228",
    "count_view": 0
  },
  {
    "link_thumb": "https://live.staticflickr.com/65535/49712008357_dba5603071_n.jpg",
    "id_album": "-1972042284",
    "description": "Fairy_899274",
    "title": "Fairy_899274",
    "link_img": "https://live.staticflickr.com/65535/49712008357_25015c5ef7_o.jpg",
    "id_image": "Fairy_899274",
    "count_view": 0
  },
  {
    "link_thumb": "https://live.staticflickr.com/65535/49711209238_28833327b7_n.jpg",
    "id_album": "1131236559",
    "description": "Gods_256652",
    "title": "Gods_256652",
    "link_img": "https://live.staticflickr.com/65535/49711209238_49d934b3e2_o.jpg",
    "id_image": "Gods_256652",
    "count_view": 0
  },
  {
    "link_thumb": "https://live.staticflickr.com/65535/49710973021_ffbc552998_n.jpg",
    "id_album": "523598895",
    "description": "Artistic_552923",
    "title": "Artistic_552923",
    "link_img": "https://live.staticflickr.com/65535/49710973021_37716e7784_o.jpg",
    "id_image": "Artistic_552923",
    "count_view": 0
  },
  {
    "link_thumb": "https://live.staticflickr.com/65535/49712444267_deca817cc9_n.jpg",
    "id_album": "407101116",
    "description": "SeaMonster_407801",
    "title": "SeaMonster_407801",
    "link_img": "https://live.staticflickr.com/65535/49712444267_21abfdeef3_o.jpg",
    "id_image": "SeaMonster_407801",
    "count_view": 0
  },
  {
    "link_thumb": "https://live.staticflickr.com/65535/49710812353_47f269751b_n.jpg",
    "id_album": "850176884",
    "description": "DRAGON26101916494419",
    "title": "DRAGON26101916494419",
    "link_img": "https://live.staticflickr.com/65535/49710812353_2a1babdac7_o.jpg",
    "id_image": "DRAGON26101916494419",
    "count_view": 0
  },
  {
    "link_thumb": "https://live.staticflickr.com/65535/49711507571_7c3dfec25c_n.jpg",
    "id_album": "850176884",
    "description": "Dragon_692327",
    "title": "Dragon_692327",
    "link_img": "https://live.staticflickr.com/65535/49711507571_22c258f563_o.jpg",
    "id_image": "Dragon_692327",
    "count_view": 0
  },
  {
    "link_thumb": "https://live.staticflickr.com/65535/49711781708_e6a0b65b16_n.jpg",
    "id_album": "-1126835654",
    "description": "Women_875492",
    "title": "Women_875492",
    "link_img": "https://live.staticflickr.com/65535/49711781708_2b2ffb85d8_o.jpg",
    "id_image": "Women_875492",
    "count_view": 0
  },
  {
    "link_thumb": "https://live.staticflickr.com/65535/49712564287_be7a404667_n.jpg",
    "id_album": "1173975892",
    "description": "Werewolf_178654",
    "title": "Werewolf_178654",
    "link_img": "https://live.staticflickr.com/65535/49712564287_dfb9dc62cb_o.jpg",
    "id_image": "Werewolf_178654",
    "count_view": 0
  },
  {
    "link_thumb": "https://live.staticflickr.com/65535/49711256336_32542d886d_n.jpg",
    "id_album": "-437872736",
    "description": "Creature_655693",
    "title": "Creature_655693",
    "link_img": "https://live.staticflickr.com/65535/49711256336_7ec53d3032_o.jpg",
    "id_image": "Creature_655693",
    "count_view": 0
  },
  {
    "link_thumb": "https://live.staticflickr.com/65535/49711277472_3c88c35392_n.jpg",
    "id_album": "523598895",
    "description": "Artistic_214280",
    "title": "Artistic_214280",
    "link_img": "https://live.staticflickr.com/65535/49711277472_3dc43f32ec_o.jpg",
    "id_image": "Artistic_214280",
    "count_view": 0
  },
  {
    "link_thumb": "https://live.staticflickr.com/65535/49712380961_93d8a666d1_n.jpg",
    "id_album": "295204930",
    "description": "Women_341480",
    "title": "Women_341480",
    "link_img": "https://live.staticflickr.com/65535/49712380961_43f684b524_o.jpg",
    "id_image": "Women_341480",
    "count_view": 0
  },
  {
    "link_thumb": "https://live.staticflickr.com/65535/49711900723_5881165135_n.jpg",
    "id_album": "1861288871",
    "description": "Women_226294",
    "title": "Women_226294",
    "link_img": "https://live.staticflickr.com/65535/49711900723_ebeee2cd4f_o.jpg",
    "id_image": "Women_226294",
    "count_view": 0
  },
  {
    "link_thumb": "https://live.staticflickr.com/65535/49710882563_a8166f98ee_n.jpg",
    "id_album": "850176884",
    "description": "Dragon_320297",
    "title": "Dragon_320297",
    "link_img": "https://live.staticflickr.com/65535/49710882563_864d8e9c7c_o.jpg",
    "id_image": "Dragon_320297",
    "count_view": 0
  },
  {
    "link_thumb": "https://live.staticflickr.com/65535/49712414806_97be629f18_n.jpg",
    "id_album": "295204930",
    "description": "Women_719150",
    "title": "Women_719150",
    "link_img": "https://live.staticflickr.com/65535/49712414806_2739f722eb_o.jpg",
    "id_image": "Women_719150",
    "count_view": 0
  },
  {
    "link_thumb": "https://live.staticflickr.com/65535/49711684342_5fc9d90008_n.jpg",
    "id_album": "850176884",
    "description": "Dragon_122304",
    "title": "Dragon_122304",
    "link_img": "https://live.staticflickr.com/65535/49711684342_e6b9375dbb_o.jpg",
    "id_image": "Dragon_122304",
    "count_view": 0
  },
  {
    "link_thumb": "https://live.staticflickr.com/65535/49711413827_98c8cb79e6_n.jpg",
    "id_album": "-1964113117",
    "description": "City_159121",
    "title": "City_159121",
    "link_img": "https://live.staticflickr.com/65535/49711413827_23a55614e1_o.jpg",
    "id_image": "City_159121",
    "count_view": 0
  },
  {
    "link_thumb": "https://live.staticflickr.com/65535/49711522383_d804bf1485_n.jpg",
    "id_album": "-1862561193",
    "description": "Other_304651",
    "title": "Other_304651",
    "link_img": "https://live.staticflickr.com/65535/49711522383_311538dd6b_o.jpg",
    "id_image": "Other_304651",
    "count_view": 0
  },
  {
    "link_thumb": "https://live.staticflickr.com/65535/49711765458_62459a1330_n.jpg",
    "id_album": "-709711865",
    "description": "Wolf_982488",
    "title": "Wolf_982488",
    "link_img": "https://live.staticflickr.com/65535/49711765458_e1b9a617d5_o.jpg",
    "id_image": "Wolf_982488",
    "count_view": 0
  },
  {
    "link_thumb": "https://live.staticflickr.com/65535/49711167306_b279d94131_n.jpg",
    "id_album": "-437872736",
    "description": "Creature_253511",
    "title": "Creature_253511",
    "link_img": "https://live.staticflickr.com/65535/49711167306_db98a46ec5_o.jpg",
    "id_image": "Creature_253511",
    "count_view": 0
  },
  {
    "link_thumb": "https://live.staticflickr.com/65535/49711465801_568b105296_n.jpg",
    "id_album": "850176884",
    "description": "Dragon_509424",
    "title": "Dragon_509424",
    "link_img": "https://live.staticflickr.com/65535/49711465801_0ea5319386_o.jpg",
    "id_image": "Dragon_509424",
    "count_view": 0
  },
  {
    "link_thumb": "https://live.staticflickr.com/65535/49712797992_b5d5106c3b_n.jpg",
    "id_album": "1861288871",
    "description": "Women_807616",
    "title": "Women_807616",
    "link_img": "https://live.staticflickr.com/65535/49712797992_5465b8bd28_o.jpg",
    "id_image": "Women_807616",
    "count_view": 0
  },
  {
    "link_thumb": "https://live.staticflickr.com/65535/49711495802_1134c92cbe_n.jpg",
    "id_album": "-437872736",
    "description": "Creature_267639",
    "title": "Creature_267639",
    "link_img": "https://live.staticflickr.com/65535/49711495802_b369b5dd32_o.jpg",
    "id_image": "Creature_267639",
    "count_view": 0
  },
  {
    "link_thumb": "https://live.staticflickr.com/65535/49712081962_4bef488d72_n.jpg",
    "id_album": "-1933715543",
    "description": "Horse_616408",
    "title": "Horse_616408",
    "link_img": "https://live.staticflickr.com/65535/49712081962_6e86536d9d_o.jpg",
    "id_image": "Horse_616408",
    "count_view": 0
  },
  {
    "link_thumb": "https://live.staticflickr.com/65535/49711464272_bd8a91fec6_n.jpg",
    "id_album": "-437872736",
    "description": "Creature_115642",
    "title": "Creature_115642",
    "link_img": "https://live.staticflickr.com/65535/49711464272_154d931189_o.jpg",
    "id_image": "Creature_115642",
    "count_view": 0
  },
  {
    "link_thumb": "https://live.staticflickr.com/65535/49710866578_fd41516132_n.jpg",
    "id_album": "850176884",
    "description": "Dragon_259402",
    "title": "Dragon_259402",
    "link_img": "https://live.staticflickr.com/65535/49710866578_94ecc546fa_o.jpg",
    "id_image": "Dragon_259402",
    "count_view": 0
  },
  {
    "link_thumb": "https://live.staticflickr.com/65535/49711495986_1fe74b9c69_n.jpg",
    "id_album": "850176884",
    "description": "Dragon_605712",
    "title": "Dragon_605712",
    "link_img": "https://live.staticflickr.com/65535/49711495986_62d785f486_o.jpg",
    "id_image": "Dragon_605712",
    "count_view": 0
  },
  {
    "link_thumb": "https://live.staticflickr.com/65535/49712279757_10dc2287fe_n.jpg",
    "id_album": "-833110404",
    "description": "Landscape_515081",
    "title": "Landscape_515081",
    "link_img": "https://live.staticflickr.com/65535/49712279757_148f619a1a_o.jpg",
    "id_image": "Landscape_515081",
    "count_view": 0
  },
  {
    "link_thumb": "https://live.staticflickr.com/65535/49711091036_9e6d6dd311_n.jpg",
    "id_album": "-1964113117",
    "description": "City_202510",
    "title": "City_202510",
    "link_img": "https://live.staticflickr.com/65535/49711091036_acdbfac9e6_o.jpg",
    "id_image": "City_202510",
    "count_view": 0
  },
  {
    "link_thumb": "https://live.staticflickr.com/65535/49712672657_c9f85df979_n.jpg",
    "id_album": "-1126835654",
    "description": "Women_993002",
    "title": "Women_993002",
    "link_img": "https://live.staticflickr.com/65535/49712672657_16ff7b2ccd_o.jpg",
    "id_image": "Women_993002",
    "count_view": 0
  },
  {
    "link_thumb": "https://live.staticflickr.com/65535/49710846833_6bf6b26d9d_n.jpg",
    "id_album": "850176884",
    "description": "Dragon_199303",
    "title": "Dragon_199303",
    "link_img": "https://live.staticflickr.com/65535/49710846833_39682ffdc0_o.jpg",
    "id_image": "Dragon_199303",
    "count_view": 0
  },
  {
    "link_thumb": "https://live.staticflickr.com/65535/49712532532_91ef357c4c_n.jpg",
    "id_album": "-1261420436",
    "description": "Warrior_552099",
    "title": "Warrior_552099",
    "link_img": "https://live.staticflickr.com/65535/49712532532_87313fafe3_o.jpg",
    "id_image": "Warrior_552099",
    "count_view": 0
  },
  {
    "link_thumb": "https://live.staticflickr.com/65535/49710996121_db180ab44c_n.jpg",
    "id_album": "1187037014",
    "description": "Battle_378320",
    "title": "Battle_378320",
    "link_img": "https://live.staticflickr.com/65535/49710996121_48c7ecc674_o.jpg",
    "id_image": "Battle_378320",
    "count_view": 0
  },
  {
    "link_thumb": "https://live.staticflickr.com/65535/49710931168_e82e7e8b16_n.jpg",
    "id_album": "850176884",
    "description": "Dragon_512111",
    "title": "Dragon_512111",
    "link_img": "https://live.staticflickr.com/65535/49710931168_1e8fab47ce_o.jpg",
    "id_image": "Dragon_512111",
    "count_view": 0
  },
  {
    "link_thumb": "https://live.staticflickr.com/65535/49710944813_503ac63f70_n.jpg",
    "id_album": "850176884",
    "description": "Dragon_557556",
    "title": "Dragon_557556",
    "link_img": "https://live.staticflickr.com/65535/49710944813_b2def05631_o.jpg",
    "id_image": "Dragon_557556",
    "count_view": 0
  },
  {
    "link_thumb": "https://live.staticflickr.com/65535/49711690013_59b6f4dea7_n.jpg",
    "id_album": "-1261420436",
    "description": "Warrior_804233",
    "title": "Warrior_804233",
    "link_img": "https://live.staticflickr.com/65535/49711690013_ec6378876e_o.jpg",
    "id_image": "Warrior_804233",
    "count_view": 0
  },
  {
    "link_thumb": "https://live.staticflickr.com/65535/49712520937_a8d03a02b9_n.jpg",
    "id_album": "-1261420436",
    "description": "Warrior_172441",
    "title": "Warrior_172441",
    "link_img": "https://live.staticflickr.com/65535/49712520937_7f0106a376_o.jpg",
    "id_image": "Warrior_172441",
    "count_view": 0
  },
  {
    "link_thumb": "https://live.staticflickr.com/65535/49711915903_0f5b8e22ae_n.jpg",
    "id_album": "1861288871",
    "description": "Women_745871",
    "title": "Women_745871",
    "link_img": "https://live.staticflickr.com/65535/49711915903_f7ae4fdd46_o.jpg",
    "id_image": "Women_745871",
    "count_view": 0
  },
  {
    "link_thumb": "https://live.staticflickr.com/65535/49710993123_b9bf478a69_n.jpg",
    "id_album": "850176884",
    "description": "Dragon_798362",
    "title": "Dragon_798362",
    "link_img": "https://live.staticflickr.com/65535/49710993123_ddb002e216_o.jpg",
    "id_image": "Dragon_798362",
    "count_view": 0
  },
  {
    "link_thumb": "https://live.staticflickr.com/65535/49712458191_e1a4d55f22_n.jpg",
    "id_album": "1861288871",
    "description": "Women_764590",
    "title": "Women_764590",
    "link_img": "https://live.staticflickr.com/65535/49712458191_8ebb85458a_o.jpg",
    "id_image": "Women_764590",
    "count_view": 0
  },
  {
    "link_thumb": "https://live.staticflickr.com/65535/49712201386_f16efdd7a8_n.jpg",
    "id_album": "-1261420436",
    "description": "Warrior_224924",
    "title": "Warrior_224924",
    "link_img": "https://live.staticflickr.com/65535/49712201386_2698b3a23b_o.jpg",
    "id_image": "Warrior_224924",
    "count_view": 0
  },
  {
    "link_thumb": "https://live.staticflickr.com/65535/49712295667_5788981a1d_n.jpg",
    "id_album": "-833110404",
    "description": "Landscape_612120",
    "title": "Landscape_612120",
    "link_img": "https://live.staticflickr.com/65535/49712295667_a54670ac1a_o.jpg",
    "id_image": "Landscape_612120",
    "count_view": 0
  },
  {
    "link_thumb": "https://live.staticflickr.com/65535/49711552748_c5f5f950ea_n.jpg",
    "id_album": "606798642",
    "description": "RedRidingHood_118492",
    "title": "RedRidingHood_118492",
    "link_img": "https://live.staticflickr.com/65535/49711552748_3b60e004fb_o.jpg",
    "id_image": "RedRidingHood_118492",
    "count_view": 0
  },
  {
    "link_thumb": "https://live.staticflickr.com/65535/49711379033_1e43d9a4f7_n.jpg",
    "id_album": "-833110404",
    "description": "Landscape_289745",
    "title": "Landscape_289745",
    "link_img": "https://live.staticflickr.com/65535/49711379033_2c39f69f7f_o.jpg",
    "id_image": "Landscape_289745",
    "count_view": 0
  },
  {
    "link_thumb": "https://live.staticflickr.com/65535/49710607343_2090d8ae2d_n.jpg",
    "id_album": "-437872736",
    "description": "Creature_146035",
    "title": "Creature_146035",
    "link_img": "https://live.staticflickr.com/65535/49710607343_5d2b384ca4_o.jpg",
    "id_image": "Creature_146035",
    "count_view": 0
  },
  {
    "link_thumb": "https://live.staticflickr.com/65535/49711188182_fd519d5b2a_n.jpg",
    "id_album": "-2109465612",
    "description": "Adventure_251215",
    "title": "Adventure_251215",
    "link_img": "https://live.staticflickr.com/65535/49711188182_c5f8fe5814_o.jpg",
    "id_image": "Adventure_251215",
    "count_view": 0
  },
  {
    "link_thumb": "https://live.staticflickr.com/65535/49711331811_74273252c4_n.jpg",
    "id_album": "1903411565",
    "description": "Deer_997948",
    "title": "Deer_997948",
    "link_img": "https://live.staticflickr.com/65535/49711331811_a917be6d7b_o.jpg",
    "id_image": "Deer_997948",
    "count_view": 0
  },
  {
    "link_thumb": "https://live.staticflickr.com/65535/49711093506_3de258fe00_n.jpg",
    "id_album": "-1964113117",
    "description": "City_272694",
    "title": "City_272694",
    "link_img": "https://live.staticflickr.com/65535/49711093506_90791b332f_o.jpg",
    "id_image": "City_272694",
    "count_view": 0
  },
  {
    "link_thumb": "https://live.staticflickr.com/65535/49711658097_fb03bff899_n.jpg",
    "id_album": "7198985",
    "description": "Demon_237721",
    "title": "Demon_237721",
    "link_img": "https://live.staticflickr.com/65535/49711658097_544cf5946f_o.jpg",
    "id_image": "Demon_237721",
    "count_view": 0
  },
  {
    "link_thumb": "https://live.staticflickr.com/65535/49711790931_3cfbc11459_n.jpg",
    "id_album": "469960528",
    "description": "Knight_964224",
    "title": "Knight_964224",
    "link_img": "https://live.staticflickr.com/65535/49711790931_79bbba3df5_o.jpg",
    "id_image": "Knight_964224",
    "count_view": 0
  },
  {
    "link_thumb": "https://live.staticflickr.com/65535/49712638507_cf4518f372_n.jpg",
    "id_album": "-1126835654",
    "description": "Women_875326",
    "title": "Women_875326",
    "link_img": "https://live.staticflickr.com/65535/49712638507_cc01cba98c_o.jpg",
    "id_image": "Women_875326",
    "count_view": 0
  },
  {
    "link_thumb": "https://live.staticflickr.com/65535/49710985193_fd4403e3f5_n.jpg",
    "id_album": "850176884",
    "description": "Dragon_755499",
    "title": "Dragon_755499",
    "link_img": "https://live.staticflickr.com/65535/49710985193_71c4577e06_o.jpg",
    "id_image": "Dragon_755499",
    "count_view": 0
  },
  {
    "link_thumb": "https://live.staticflickr.com/65535/49711496587_f5452f763a_n.jpg",
    "id_album": "-437872736",
    "description": "Creature_269285",
    "title": "Creature_269285",
    "link_img": "https://live.staticflickr.com/65535/49711496587_f01e8d327e_o.jpg",
    "id_image": "Creature_269285",
    "count_view": 0
  },
  {
    "link_thumb": "https://live.staticflickr.com/65535/49711160536_ac6c285ab4_n.jpg",
    "id_album": "-437872736",
    "description": "Creature_224875",
    "title": "Creature_224875",
    "link_img": "https://live.staticflickr.com/65535/49711160536_b932746718_o.jpg",
    "id_image": "Creature_224875",
    "count_view": 0
  },
  {
    "link_thumb": "https://live.staticflickr.com/65535/49712829977_0ce492d14a_n.jpg",
    "id_album": "-867594484",
    "description": "Women_559918",
    "title": "Women_559918",
    "link_img": "https://live.staticflickr.com/65535/49712829977_b85eb4862a_o.jpg",
    "id_image": "Women_559918",
    "count_view": 0
  },
  {
    "link_thumb": "https://live.staticflickr.com/65535/49710442308_b40a8a7eb3_n.jpg",
    "id_album": "523598895",
    "description": "Artistic_617868",
    "title": "Artistic_617868",
    "link_img": "https://live.staticflickr.com/65535/49710442308_0261c3e757_o.jpg",
    "id_image": "Artistic_617868",
    "count_view": 0
  },
  {
    "link_thumb": "https://live.staticflickr.com/65535/49711858467_c37261af02_n.jpg",
    "id_album": "850176884",
    "description": "Dragon_857305",
    "title": "Dragon_857305",
    "link_img": "https://live.staticflickr.com/65535/49711858467_2931dce94a_o.jpg",
    "id_image": "Dragon_857305",
    "count_view": 0
  },
  {
    "link_thumb": "https://live.staticflickr.com/65535/49710330283_6649362a2f_n.jpg",
    "id_album": "-2109465612",
    "description": "Adventure_251105",
    "title": "Adventure_251105",
    "link_img": "https://live.staticflickr.com/65535/49710330283_70c9f4f5cd_o.jpg",
    "id_image": "Adventure_251105",
    "count_view": 0
  },
  {
    "link_thumb": "https://live.staticflickr.com/65535/49711429388_8488075fc7_n.jpg",
    "id_album": "-833110404",
    "description": "Landscape_546254",
    "title": "Landscape_546254",
    "link_img": "https://live.staticflickr.com/65535/49711429388_102655af98_o.jpg",
    "id_image": "Landscape_546254",
    "count_view": 0
  },
  {
    "link_thumb": "https://live.staticflickr.com/65535/49710497678_a31462a059_n.jpg",
    "id_album": "-1541846310",
    "description": "Castle_145934",
    "title": "Castle_145934",
    "link_img": "https://live.staticflickr.com/65535/49710497678_888fce9322_o.jpg",
    "id_image": "Castle_145934",
    "count_view": 0
  },
  {
    "link_thumb": "https://live.staticflickr.com/65535/49712305122_f73fdbbd31_n.jpg",
    "id_album": "416744915",
    "description": "Lion_696555",
    "title": "Lion_696555",
    "link_img": "https://live.staticflickr.com/65535/49712305122_09d5012b9c_o.jpg",
    "id_image": "Lion_696555",
    "count_view": 0
  },
  {
    "link_thumb": "https://live.staticflickr.com/65535/49711644011_5d0b027aa2_n.jpg",
    "id_album": "-1972042284",
    "description": "Fairy_103856",
    "title": "Fairy_103856",
    "link_img": "https://live.staticflickr.com/65535/49711644011_ae5acaa169_o.jpg",
    "id_image": "Fairy_103856",
    "count_view": 0
  },
  {
    "link_thumb": "https://live.staticflickr.com/65535/49710778418_17c4953e01_n.jpg",
    "id_album": "2021464556",
    "description": "Dark_186020",
    "title": "Dark_186020",
    "link_img": "https://live.staticflickr.com/65535/49710778418_a7b34781bb_o.jpg",
    "id_image": "Dark_186020",
    "count_view": 0
  },
  {
    "link_thumb": "https://live.staticflickr.com/65535/49710813628_86c8100942_n.jpg",
    "id_album": "850176884",
    "description": "DRAGON26101916500129",
    "title": "DRAGON26101916500129",
    "link_img": "https://live.staticflickr.com/65535/49710813628_3d9e44ac00_o.jpg",
    "id_image": "DRAGON26101916500129",
    "count_view": 0
  },
  {
    "link_thumb": "https://live.staticflickr.com/65535/49710972621_4b4402785a_n.jpg",
    "id_album": "523598895",
    "description": "Artistic_548396",
    "title": "Artistic_548396",
    "link_img": "https://live.staticflickr.com/65535/49710972621_36454745b6_o.jpg",
    "id_image": "Artistic_548396",
    "count_view": 0
  },
  {
    "link_thumb": "https://live.staticflickr.com/65535/49710982298_d186f9ed42_n.jpg",
    "id_album": "850176884",
    "description": "Dragon_732386",
    "title": "Dragon_732386",
    "link_img": "https://live.staticflickr.com/65535/49710982298_79b9f3d81a_o.jpg",
    "id_image": "Dragon_732386",
    "count_view": 0
  },
  {
    "link_thumb": "https://live.staticflickr.com/65535/49711315252_b2bf4974d1_n.jpg",
    "id_album": "1187037014",
    "description": "Battle_306031",
    "title": "Battle_306031",
    "link_img": "https://live.staticflickr.com/65535/49711315252_74ef938e21_o.jpg",
    "id_image": "Battle_306031",
    "count_view": 0
  },
  {
    "link_thumb": "https://live.staticflickr.com/65535/49711467753_e4724e1462_n.jpg",
    "id_album": "-1613076477",
    "description": "Magic_552093",
    "title": "Magic_552093",
    "link_img": "https://live.staticflickr.com/65535/49711467753_b04868f636_o.jpg",
    "id_image": "Magic_552093",
    "count_view": 0
  },
  {
    "link_thumb": "https://live.staticflickr.com/65535/49711784687_dd672619df_n.jpg",
    "id_album": "850176884",
    "description": "Dragon_497457",
    "title": "Dragon_497457",
    "link_img": "https://live.staticflickr.com/65535/49711784687_aba43d9a67_o.jpg",
    "id_image": "Dragon_497457",
    "count_view": 0
  },
  {
    "link_thumb": "https://live.staticflickr.com/65535/49712072246_9ae53e6555_n.jpg",
    "id_album": "-1326601535",
    "description": "Phoenix_391648",
    "title": "Phoenix_391648",
    "link_img": "https://live.staticflickr.com/65535/49712072246_f118e8f044_o.jpg",
    "id_image": "Phoenix_391648",
    "count_view": 0
  },
  {
    "link_thumb": "https://live.staticflickr.com/65535/49710560548_271b88be8c_n.jpg",
    "id_album": "-1964113117",
    "description": "City_304908",
    "title": "City_304908",
    "link_img": "https://live.staticflickr.com/65535/49710560548_9fdf3c6861_o.jpg",
    "id_image": "City_304908",
    "count_view": 0
  },
  {
    "link_thumb": "https://live.staticflickr.com/65535/49711750898_abb914b169_n.jpg",
    "id_album": "-709711865",
    "description": "Wolf_675197",
    "title": "Wolf_675197",
    "link_img": "https://live.staticflickr.com/65535/49711750898_062c6fcb52_o.jpg",
    "id_image": "Wolf_675197",
    "count_view": 0
  },
  {
    "link_thumb": "https://live.staticflickr.com/65535/49710568273_6ee6a0bcaa_n.jpg",
    "id_album": "-1964113117",
    "description": "City_504694",
    "title": "City_504694",
    "link_img": "https://live.staticflickr.com/65535/49710568273_90200c8a6a_o.jpg",
    "id_image": "City_504694",
    "count_view": 0
  },
  {
    "link_thumb": "https://live.staticflickr.com/65535/49711086543_1a4e8e5cfb_n.jpg",
    "id_album": "134100487",
    "description": "Elf_582404",
    "title": "Elf_582404",
    "link_img": "https://live.staticflickr.com/65535/49711086543_9ce14c30b7_o.jpg",
    "id_image": "Elf_582404",
    "count_view": 0
  },
  {
    "link_thumb": "https://live.staticflickr.com/65535/49711329778_8d21ee8ef0_n.jpg",
    "id_album": "1402713104",
    "description": "Landscape_944311",
    "title": "Landscape_944311",
    "link_img": "https://live.staticflickr.com/65535/49711329778_7454161021_o.jpg",
    "id_image": "Landscape_944311",
    "count_view": 0
  },
  {
    "link_thumb": "https://live.staticflickr.com/65535/49711185652_95c44bda7c_n.jpg",
    "id_album": "-2109465612",
    "description": "Adventure_239590",
    "title": "Adventure_239590",
    "link_img": "https://live.staticflickr.com/65535/49711185652_287af22460_o.jpg",
    "id_image": "Adventure_239590",
    "count_view": 0
  },
  {
    "link_thumb": "https://live.staticflickr.com/65535/49712134786_79369d8ea0_n.jpg",
    "id_album": "-395228614",
    "description": "Ship_432327",
    "title": "Ship_432327",
    "link_img": "https://live.staticflickr.com/65535/49712134786_44a3d44200_o.jpg",
    "id_image": "Ship_432327",
    "count_view": 0
  },
  {
    "link_thumb": "https://live.staticflickr.com/65535/49710560703_1e709ff4a3_n.jpg",
    "id_album": "-1964113117",
    "description": "City_309171",
    "title": "City_309171",
    "link_img": "https://live.staticflickr.com/65535/49710560703_d6e84e9a81_o.jpg",
    "id_image": "City_309171",
    "count_view": 0
  },
  {
    "link_thumb": "https://live.staticflickr.com/65535/49711897506_90dd98b666_n.jpg",
    "id_album": "-833110404",
    "description": "Landscape_245368",
    "title": "Landscape_245368",
    "link_img": "https://live.staticflickr.com/65535/49711897506_a32cc9cb5a_o.jpg",
    "id_image": "Landscape_245368",
    "count_view": 0
  },
  {
    "link_thumb": "https://live.staticflickr.com/65535/49711320762_c7ba994870_n.jpg",
    "id_album": "1187037014",
    "description": "Battle_382322",
    "title": "Battle_382322",
    "link_img": "https://live.staticflickr.com/65535/49711320762_dd0ccc6101_o.jpg",
    "id_image": "Battle_382322",
    "count_view": 0
  },
  {
    "link_thumb": "https://live.staticflickr.com/65535/49711418346_2f62d6049c_n.jpg",
    "id_album": "850176884",
    "description": "Dragon_316346",
    "title": "Dragon_316346",
    "link_img": "https://live.staticflickr.com/65535/49711418346_9f8c302b20_o.jpg",
    "id_image": "Dragon_316346",
    "count_view": 0
  },
  {
    "link_thumb": "https://live.staticflickr.com/65535/49711705717_7cbe26f272_n.jpg",
    "id_album": "850176884",
    "description": "Dragon_199621",
    "title": "Dragon_199621",
    "link_img": "https://live.staticflickr.com/65535/49711705717_01fdea4afe_o.jpg",
    "id_image": "Dragon_199621",
    "count_view": 0
  },
  {
    "link_thumb": "https://live.staticflickr.com/65535/49711407282_80d0c49f9a_n.jpg",
    "id_album": "430704260",
    "description": "Child_857921",
    "title": "Child_857921",
    "link_img": "https://live.staticflickr.com/65535/49711407282_19fd326e7e_o.jpg",
    "id_image": "Child_857921",
    "count_view": 0
  },
  {
    "link_thumb": "https://live.staticflickr.com/65535/49911831303_9e3b3545f3_n.jpg",
    "id_album": "-1703946758",
    "description": "ANIME_PIC_5b056a660f8f555b6a8db7d6f7d7da2a",
    "title": "ANIME_PIC_5b056a660f8f555b6a8db7d6f7d7da2a",
    "link_img": "https://live.staticflickr.com/65535/49911831303_5f0981316c_o.jpg",
    "id_image": "ANIME_PIC_5b056a660f8f555b6a8db7d6f7d7da2a",
    "count_view": 0
  },
  {
    "link_thumb": "https://live.staticflickr.com/65535/49710820768_94fabb5fe1_n.jpg",
    "id_album": "850176884",
    "description": "Dragon_114865",
    "title": "Dragon_114865",
    "link_img": "https://live.staticflickr.com/65535/49710820768_cc2abbbacd_o.jpg",
    "id_image": "Dragon_114865",
    "count_view": 0
  },
  {
    "link_thumb": "https://live.staticflickr.com/65535/49712136942_c9b4af4aa0_n.jpg",
    "id_album": "1402713104",
    "description": "Landscape_732266",
    "title": "Landscape_732266",
    "link_img": "https://live.staticflickr.com/65535/49712136942_3c57381f49_o.jpg",
    "id_image": "Landscape_732266",
    "count_view": 0
  },
  {
    "link_thumb": "https://live.staticflickr.com/65535/49711667488_4caeb0a0db_n.jpg",
    "id_album": "-1261420436",
    "description": "Warrior_253008",
    "title": "Warrior_253008",
    "link_img": "https://live.staticflickr.com/65535/49711667488_72848cb4ac_o.jpg",
    "id_image": "Warrior_253008",
    "count_view": 0
  },
  {
    "link_thumb": "https://live.staticflickr.com/65535/49726862833_9fd8f500d3_n.jpg",
    "id_album": "-1541846310",
    "description": "Castle_159445",
    "title": "Castle_159445",
    "link_img": "https://live.staticflickr.com/65535/49726862833_29bb7aec42_o.jpg",
    "id_image": "Castle_159445",
    "count_view": 0
  },
  {
    "link_thumb": "https://live.staticflickr.com/65535/49710497333_4d8690d3b6_n.jpg",
    "id_album": "-1541846310",
    "description": "Castle_145205",
    "title": "Castle_145205",
    "link_img": "https://live.staticflickr.com/65535/49710497333_352aa754dd_o.jpg",
    "id_image": "Castle_145205",
    "count_view": 0
  },
  {
    "link_thumb": "https://live.staticflickr.com/65535/49712360432_6a36819825_n.jpg",
    "id_album": "1892085513",
    "description": "Oriental_252441",
    "title": "Oriental_252441",
    "link_img": "https://live.staticflickr.com/65535/49712360432_e5f8128f53_o.jpg",
    "id_image": "Oriental_252441",
    "count_view": 0
  },
  {
    "link_thumb": "https://live.staticflickr.com/65535/49710945741_be1b52ce41_n.jpg",
    "id_album": "523598895",
    "description": "Artistic_155114",
    "title": "Artistic_155114",
    "link_img": "https://live.staticflickr.com/65535/49710945741_aca49f3ef6_o.jpg",
    "id_image": "Artistic_155114",
    "count_view": 0
  },
  {
    "link_thumb": "https://live.staticflickr.com/65535/49710994901_41eb151c8a_n.jpg",
    "id_album": "1187037014",
    "description": "Battle_357966",
    "title": "Battle_357966",
    "link_img": "https://live.staticflickr.com/65535/49710994901_aa16c10843_o.jpg",
    "id_image": "Battle_357966",
    "count_view": 0
  },
  {
    "link_thumb": "https://live.staticflickr.com/65535/49711959812_335df469de_n.jpg",
    "id_album": "134100487",
    "description": "Elf_842770",
    "title": "Elf_842770",
    "link_img": "https://live.staticflickr.com/65535/49711959812_a53ed5d133_o.jpg",
    "id_image": "Elf_842770",
    "count_view": 0
  },
  {
    "link_thumb": "https://live.staticflickr.com/65535/49710682513_7854f459e0_n.jpg",
    "id_album": "-437872736",
    "description": "Creature_373425",
    "title": "Creature_373425",
    "link_img": "https://live.staticflickr.com/65535/49710682513_5e407bc2b8_o.jpg",
    "id_image": "Creature_373425",
    "count_view": 0
  },
  {
    "link_thumb": "https://live.staticflickr.com/65535/49710699813_7f1a7fbec8_n.jpg",
    "id_album": "-437872736",
    "description": "Creature_490258",
    "title": "Creature_490258",
    "link_img": "https://live.staticflickr.com/65535/49710699813_d0a71d8d93_o.jpg",
    "id_image": "Creature_490258",
    "count_view": 0
  },
  {
    "link_thumb": "https://live.staticflickr.com/65535/49711423636_6bd931b9e6_n.jpg",
    "id_album": "850176884",
    "description": "Dragon_327549",
    "title": "Dragon_327549",
    "link_img": "https://live.staticflickr.com/65535/49711423636_6a479dff63_o.jpg",
    "id_image": "Dragon_327549",
    "count_view": 0
  },
  {
    "link_thumb": "https://live.staticflickr.com/65535/49712168307_455efbfda8_n.jpg",
    "id_album": "1402713104",
    "description": "Landscape_870678",
    "title": "Landscape_870678",
    "link_img": "https://live.staticflickr.com/65535/49712168307_1dd18c18df_o.jpg",
    "id_image": "Landscape_870678",
    "count_view": 0
  },
  {
    "link_thumb": "https://live.staticflickr.com/65535/49711422323_66e7cbacfd_n.jpg",
    "id_album": "-833110404",
    "description": "Landscape_516508",
    "title": "Landscape_516508",
    "link_img": "https://live.staticflickr.com/65535/49711422323_b54cce45f9_o.jpg",
    "id_image": "Landscape_516508",
    "count_view": 0
  },
  {
    "link_thumb": "https://live.staticflickr.com/65535/49711216226_b9b6a67b60_n.jpg",
    "id_album": "-437872736",
    "description": "Creature_367597",
    "title": "Creature_367597",
    "link_img": "https://live.staticflickr.com/65535/49711216226_41b8f71e1e_o.jpg",
    "id_image": "Creature_367597",
    "count_view": 0
  },
  {
    "link_thumb": "https://live.staticflickr.com/65535/49710573738_f8d742a30e_n.jpg",
    "id_album": "-1964113117",
    "description": "City_600392",
    "title": "City_600392",
    "link_img": "https://live.staticflickr.com/65535/49710573738_e0d90a53cf_o.jpg",
    "id_image": "City_600392",
    "count_view": 0
  },
  {
    "link_thumb": "https://live.staticflickr.com/65535/49711733208_2305d5eaef_n.jpg",
    "id_album": "-656526651",
    "description": "Wizard_82066",
    "title": "Wizard_82066",
    "link_img": "https://live.staticflickr.com/65535/49711733208_07052aaa44_o.jpg",
    "id_image": "Wizard_82066",
    "count_view": 0
  },
  {
    "link_thumb": "https://live.staticflickr.com/65535/49711370091_51b8c752fc_n.jpg",
    "id_album": "850176884",
    "description": "Dragon_14083",
    "title": "Dragon_14083",
    "link_img": "https://live.staticflickr.com/65535/49711370091_6203bf89d7_o.jpg",
    "id_image": "Dragon_14083",
    "count_view": 0
  },
  {
    "link_thumb": "https://live.staticflickr.com/65535/49710811948_f1210a0ca1_n.jpg",
    "id_album": "850176884",
    "description": "DRAGON26101916494320",
    "title": "DRAGON26101916494320",
    "link_img": "https://live.staticflickr.com/65535/49710811948_2ed102c87b_o.jpg",
    "id_image": "DRAGON26101916494320",
    "count_view": 0
  },
  {
    "link_thumb": "https://live.staticflickr.com/65535/49710839568_9a70497bd2_n.jpg",
    "id_album": "850176884",
    "description": "Dragon_168268",
    "title": "Dragon_168268",
    "link_img": "https://live.staticflickr.com/65535/49710839568_5e2c43a965_o.jpg",
    "id_image": "Dragon_168268",
    "count_view": 0
  },
  {
    "link_thumb": "https://live.staticflickr.com/65535/49711602916_c519b7a496_n.jpg",
    "id_album": "134100487",
    "description": "Elf_157156",
    "title": "Elf_157156",
    "link_img": "https://live.staticflickr.com/65535/49711602916_d5c3685d92_o.jpg",
    "id_image": "Elf_157156",
    "count_view": 0
  },
  {
    "link_thumb": "https://live.staticflickr.com/65535/49711212442_6ac428936f_n.jpg",
    "id_album": "-1000175186",
    "description": "AngelWarrior_861571",
    "title": "AngelWarrior_861571",
    "link_img": "https://live.staticflickr.com/65535/49711212442_7c4eced1cd_o.jpg",
    "id_image": "AngelWarrior_861571",
    "count_view": 0
  },
  {
    "link_thumb": "https://live.staticflickr.com/65535/49711241191_7fb6b5655d_n.jpg",
    "id_album": "-437872736",
    "description": "Creature_512109",
    "title": "Creature_512109",
    "link_img": "https://live.staticflickr.com/65535/49711241191_a17f2a9cd1_o.jpg",
    "id_image": "Creature_512109",
    "count_view": 0
  },
  {
    "link_thumb": "https://live.staticflickr.com/65535/49712156856_b75800fb13_n.jpg",
    "id_album": "1186644325",
    "description": "Tattoo_713258",
    "title": "Tattoo_713258",
    "link_img": "https://live.staticflickr.com/65535/49712156856_c24a8902aa_o.jpg",
    "id_image": "Tattoo_713258",
    "count_view": 0
  },
  {
    "link_thumb": "https://live.staticflickr.com/65535/49711135996_a1ebd1ce0c_n.jpg",
    "id_album": "-1964113117",
    "description": "City_974915",
    "title": "City_974915",
    "link_img": "https://live.staticflickr.com/65535/49711135996_a975af8919_o.jpg",
    "id_image": "City_974915",
    "count_view": 0
  },
  {
    "link_thumb": "https://live.staticflickr.com/65535/49712201541_f898ec7de7_n.jpg",
    "id_album": "-1261420436",
    "description": "Warrior_225450",
    "title": "Warrior_225450",
    "link_img": "https://live.staticflickr.com/65535/49712201541_b89a58f2a3_o.jpg",
    "id_image": "Warrior_225450",
    "count_view": 0
  },
  {
    "link_thumb": "https://live.staticflickr.com/65535/49711461791_43dfa9de3a_n.jpg",
    "id_album": "850176884",
    "description": "Dragon_491441",
    "title": "Dragon_491441",
    "link_img": "https://live.staticflickr.com/65535/49711461791_a0de309269_o.jpg",
    "id_image": "Dragon_491441",
    "count_view": 0
  },
  {
    "link_thumb": "https://live.staticflickr.com/65535/49712777762_cb4fa0c9c1_n.jpg",
    "id_album": "1861288871",
    "description": "Women_749548",
    "title": "Women_749548",
    "link_img": "https://live.staticflickr.com/65535/49712777762_f3c1eac4b2_o.jpg",
    "id_image": "Women_749548",
    "count_view": 0
  },
  {
    "link_thumb": "https://live.staticflickr.com/65535/49711180486_d920b4a54d_n.jpg",
    "id_album": "-437872736",
    "description": "Creature_299513",
    "title": "Creature_299513",
    "link_img": "https://live.staticflickr.com/65535/49711180486_30845e1e8e_o.jpg",
    "id_image": "Creature_299513",
    "count_view": 0
  },
  {
    "link_thumb": "https://live.staticflickr.com/65535/49711004221_d52f4d8a38_n.jpg",
    "id_album": "1187037014",
    "description": "Battle_593923",
    "title": "Battle_593923",
    "link_img": "https://live.staticflickr.com/65535/49711004221_a75bd767f4_o.jpg",
    "id_image": "Battle_593923",
    "count_view": 0
  },
  {
    "link_thumb": "https://live.staticflickr.com/65535/49712918877_3ae8ed635f_n.jpg",
    "id_album": "-1675918237",
    "description": "WomenWarrior_414308",
    "title": "WomenWarrior_414308",
    "link_img": "https://live.staticflickr.com/65535/49712918877_010312b4a6_o.jpg",
    "id_image": "WomenWarrior_414308",
    "count_view": 0
  },
  {
    "link_thumb": "https://live.staticflickr.com/65535/49710465288_7a77204949_n.jpg",
    "id_album": "1187037014",
    "description": "Battle_397127",
    "title": "Battle_397127",
    "link_img": "https://live.staticflickr.com/65535/49710465288_ddeef5ca5b_o.jpg",
    "id_image": "Battle_397127",
    "count_view": 0
  }
]