[
  {
    "link_thumb": "https://live.staticflickr.com/65535/49710607583_31e24369a6_n.jpg",
    "id_album": "-437872736",
    "description": "Creature_146657",
    "title": "Creature_146657",
    "link_img": "https://live.staticflickr.com/65535/49710607583_dd47f85cc9_o.jpg",
    "id_image": "Creature_146657",
    "count_view": 0
  },
  {
    "link_thumb": "https://live.staticflickr.com/65535/49710539178_b00e0a92b3_n.jpg",
    "id_album": "-1741487325",
    "description": "Cat_968278",
    "title": "Cat_968278",
    "link_img": "https://live.staticflickr.com/65535/49710539178_cab39a9026_o.jpg",
    "id_image": "Cat_968278",
    "count_view": 0
  },
  {
    "link_thumb": "https://live.staticflickr.com/65535/49711233312_85ddb9bc77_n.jpg",
    "id_album": "-1913845949",
    "description": "Animal_636059",
    "title": "Animal_636059",
    "link_img": "https://live.staticflickr.com/65535/49711233312_49af14d1e7_o.jpg",
    "id_image": "Animal_636059",
    "count_view": 0
  },
  {
    "link_thumb": "https://live.staticflickr.com/65535/49711035571_01454295f1_n.jpg",
    "id_album": "-1541846310",
    "description": "Castle_177522",
    "title": "Castle_177522",
    "link_img": "https://live.staticflickr.com/65535/49711035571_3dab69329c_o.jpg",
    "id_image": "Castle_177522",
    "count_view": 0
  },
  {
    "link_thumb": "https://live.staticflickr.com/65535/49710603048_5c5f56165f_n.jpg",
    "id_album": "-437872736",
    "description": "Creature_112504",
    "title": "Creature_112504",
    "link_img": "https://live.staticflickr.com/65535/49710603048_b8ecbd520b_o.jpg",
    "id_image": "Creature_112504",
    "count_view": 0
  },
  {
    "link_thumb": "https://live.staticflickr.com/65535/49712270891_9796b177d2_n.jpg",
    "id_album": "-709711865",
    "description": "Wolf_156229",
    "title": "Wolf_156229",
    "link_img": "https://live.staticflickr.com/65535/49712270891_6edba948c1_o.jpg",
    "id_image": "Wolf_156229",
    "count_view": 0
  },
  {
    "link_thumb": "https://live.staticflickr.com/65535/49712956282_e6b6de7104_n.jpg",
    "id_album": "-1675918237",
    "description": "WomenWarrior_542947",
    "title": "WomenWarrior_542947",
    "link_img": "https://live.staticflickr.com/65535/49712956282_de82079160_o.jpg",
    "id_image": "WomenWarrior_542947",
    "count_view": 0
  },
  {
    "link_thumb": "https://live.staticflickr.com/65535/49711173288_21e269e1bf_n.jpg",
    "id_album": "-1083189875",
    "description": "Forest_711438",
    "title": "Forest_711438",
    "link_img": "https://live.staticflickr.com/65535/49711173288_18bd71c0ee_o.jpg",
    "id_image": "Forest_711438",
    "count_view": 0
  },
  {
    "link_thumb": "https://live.staticflickr.com/65535/49710945476_6bb003f3e1_n.jpg",
    "id_album": "523598895",
    "description": "Artistic_154314",
    "title": "Artistic_154314",
    "link_img": "https://live.staticflickr.com/65535/49710945476_35078eb9fe_o.jpg",
    "id_image": "Artistic_154314",
    "count_view": 0
  },
  {
    "link_thumb": "https://live.staticflickr.com/65535/49712026747_fce3b843b3_n.jpg",
    "id_album": "-1083189875",
    "description": "Forest_677203",
    "title": "Forest_677203",
    "link_img": "https://live.staticflickr.com/65535/49712026747_16f8726e70_o.jpg",
    "id_image": "Forest_677203",
    "count_view": 0
  },
  {
    "link_thumb": "https://live.staticflickr.com/65535/49712094667_2bd56685de_n.jpg",
    "id_album": "1957967226",
    "description": "House_889109",
    "title": "House_889109",
    "link_img": "https://live.staticflickr.com/65535/49712094667_66e44b43bf_o.jpg",
    "id_image": "House_889109",
    "count_view": 0
  },
  {
    "link_thumb": "https://live.staticflickr.com/65535/49712794422_4f0138a416_n.jpg",
    "id_album": "1861288871",
    "description": "Women_790382",
    "title": "Women_790382",
    "link_img": "https://live.staticflickr.com/65535/49712794422_39e593e5b6_o.jpg",
    "id_image": "Women_790382",
    "count_view": 0
  },
  {
    "link_thumb": "https://live.staticflickr.com/65535/49711566861_4925a2beb3_n.jpg",
    "id_album": "850176884",
    "description": "Dragon_921706",
    "title": "Dragon_921706",
    "link_img": "https://live.staticflickr.com/65535/49711566861_f01d9c6192_o.jpg",
    "id_image": "Dragon_921706",
    "count_view": 0
  },
  {
    "link_thumb": "https://live.staticflickr.com/65535/49710519538_02ff2d57c3_n.jpg",
    "id_album": "-1541846310",
    "description": "Castle_707127",
    "title": "Castle_707127",
    "link_img": "https://live.staticflickr.com/65535/49710519538_31df84ef31_o.jpg",
    "id_image": "Castle_707127",
    "count_view": 0
  },
  {
    "link_thumb": "https://live.staticflickr.com/65535/49712523941_d4f986b910_n.jpg",
    "id_album": "-867594484",
    "description": "Women_629906",
    "title": "Women_629906",
    "link_img": "https://live.staticflickr.com/65535/49712523941_b48b275ba1_o.jpg",
    "id_image": "Women_629906",
    "count_view": 0
  },
  {
    "link_thumb": "https://live.staticflickr.com/65535/49710893071_948306f828_n.jpg",
    "id_album": "-1913845949",
    "description": "Animal_151729",
    "title": "Animal_151729",
    "link_img": "https://live.staticflickr.com/65535/49710893071_2d255d4c16_o.jpg",
    "id_image": "Animal_151729",
    "count_view": 0
  },
  {
    "link_thumb": "https://live.staticflickr.com/65535/49710959531_0118ef0169_n.jpg",
    "id_album": "523598895",
    "description": "Artistic_307078",
    "title": "Artistic_307078",
    "link_img": "https://live.staticflickr.com/65535/49710959531_2c5e476ba6_o.jpg",
    "id_image": "Artistic_307078",
    "count_view": 0
  },
  {
    "link_thumb": "https://live.staticflickr.com/65535/49710701488_16eece0bba_n.jpg",
    "id_album": "-437872736",
    "description": "Creature_497446",
    "title": "Creature_497446",
    "link_img": "https://live.staticflickr.com/65535/49710701488_9bdfb24fc1_o.jpg",
    "id_image": "Creature_497446",
    "count_view": 0
  },
  {
    "link_thumb": "https://live.staticflickr.com/65535/49712061051_3ed9f1cbb1_n.jpg",
    "id_album": "-639976841",
    "description": "Pegasus_152664",
    "title": "Pegasus_152664",
    "link_img": "https://live.staticflickr.com/65535/49712061051_8ba64b703f_o.jpg",
    "id_image": "Pegasus_152664",
    "count_view": 0
  },
  {
    "link_thumb": "https://live.staticflickr.com/65535/49711330786_3789fc5371_n.jpg",
    "id_album": "1903411565",
    "description": "Deer_951232",
    "title": "Deer_951232",
    "link_img": "https://live.staticflickr.com/65535/49711330786_d902e74938_o.jpg",
    "id_image": "Deer_951232",
    "count_view": 0
  },
  {
    "link_thumb": "https://live.staticflickr.com/65535/49710809598_5731fbb7f2_n.jpg",
    "id_album": "7198985",
    "description": "Demon_994885",
    "title": "Demon_994885",
    "link_img": "https://live.staticflickr.com/65535/49710809598_bc2fce0830_o.jpg",
    "id_image": "Demon_994885",
    "count_view": 0
  },
  {
    "link_thumb": "https://live.staticflickr.com/65535/49711797788_cbf6056fdc_n.jpg",
    "id_album": "-1126835654",
    "description": "Women_899269",
    "title": "Women_899269",
    "link_img": "https://live.staticflickr.com/65535/49711797788_7415bcb3a2_o.jpg",
    "id_image": "Women_899269",
    "count_view": 0
  },
  {
    "link_thumb": "https://live.staticflickr.com/65535/49711154651_861af08144_n.jpg",
    "id_album": "-437872736",
    "description": "Creature_185539",
    "title": "Creature_185539",
    "link_img": "https://live.staticflickr.com/65535/49711154651_f531251826_o.jpg",
    "id_image": "Creature_185539",
    "count_view": 0
  },
  {
    "link_thumb": "https://live.staticflickr.com/65535/49711904248_449d25af1c_n.jpg",
    "id_album": "1861288871",
    "description": "Women_244463",
    "title": "Women_244463",
    "link_img": "https://live.staticflickr.com/65535/49711904248_b6f1d144ff_o.jpg",
    "id_image": "Women_244463",
    "count_view": 0
  },
  {
    "link_thumb": "https://live.staticflickr.com/65535/49711557217_a6aafe967b_n.jpg",
    "id_album": "-437872736",
    "description": "Creature_456068",
    "title": "Creature_456068",
    "link_img": "https://live.staticflickr.com/65535/49711557217_259d400606_o.jpg",
    "id_image": "Creature_456068",
    "count_view": 0
  },
  {
    "link_thumb": "https://live.staticflickr.com/65535/49711476986_2b8f690ab9_n.jpg",
    "id_album": "850176884",
    "description": "Dragon_540425",
    "title": "Dragon_540425",
    "link_img": "https://live.staticflickr.com/65535/49711476986_0a1d8e0088_o.jpg",
    "id_image": "Dragon_540425",
    "count_view": 0
  },
  {
    "link_thumb": "https://live.staticflickr.com/65535/49711156836_8b7fd98c16_n.jpg",
    "id_album": "-437872736",
    "description": "Creature_208717",
    "title": "Creature_208717",
    "link_img": "https://live.staticflickr.com/65535/49711156836_b0864631d3_o.jpg",
    "id_image": "Creature_208717",
    "count_view": 0
  },
  {
    "link_thumb": "https://live.staticflickr.com/65535/49711772421_63f3ac12c5_n.jpg",
    "id_album": "1957967226",
    "description": "House_921692",
    "title": "House_921692",
    "link_img": "https://live.staticflickr.com/65535/49711772421_3fda39a0c0_o.jpg",
    "id_image": "House_921692",
    "count_view": 0
  },
  {
    "link_thumb": "https://live.staticflickr.com/65535/49711764263_25c7635708_n.jpg",
    "id_album": "-709711865",
    "description": "Wolf_937792",
    "title": "Wolf_937792",
    "link_img": "https://live.staticflickr.com/65535/49711764263_4ba5157e30_o.jpg",
    "id_image": "Wolf_937792",
    "count_view": 0
  },
  {
    "link_thumb": "https://live.staticflickr.com/65535/49713020322_79a3bc8fc3_n.jpg",
    "id_album": "-1675918237",
    "description": "WomenWarrior_897440",
    "title": "WomenWarrior_897440",
    "link_img": "https://live.staticflickr.com/65535/49713020322_44b529de2f_o.jpg",
    "id_image": "WomenWarrior_897440",
    "count_view": 0
  },
  {
    "link_thumb": "https://live.staticflickr.com/65535/49711598876_ed841c0b57_n.jpg",
    "id_album": "-1594184835",
    "description": "Dwarf_881446",
    "title": "Dwarf_881446",
    "link_img": "https://live.staticflickr.com/65535/49711598876_f8fd88ae2e_o.jpg",
    "id_image": "Dwarf_881446",
    "count_view": 0
  },
  {
    "link_thumb": "https://live.staticflickr.com/65535/49710324858_394535047a_n.jpg",
    "id_album": "-2109465612",
    "description": "Adventure_225283",
    "title": "Adventure_225283",
    "link_img": "https://live.staticflickr.com/65535/49710324858_3216b4144c_o.jpg",
    "id_image": "Adventure_225283",
    "count_view": 0
  },
  {
    "link_thumb": "https://live.staticflickr.com/65535/49711834747_e573cee5fc_n.jpg",
    "id_album": "850176884",
    "description": "Dragon_716398",
    "title": "Dragon_716398",
    "link_img": "https://live.staticflickr.com/65535/49711834747_e6b13a6c84_o.jpg",
    "id_image": "Dragon_716398",
    "count_view": 0
  },
  {
    "link_thumb": "https://live.staticflickr.com/65535/49711674826_2f2672fdfe_n.jpg",
    "id_album": "-1972042284",
    "description": "Fairy_689865",
    "title": "Fairy_689865",
    "link_img": "https://live.staticflickr.com/65535/49711674826_7a161014aa_o.jpg",
    "id_image": "Fairy_689865",
    "count_view": 0
  },
  {
    "link_thumb": "https://live.staticflickr.com/65535/49711242108_35c50ba7b8_n.jpg",
    "id_album": "-1967191405",
    "description": "Hydra_909821",
    "title": "Hydra_909821",
    "link_img": "https://live.staticflickr.com/65535/49711242108_9b7f28b68b_o.jpg",
    "id_image": "Hydra_909821",
    "count_view": 0
  },
  {
    "link_thumb": "https://live.staticflickr.com/65535/49711289807_1bef8840ac_n.jpg",
    "id_album": "523598895",
    "description": "Artistic_393499",
    "title": "Artistic_393499",
    "link_img": "https://live.staticflickr.com/65535/49711289807_29d90173ae_o.jpg",
    "id_image": "Artistic_393499",
    "count_view": 0
  },
  {
    "link_thumb": "https://live.staticflickr.com/65535/49711396256_20e5e7216c_n.jpg",
    "id_album": "850176884",
    "description": "Dragon_242558",
    "title": "Dragon_242558",
    "link_img": "https://live.staticflickr.com/65535/49711396256_93e6fff045_o.jpg",
    "id_image": "Dragon_242558",
    "count_view": 0
  },
  {
    "link_thumb": "https://live.staticflickr.com/65535/49711350806_22860f9310_n.jpg",
    "id_album": "850176884",
    "description": "DRAGON26101916501651",
    "title": "DRAGON26101916501651",
    "link_img": "https://live.staticflickr.com/65535/49711350806_3e458ab33d_o.jpg",
    "id_image": "DRAGON26101916501651",
    "count_view": 0
  },
  {
    "link_thumb": "https://live.staticflickr.com/65535/49711743953_12a5d1f04a_n.jpg",
    "id_album": "-709711865",
    "description": "Wolf_615987",
    "title": "Wolf_615987",
    "link_img": "https://live.staticflickr.com/65535/49711743953_0886dc6949_o.jpg",
    "id_image": "Wolf_615987",
    "count_view": 0
  },
  {
    "link_thumb": "https://live.staticflickr.com/65535/49711571022_265cb153d5_n.jpg",
    "id_album": "-437872736",
    "description": "Creature_550617",
    "title": "Creature_550617",
    "link_img": "https://live.staticflickr.com/65535/49711571022_2ee9d349d4_o.jpg",
    "id_image": "Creature_550617",
    "count_view": 0
  },
  {
    "link_thumb": "https://live.staticflickr.com/65535/49711955403_418946edf9_n.jpg",
    "id_album": "-867594484",
    "description": "Women_511354",
    "title": "Women_511354",
    "link_img": "https://live.staticflickr.com/65535/49711955403_b4b644bc9c_o.jpg",
    "id_image": "Women_511354",
    "count_view": 0
  },
  {
    "link_thumb": "https://live.staticflickr.com/65535/49711497077_a602b59583_n.jpg",
    "id_album": "-437872736",
    "description": "Creature_269360",
    "title": "Creature_269360",
    "link_img": "https://live.staticflickr.com/65535/49711497077_51c66bf440_o.jpg",
    "id_image": "Creature_269360",
    "count_view": 0
  },
  {
    "link_thumb": "https://live.staticflickr.com/65535/49711195463_e6e6e20b96_n.jpg",
    "id_album": "402434752",
    "description": "Giant_236628",
    "title": "Giant_236628",
    "link_img": "https://live.staticflickr.com/65535/49711195463_f008ff8377_o.jpg",
    "id_image": "Giant_236628",
    "count_view": 0
  },
  {
    "link_thumb": "https://live.staticflickr.com/65535/49711574717_7959587859_n.jpg",
    "id_album": "-437872736",
    "description": "Creature_56876",
    "title": "Creature_56876",
    "link_img": "https://live.staticflickr.com/65535/49711574717_ca518d0300_o.jpg",
    "id_image": "Creature_56876",
    "count_view": 0
  },
  {
    "link_thumb": "https://live.staticflickr.com/65535/49712067956_fe916dff91_n.jpg",
    "id_album": "-639976841",
    "description": "Pegasus_96590",
    "title": "Pegasus_96590",
    "link_img": "https://live.staticflickr.com/65535/49712067956_87c2109dd3_o.jpg",
    "id_image": "Pegasus_96590",
    "count_view": 0
  },
  {
    "link_thumb": "https://live.staticflickr.com/65535/49711494077_278346c02a_n.jpg",
    "id_album": "-437872736",
    "description": "Creature_262260",
    "title": "Creature_262260",
    "link_img": "https://live.staticflickr.com/65535/49711494077_58b3f5a703_o.jpg",
    "id_image": "Creature_262260",
    "count_view": 0
  },
  {
    "link_thumb": "https://live.staticflickr.com/65535/49711766993_4d124eb8ea_n.jpg",
    "id_album": "-709711865",
    "description": "Wolf_997964",
    "title": "Wolf_997964",
    "link_img": "https://live.staticflickr.com/65535/49711766993_2d5d3fd279_o.jpg",
    "id_image": "Wolf_997964",
    "count_view": 0
  },
  {
    "link_thumb": "https://live.staticflickr.com/65535/49711680487_7fc68f2e11_n.jpg",
    "id_album": "850176884",
    "description": "Dragon_118382",
    "title": "Dragon_118382",
    "link_img": "https://live.staticflickr.com/65535/49711680487_d296166de8_o.jpg",
    "id_image": "Dragon_118382",
    "count_view": 0
  },
  {
    "link_thumb": "https://live.staticflickr.com/65535/49711926731_2335fb4f50_n.jpg",
    "id_album": "-833110404",
    "description": "Landscape_311318",
    "title": "Landscape_311318",
    "link_img": "https://live.staticflickr.com/65535/49711926731_605b9c8425_o.jpg",
    "id_image": "Landscape_311318",
    "count_view": 0
  },
  {
    "link_thumb": "https://live.staticflickr.com/65535/49712700861_a70349fee3_n.jpg",
    "id_album": "-1675918237",
    "description": "WomenWarrior_946075",
    "title": "WomenWarrior_946075",
    "link_img": "https://live.staticflickr.com/65535/49712700861_e81a626e1c_o.jpg",
    "id_image": "WomenWarrior_946075",
    "count_view": 0
  },
  {
    "link_thumb": "https://live.staticflickr.com/65535/49711214601_bfacd13952_n.jpg",
    "id_album": "-437872736",
    "description": "Creature_366421",
    "title": "Creature_366421",
    "link_img": "https://live.staticflickr.com/65535/49711214601_c85caeca58_o.jpg",
    "id_image": "Creature_366421",
    "count_view": 0
  },
  {
    "link_thumb": "https://live.staticflickr.com/65535/49711679748_75a370df6a_n.jpg",
    "id_album": "-1261420436",
    "description": "Warrior_607032",
    "title": "Warrior_607032",
    "link_img": "https://live.staticflickr.com/65535/49711679748_f3a655c58f_o.jpg",
    "id_image": "Warrior_607032",
    "count_view": 0
  },
  {
    "link_thumb": "https://live.staticflickr.com/65535/49711465801_568b105296_n.jpg",
    "id_album": "850176884",
    "description": "Dragon_509424",
    "title": "Dragon_509424",
    "link_img": "https://live.staticflickr.com/65535/49711465801_0ea5319386_o.jpg",
    "id_image": "Dragon_509424",
    "count_view": 0
  },
  {
    "link_thumb": "https://live.staticflickr.com/65535/49711719396_05807b5e5c_n.jpg",
    "id_album": "-1083189875",
    "description": "Forest_905375",
    "title": "Forest_905375",
    "link_img": "https://live.staticflickr.com/65535/49711719396_b91474c03e_o.jpg",
    "id_image": "Forest_905375",
    "count_view": 0
  },
  {
    "link_thumb": "https://live.staticflickr.com/65535/49712291597_14faf924c1_n.jpg",
    "id_album": "-833110404",
    "description": "Landscape_552373",
    "title": "Landscape_552373",
    "link_img": "https://live.staticflickr.com/65535/49712291597_4feea2408e_o.jpg",
    "id_image": "Landscape_552373",
    "count_view": 0
  },
  {
    "link_thumb": "https://live.staticflickr.com/65535/49710868991_f7ca7a4d90_n.jpg",
    "id_album": "-2109465612",
    "description": "Adventure_702074",
    "title": "Adventure_702074",
    "link_img": "https://live.staticflickr.com/65535/49710868991_d5e37f008a_o.jpg",
    "id_image": "Adventure_702074",
    "count_view": 0
  },
  {
    "link_thumb": "https://live.staticflickr.com/65535/49712158497_8d68c2db22_n.jpg",
    "id_album": "1402713104",
    "description": "Landscape_864730",
    "title": "Landscape_864730",
    "link_img": "https://live.staticflickr.com/65535/49712158497_67df10fd17_o.jpg",
    "id_image": "Landscape_864730",
    "count_view": 0
  },
  {
    "link_thumb": "https://live.staticflickr.com/65535/49711066813_9d43963bac_n.jpg",
    "id_album": "134100487",
    "description": "Elf_118176",
    "title": "Elf_118176",
    "link_img": "https://live.staticflickr.com/65535/49711066813_a4543b72d3_o.jpg",
    "id_image": "Elf_118176",
    "count_view": 0
  },
  {
    "link_thumb": "https://live.staticflickr.com/65535/49712403361_cd705d1c48_n.jpg",
    "id_album": "295204930",
    "description": "Women_695943",
    "title": "Women_695943",
    "link_img": "https://live.staticflickr.com/65535/49712403361_9d62b84493_o.jpg",
    "id_image": "Women_695943",
    "count_view": 0
  },
  {
    "link_thumb": "https://live.staticflickr.com/65535/49711577546_cef62f76f1_n.jpg",
    "id_album": "850176884",
    "description": "Dragon_956354",
    "title": "Dragon_956354",
    "link_img": "https://live.staticflickr.com/65535/49711577546_4d444c45f0_o.jpg",
    "id_image": "Dragon_956354",
    "count_view": 0
  },
  {
    "link_thumb": "https://live.staticflickr.com/65535/49711144531_fa6cfe0224_n.jpg",
    "id_album": "-437872736",
    "description": "Creature_151161",
    "title": "Creature_151161",
    "link_img": "https://live.staticflickr.com/65535/49711144531_492539b33d_o.jpg",
    "id_image": "Creature_151161",
    "count_view": 0
  },
  {
    "link_thumb": "https://live.staticflickr.com/65535/49712454912_655f5962cb_n.jpg",
    "id_album": "-395228614",
    "description": "Ship_242430",
    "title": "Ship_242430",
    "link_img": "https://live.staticflickr.com/65535/49712454912_fa65ed0764_o.jpg",
    "id_image": "Ship_242430",
    "count_view": 0
  },
  {
    "link_thumb": "https://live.staticflickr.com/65535/49711624746_ee0e03ac88_n.jpg",
    "id_album": "134100487",
    "description": "Elf_616971",
    "title": "Elf_616971",
    "link_img": "https://live.staticflickr.com/65535/49711624746_e10a6ed728_o.jpg",
    "id_image": "Elf_616971",
    "count_view": 0
  },
  {
    "link_thumb": "https://live.staticflickr.com/65535/49710870213_256e02ff08_n.jpg",
    "id_album": "850176884",
    "description": "Dragon_270131",
    "title": "Dragon_270131",
    "link_img": "https://live.staticflickr.com/65535/49710870213_23558043a3_o.jpg",
    "id_image": "Dragon_270131",
    "count_view": 0
  },
  {
    "link_thumb": "https://live.staticflickr.com/65535/49712067717_cfea29ac3b_n.jpg",
    "id_album": "1131236559",
    "description": "Gods_438226",
    "title": "Gods_438226",
    "link_img": "https://live.staticflickr.com/65535/49712067717_4dd8fdcf5b_o.jpg",
    "id_image": "Gods_438226",
    "count_view": 0
  },
  {
    "link_thumb": "https://live.staticflickr.com/65535/49712390002_cc7b870968_n.jpg",
    "id_album": "-639976841",
    "description": "Pegasus_935280",
    "title": "Pegasus_935280",
    "link_img": "https://live.staticflickr.com/65535/49712390002_7ef8208b1a_o.jpg",
    "id_image": "Pegasus_935280",
    "count_view": 0
  },
  {
    "link_thumb": "https://live.staticflickr.com/65535/49711571732_2171d14f40_n.jpg",
    "id_album": "-437872736",
    "description": "Creature_553689",
    "title": "Creature_553689",
    "link_img": "https://live.staticflickr.com/65535/49711571732_089239fde1_o.jpg",
    "id_image": "Creature_553689",
    "count_view": 0
  },
  {
    "link_thumb": "https://live.staticflickr.com/65535/49710621393_9b305c224d_n.jpg",
    "id_album": "-437872736",
    "description": "Creature_208887",
    "title": "Creature_208887",
    "link_img": "https://live.staticflickr.com/65535/49710621393_cc108d852d_o.jpg",
    "id_image": "Creature_208887",
    "count_view": 0
  },
  {
    "link_thumb": "https://live.staticflickr.com/65535/49711055976_00ecab094f_n.jpg",
    "id_album": "-1541846310",
    "description": "Castle_720124",
    "title": "Castle_720124",
    "link_img": "https://live.staticflickr.com/65535/49711055976_502d93ddba_o.jpg",
    "id_image": "Castle_720124",
    "count_view": 0
  },
  {
    "link_thumb": "https://live.staticflickr.com/65535/49711794947_71bb2e8a34_n.jpg",
    "id_album": "850176884",
    "description": "Dragon_529452",
    "title": "Dragon_529452",
    "link_img": "https://live.staticflickr.com/65535/49711794947_4585eccab6_o.jpg",
    "id_image": "Dragon_529452",
    "count_view": 0
  },
  {
    "link_thumb": "https://live.staticflickr.com/65535/49710827553_da6127f8af_n.jpg",
    "id_album": "850176884",
    "description": "Dragon_122320",
    "title": "Dragon_122320",
    "link_img": "https://live.staticflickr.com/65535/49710827553_377e07f9da_o.jpg",
    "id_image": "Dragon_122320",
    "count_view": 0
  },
  {
    "link_thumb": "https://live.staticflickr.com/65535/49712429426_dde3fe947c_n.jpg",
    "id_album": "1861288871",
    "description": "Women_176494",
    "title": "Women_176494",
    "link_img": "https://live.staticflickr.com/65535/49712429426_2caba1005c_o.jpg",
    "id_image": "Women_176494",
    "count_view": 0
  },
  {
    "link_thumb": "https://live.staticflickr.com/65535/49711870197_f1517a9a4c_n.jpg",
    "id_album": "850176884",
    "description": "Dragon_878306",
    "title": "Dragon_878306",
    "link_img": "https://live.staticflickr.com/65535/49711870197_29a55554e1_o.jpg",
    "id_image": "Dragon_878306",
    "count_view": 0
  },
  {
    "link_thumb": "https://live.staticflickr.com/65535/49712349597_f348f171b7_n.jpg",
    "id_album": "1721880108",
    "description": "Mermaid_486477",
    "title": "Mermaid_486477",
    "link_img": "https://live.staticflickr.com/65535/49712349597_717debccbf_o.jpg",
    "id_image": "Mermaid_486477",
    "count_view": 0
  },
  {
    "link_thumb": "https://live.staticflickr.com/65535/49710807418_50b34f76e8_n.jpg",
    "id_album": "7198985",
    "description": "Demon_864659",
    "title": "Demon_864659",
    "link_img": "https://live.staticflickr.com/65535/49710807418_9e0dcd4443_o.jpg",
    "id_image": "Demon_864659",
    "count_view": 0
  },
  {
    "link_thumb": "https://live.staticflickr.com/65535/49711326281_0f2b970d51_n.jpg",
    "id_album": "1903411565",
    "description": "Deer_531424",
    "title": "Deer_531424",
    "link_img": "https://live.staticflickr.com/65535/49711326281_2dfe1880e5_o.jpg",
    "id_image": "Deer_531424",
    "count_view": 0
  },
  {
    "link_thumb": "https://live.staticflickr.com/65535/49711372948_58afb21493_n.jpg",
    "id_album": "-833110404",
    "description": "Landscape_283696",
    "title": "Landscape_283696",
    "link_img": "https://live.staticflickr.com/65535/49711372948_c9b110e100_o.jpg",
    "id_image": "Landscape_283696",
    "count_view": 0
  },
  {
    "link_thumb": "https://live.staticflickr.com/65535/49712659296_346b4c6c4d_n.jpg",
    "id_album": "-1675918237",
    "description": "WomenWarrior_716037",
    "title": "WomenWarrior_716037",
    "link_img": "https://live.staticflickr.com/65535/49712659296_01ce547747_o.jpg",
    "id_image": "WomenWarrior_716037",
    "count_view": 0
  },
  {
    "link_thumb": "https://live.staticflickr.com/65535/49712489212_479a532af6_n.jpg",
    "id_album": "405170427",
    "description": "Tiger_884139",
    "title": "Tiger_884139",
    "link_img": "https://live.staticflickr.com/65535/49712489212_9cc639369a_o.jpg",
    "id_image": "Tiger_884139",
    "count_view": 0
  },
  {
    "link_thumb": "https://live.staticflickr.com/65535/49712104737_eb240f5b1f_n.jpg",
    "id_album": "469960528",
    "description": "Knight_511084",
    "title": "Knight_511084",
    "link_img": "https://live.staticflickr.com/65535/49712104737_9a0885a409_o.jpg",
    "id_image": "Knight_511084",
    "count_view": 0
  },
  {
    "link_thumb": "https://live.staticflickr.com/65535/49711915662_b8eef55d4f_n.jpg",
    "id_album": "850176884",
    "description": "Dragon_993366",
    "title": "Dragon_993366",
    "link_img": "https://live.staticflickr.com/65535/49711915662_1aa6eb45f6_o.jpg",
    "id_image": "Dragon_993366",
    "count_view": 0
  },
  {
    "link_thumb": "https://live.staticflickr.com/65535/49711753601_e861a78f50_n.jpg",
    "id_album": "857581314",
    "description": "Griffin_611277",
    "title": "Griffin_611277",
    "link_img": "https://live.staticflickr.com/65535/49711753601_e003350cce_o.jpg",
    "id_image": "Griffin_611277",
    "count_view": 0
  },
  {
    "link_thumb": "https://live.staticflickr.com/65535/49711496587_f5452f763a_n.jpg",
    "id_album": "-437872736",
    "description": "Creature_269285",
    "title": "Creature_269285",
    "link_img": "https://live.staticflickr.com/65535/49711496587_f01e8d327e_o.jpg",
    "id_image": "Creature_269285",
    "count_view": 0
  },
  {
    "link_thumb": "https://live.staticflickr.com/65535/49711825187_3a19a04dc6_n.jpg",
    "id_album": "850176884",
    "description": "Dragon_681002",
    "title": "Dragon_681002",
    "link_img": "https://live.staticflickr.com/65535/49711825187_aa86e29996_o.jpg",
    "id_image": "Dragon_681002",
    "count_view": 0
  },
  {
    "link_thumb": "https://live.staticflickr.com/65535/49711854467_d8a8992e74_n.jpg",
    "id_album": "850176884",
    "description": "Dragon_830435",
    "title": "Dragon_830435",
    "link_img": "https://live.staticflickr.com/65535/49711854467_d089b78982_o.jpg",
    "id_image": "Dragon_830435",
    "count_view": 0
  },
  {
    "link_thumb": "https://live.staticflickr.com/65535/49710981731_32c65bf216_n.jpg",
    "id_album": "1187037014",
    "description": "Battle_112633",
    "title": "Battle_112633",
    "link_img": "https://live.staticflickr.com/65535/49710981731_c3377f6e7f_o.jpg",
    "id_image": "Battle_112633",
    "count_view": 0
  },
  {
    "link_thumb": "https://live.staticflickr.com/65535/49711214037_432f57eecc_n.jpg",
    "id_album": "-1000175186",
    "description": "AngelWarrior_931192",
    "title": "AngelWarrior_931192",
    "link_img": "https://live.staticflickr.com/65535/49711214037_58c1940945_o.jpg",
    "id_image": "AngelWarrior_931192",
    "count_view": 0
  },
  {
    "link_thumb": "https://live.staticflickr.com/65535/49711515546_74e8bb8ce1_n.jpg",
    "id_album": "850176884",
    "description": "Dragon_732255",
    "title": "Dragon_732255",
    "link_img": "https://live.staticflickr.com/65535/49711515546_1c362301f7_o.jpg",
    "id_image": "Dragon_732255",
    "count_view": 0
  },
  {
    "link_thumb": "https://live.staticflickr.com/65535/49947935491_6269418c1a_n.jpg",
    "id_album": "-1703946758",
    "description": "ANIME_PIC_8e4c35f0d5bf31bbd7f870429502eb6c",
    "title": "ANIME_PIC_8e4c35f0d5bf31bbd7f870429502eb6c",
    "link_img": "https://live.staticflickr.com/65535/49947935491_88110d9d35_o.jpg",
    "id_image": "ANIME_PIC_8e4c35f0d5bf31bbd7f870429502eb6c",
    "count_view": 0
  },
  {
    "link_thumb": "https://live.staticflickr.com/65535/49711455453_2a98f9d959_n.jpg",
    "id_album": "1006968559",
    "description": "LordoftheRings_614690",
    "title": "LordoftheRings_614690",
    "link_img": "https://live.staticflickr.com/65535/49711455453_9dc047c0a1_o.jpg",
    "id_image": "LordoftheRings_614690",
    "count_view": 0
  },
  {
    "link_thumb": "https://live.staticflickr.com/65535/49711240197_34aebfe9ef_n.jpg",
    "id_album": "-1913845949",
    "description": "Animal_779250",
    "title": "Animal_779250",
    "link_img": "https://live.staticflickr.com/65535/49711240197_68343266fb_o.jpg",
    "id_image": "Animal_779250",
    "count_view": 0
  },
  {
    "link_thumb": "https://live.staticflickr.com/65535/49710949813_f089192f10_n.jpg",
    "id_album": "850176884",
    "description": "Dragon_574939",
    "title": "Dragon_574939",
    "link_img": "https://live.staticflickr.com/65535/49710949813_4e86b17a6d_o.jpg",
    "id_image": "Dragon_574939",
    "count_view": 0
  },
  {
    "link_thumb": "https://live.staticflickr.com/65535/49711567832_4d504cea5d_n.jpg",
    "id_album": "-437872736",
    "description": "Creature_518391",
    "title": "Creature_518391",
    "link_img": "https://live.staticflickr.com/65535/49711567832_d30c7aacc3_o.jpg",
    "id_image": "Creature_518391",
    "count_view": 0
  },
  {
    "link_thumb": "https://live.staticflickr.com/65535/49712532451_527b4111ca_n.jpg",
    "id_album": "-867594484",
    "description": "Women_683865",
    "title": "Women_683865",
    "link_img": "https://live.staticflickr.com/65535/49712532451_a65ef59bec_o.jpg",
    "id_image": "Women_683865",
    "count_view": 0
  },
  {
    "link_thumb": "https://live.staticflickr.com/65535/49711329983_7eff9d116c_n.jpg",
    "id_album": "1402713104",
    "description": "Landscape_944313",
    "title": "Landscape_944313",
    "link_img": "https://live.staticflickr.com/65535/49711329983_138bc07012_o.jpg",
    "id_image": "Landscape_944313",
    "count_view": 0
  },
  {
    "link_thumb": "https://live.staticflickr.com/65535/49711518113_3bc04dbeec_n.jpg",
    "id_album": "-1862561193",
    "description": "Other_142713",
    "title": "Other_142713",
    "link_img": "https://live.staticflickr.com/65535/49711518113_6c75df14b2_o.jpg",
    "id_image": "Other_142713",
    "count_view": 0
  },
  {
    "link_thumb": "https://live.staticflickr.com/65535/49712186892_4eb222c3fd_n.jpg",
    "id_album": "1402713104",
    "description": "Landscape_943135",
    "title": "Landscape_943135",
    "link_img": "https://live.staticflickr.com/65535/49712186892_c754173753_o.jpg",
    "id_image": "Landscape_943135",
    "count_view": 0
  },
  {
    "link_thumb": "https://live.staticflickr.com/65535/49711275913_13db957723_n.jpg",
    "id_album": "1402713104",
    "description": "Landscape_711431",
    "title": "Landscape_711431",
    "link_img": "https://live.staticflickr.com/65535/49711275913_e06427b894_o.jpg",
    "id_image": "Landscape_711431",
    "count_view": 0
  },
  {
    "link_thumb": "https://live.staticflickr.com/65535/49710771898_2a4da8c9d9_n.jpg",
    "id_album": "-437872736",
    "description": "Creature_974618",
    "title": "Creature_974618",
    "link_img": "https://live.staticflickr.com/65535/49710771898_14c9d130b4_o.jpg",
    "id_image": "Creature_974618",
    "count_view": 0
  },
  {
    "link_thumb": "https://live.staticflickr.com/65535/49711288932_b52f2542fa_n.jpg",
    "id_album": "523598895",
    "description": "Artistic_387365",
    "title": "Artistic_387365",
    "link_img": "https://live.staticflickr.com/65535/49711288932_e14a5c47ea_o.jpg",
    "id_image": "Artistic_387365",
    "count_view": 0
  },
  {
    "link_thumb": "https://live.staticflickr.com/65535/49712170722_e7d35b6cc7_n.jpg",
    "id_album": "1402713104",
    "description": "Landscape_874062",
    "title": "Landscape_874062",
    "link_img": "https://live.staticflickr.com/65535/49712170722_26ef314407_o.jpg",
    "id_image": "Landscape_874062",
    "count_view": 0
  },
  {
    "link_thumb": "https://live.staticflickr.com/65535/49710944276_c8ccc1d970_n.jpg",
    "id_album": "523598895",
    "description": "Artistic_152072",
    "title": "Artistic_152072",
    "link_img": "https://live.staticflickr.com/65535/49710944276_91d8d9f05f_o.jpg",
    "id_image": "Artistic_152072",
    "count_view": 0
  },
  {
    "link_thumb": "https://live.staticflickr.com/65535/49712686246_60817bd3fb_n.jpg",
    "id_album": "-1675918237",
    "description": "WomenWarrior_861572",
    "title": "WomenWarrior_861572",
    "link_img": "https://live.staticflickr.com/65535/49712686246_4c9ecd1889_o.jpg",
    "id_image": "WomenWarrior_861572",
    "count_view": 0
  },
  {
    "link_thumb": "https://live.staticflickr.com/65535/49710895093_96e9902756_n.jpg",
    "id_album": "850176884",
    "description": "Dragon_350363",
    "title": "Dragon_350363",
    "link_img": "https://live.staticflickr.com/65535/49710895093_0d38ca2201_o.jpg",
    "id_image": "Dragon_350363",
    "count_view": 0
  },
  {
    "link_thumb": "https://live.staticflickr.com/65535/49711321672_34a0d5001f_n.jpg",
    "id_album": "1187037014",
    "description": "Battle_389505",
    "title": "Battle_389505",
    "link_img": "https://live.staticflickr.com/65535/49711321672_9e67414eb9_o.jpg",
    "id_image": "Battle_389505",
    "count_view": 0
  },
  {
    "link_thumb": "https://live.staticflickr.com/65535/49710486573_2732494902_n.jpg",
    "id_album": "-1846011410",
    "description": "Bird_991778",
    "title": "Bird_991778",
    "link_img": "https://live.staticflickr.com/65535/49710486573_ea9c269126_o.jpg",
    "id_image": "Bird_991778",
    "count_view": 0
  },
  {
    "link_thumb": "https://live.staticflickr.com/65535/49712344081_653594d5c3_n.jpg",
    "id_album": "-1126835654",
    "description": "Women_958294",
    "title": "Women_958294",
    "link_img": "https://live.staticflickr.com/65535/49712344081_ae5437fb46_o.jpg",
    "id_image": "Women_958294",
    "count_view": 0
  },
  {
    "link_thumb": "https://live.staticflickr.com/65535/49711331377_3e6ca2f0e6_n.jpg",
    "id_album": "1187037014",
    "description": "Battle_692783",
    "title": "Battle_692783",
    "link_img": "https://live.staticflickr.com/65535/49711331377_35f26d5a91_o.jpg",
    "id_image": "Battle_692783",
    "count_view": 0
  },
  {
    "link_thumb": "https://live.staticflickr.com/65535/49711509886_7c08fab482_n.jpg",
    "id_album": "850176884",
    "description": "Dragon_697556",
    "title": "Dragon_697556",
    "link_img": "https://live.staticflickr.com/65535/49711509886_d45d6368ef_o.jpg",
    "id_image": "Dragon_697556",
    "count_view": 0
  },
  {
    "link_thumb": "https://live.staticflickr.com/65535/49712383477_7a65b8c221_n.jpg",
    "id_album": "-639976841",
    "description": "Pegasus_145309",
    "title": "Pegasus_145309",
    "link_img": "https://live.staticflickr.com/65535/49712383477_056cb02f9b_o.jpg",
    "id_image": "Pegasus_145309",
    "count_view": 0
  },
  {
    "link_thumb": "https://live.staticflickr.com/65535/49711997916_f8d7f687a8_n.jpg",
    "id_album": "-1859457952",
    "description": "Love_695118",
    "title": "Love_695118",
    "link_img": "https://live.staticflickr.com/65535/49711997916_149c749e7d_o.jpg",
    "id_image": "Love_695118",
    "count_view": 0
  },
  {
    "link_thumb": "https://live.staticflickr.com/65535/49710647413_1c4b18b1f1_n.jpg",
    "id_album": "-437872736",
    "description": "Creature_302846",
    "title": "Creature_302846",
    "link_img": "https://live.staticflickr.com/65535/49710647413_bac23e7365_o.jpg",
    "id_image": "Creature_302846",
    "count_view": 0
  },
  {
    "link_thumb": "https://live.staticflickr.com/65535/49711875751_0ab943f07f_n.jpg",
    "id_album": "1402713104",
    "description": "Landscape_960712",
    "title": "Landscape_960712",
    "link_img": "https://live.staticflickr.com/65535/49711875751_3d273843ba_o.jpg",
    "id_image": "Landscape_960712",
    "count_view": 0
  },
  {
    "link_thumb": "https://live.staticflickr.com/65535/49711287443_086078a36d_n.jpg",
    "id_album": "1402713104",
    "description": "Landscape_832057",
    "title": "Landscape_832057",
    "link_img": "https://live.staticflickr.com/65535/49711287443_1a84c4995b_o.jpg",
    "id_image": "Landscape_832057",
    "count_view": 0
  },
  {
    "link_thumb": "https://live.staticflickr.com/65535/49712342607_76ce885e39_n.jpg",
    "id_album": "-222719689",
    "description": "Men_863398",
    "title": "Men_863398",
    "link_img": "https://live.staticflickr.com/65535/49712342607_b899140463_o.jpg",
    "id_image": "Men_863398",
    "count_view": 0
  },
  {
    "link_thumb": "https://live.staticflickr.com/65535/49712347822_4d3de1a609_n.jpg",
    "id_album": "1721880108",
    "description": "Mermaid_316325",
    "title": "Mermaid_316325",
    "link_img": "https://live.staticflickr.com/65535/49712347822_bce3fce159_o.jpg",
    "id_image": "Mermaid_316325",
    "count_view": 0
  },
  {
    "link_thumb": "https://live.staticflickr.com/65535/49712426566_b6c1aabc05_n.jpg",
    "id_album": "1861288871",
    "description": "Women_136363",
    "title": "Women_136363",
    "link_img": "https://live.staticflickr.com/65535/49712426566_f5e8f1f96a_o.jpg",
    "id_image": "Women_136363",
    "count_view": 0
  },
  {
    "link_thumb": "https://live.staticflickr.com/65535/49712002236_e985255c79_n.jpg",
    "id_album": "-1613076477",
    "description": "Magic_356138",
    "title": "Magic_356138",
    "link_img": "https://live.staticflickr.com/65535/49712002236_7bd583bc67_o.jpg",
    "id_image": "Magic_356138",
    "count_view": 0
  },
  {
    "link_thumb": "https://live.staticflickr.com/65535/49710715238_fa07357390_n.jpg",
    "id_album": "-437872736",
    "description": "Creature_587808",
    "title": "Creature_587808",
    "link_img": "https://live.staticflickr.com/65535/49710715238_f48bb83dac_o.jpg",
    "id_image": "Creature_587808",
    "count_view": 0
  },
  {
    "link_thumb": "https://live.staticflickr.com/65535/49711183436_e4d09ddfd2_n.jpg",
    "id_album": "-437872736",
    "description": "Creature_304257",
    "title": "Creature_304257",
    "link_img": "https://live.staticflickr.com/65535/49711183436_bef45c8f4e_o.jpg",
    "id_image": "Creature_304257",
    "count_view": 0
  },
  {
    "link_thumb": "https://live.staticflickr.com/65535/49710347143_7d7ea1fc1d_n.jpg",
    "id_album": "-1000175186",
    "description": "AngelWarrior_494199",
    "title": "AngelWarrior_494199",
    "link_img": "https://live.staticflickr.com/65535/49710347143_e4de3c5844_o.jpg",
    "id_image": "AngelWarrior_494199",
    "count_view": 0
  },
  {
    "link_thumb": "https://live.staticflickr.com/65535/49711695657_a01e82b480_n.jpg",
    "id_album": "850176884",
    "description": "Dragon_146503",
    "title": "Dragon_146503",
    "link_img": "https://live.staticflickr.com/65535/49711695657_1945751447_o.jpg",
    "id_image": "Dragon_146503",
    "count_view": 0
  },
  {
    "link_thumb": "https://live.staticflickr.com/65535/49711794436_7c6bc0fba2_n.jpg",
    "id_album": "1402713104",
    "description": "Landscape_641977",
    "title": "Landscape_641977",
    "link_img": "https://live.staticflickr.com/65535/49711794436_fa30977e2d_o.jpg",
    "id_image": "Landscape_641977",
    "count_view": 0
  },
  {
    "link_thumb": "https://live.staticflickr.com/65535/49710682388_2cb12e4c37_n.jpg",
    "id_album": "-437872736",
    "description": "Creature_373417",
    "title": "Creature_373417",
    "link_img": "https://live.staticflickr.com/65535/49710682388_d9b951cdbe_o.jpg",
    "id_image": "Creature_373417",
    "count_view": 0
  },
  {
    "link_thumb": "https://live.staticflickr.com/65535/49711428361_ecde265075_n.jpg",
    "id_album": "850176884",
    "description": "Dragon_340194",
    "title": "Dragon_340194",
    "link_img": "https://live.staticflickr.com/65535/49711428361_5b24c04b21_o.jpg",
    "id_image": "Dragon_340194",
    "count_view": 0
  },
  {
    "link_thumb": "https://live.staticflickr.com/65535/49711739527_527029f7ba_n.jpg",
    "id_album": "850176884",
    "description": "Dragon_317052",
    "title": "Dragon_317052",
    "link_img": "https://live.staticflickr.com/65535/49711739527_c7d03ec843_o.jpg",
    "id_image": "Dragon_317052",
    "count_view": 0
  },
  {
    "link_thumb": "https://live.staticflickr.com/65535/49711496853_a617ea69c5_n.jpg",
    "id_album": "-14582214",
    "description": "Ocean_361049",
    "title": "Ocean_361049",
    "link_img": "https://live.staticflickr.com/65535/49711496853_b5970b386c_o.jpg",
    "id_image": "Ocean_361049",
    "count_view": 0
  },
  {
    "link_thumb": "https://live.staticflickr.com/65535/49711593466_9dcf6b3af0_n.jpg",
    "id_album": "850176884",
    "description": "Dragon_996490",
    "title": "Dragon_996490",
    "link_img": "https://live.staticflickr.com/65535/49711593466_9c3aa8971b_o.jpg",
    "id_image": "Dragon_996490",
    "count_view": 0
  },
  {
    "link_thumb": "https://live.staticflickr.com/65535/49710760378_54e2bc6567_n.jpg",
    "id_album": "-437872736",
    "description": "Creature_958916",
    "title": "Creature_958916",
    "link_img": "https://live.staticflickr.com/65535/49710760378_619902e58e_o.jpg",
    "id_image": "Creature_958916",
    "count_view": 0
  },
  {
    "link_thumb": "https://live.staticflickr.com/65535/49710322138_8871fdbc72_n.jpg",
    "id_album": "-218097820",
    "description": "ASongOfIceAndFire_26298",
    "title": "ASongOfIceAndFire_26298",
    "link_img": "https://live.staticflickr.com/65535/49710322138_f681e946af_o.jpg",
    "id_image": "ASongOfIceAndFire_26298",
    "count_view": 0
  },
  {
    "link_thumb": "https://live.staticflickr.com/65535/49711655958_5e7d30d90c_n.jpg",
    "id_album": "19263973",
    "description": "Viking_268286",
    "title": "Viking_268286",
    "link_img": "https://live.staticflickr.com/65535/49711655958_67e4cff93e_o.jpg",
    "id_image": "Viking_268286",
    "count_view": 0
  },
  {
    "link_thumb": "https://live.staticflickr.com/65535/49711323132_02d3080c73_n.jpg",
    "id_album": "1187037014",
    "description": "Battle_396998",
    "title": "Battle_396998",
    "link_img": "https://live.staticflickr.com/65535/49711323132_b3c8929646_o.jpg",
    "id_image": "Battle_396998",
    "count_view": 0
  },
  {
    "link_thumb": "https://live.staticflickr.com/65535/49712355912_2598dd4a7c_n.jpg",
    "id_album": "-14582214",
    "description": "Ocean_373275",
    "title": "Ocean_373275",
    "link_img": "https://live.staticflickr.com/65535/49712355912_10bf04019c_o.jpg",
    "id_image": "Ocean_373275",
    "count_view": 0
  },
  {
    "link_thumb": "https://live.staticflickr.com/65535/49712686586_285da6c26a_n.jpg",
    "id_album": "-1675918237",
    "description": "WomenWarrior_864050",
    "title": "WomenWarrior_864050",
    "link_img": "https://live.staticflickr.com/65535/49712686586_331ccb664a_o.jpg",
    "id_image": "WomenWarrior_864050",
    "count_view": 0
  },
  {
    "link_thumb": "https://live.staticflickr.com/65535/49711377456_8aa712fe67_n.jpg",
    "id_album": "850176884",
    "description": "Dragon_179567",
    "title": "Dragon_179567",
    "link_img": "https://live.staticflickr.com/65535/49711377456_1cca3afa22_o.jpg",
    "id_image": "Dragon_179567",
    "count_view": 0
  },
  {
    "link_thumb": "https://live.staticflickr.com/65535/49712119961_593899bbcb_n.jpg",
    "id_album": "407101116",
    "description": "SeaMonster_269826",
    "title": "SeaMonster_269826",
    "link_img": "https://live.staticflickr.com/65535/49712119961_10155053a5_o.jpg",
    "id_image": "SeaMonster_269826",
    "count_view": 0
  },
  {
    "link_thumb": "https://live.staticflickr.com/65535/49711232977_d4ee435db4_n.jpg",
    "id_album": "-1913845949",
    "description": "Animal_636056",
    "title": "Animal_636056",
    "link_img": "https://live.staticflickr.com/65535/49711232977_4f92e16266_o.jpg",
    "id_image": "Animal_636056",
    "count_view": 0
  },
  {
    "link_thumb": "https://live.staticflickr.com/65535/49711126323_09231f1818_n.jpg",
    "id_album": "-1972042284",
    "description": "Fairy_357614",
    "title": "Fairy_357614",
    "link_img": "https://live.staticflickr.com/65535/49711126323_1c589427df_o.jpg",
    "id_image": "Fairy_357614",
    "count_view": 0
  },
  {
    "link_thumb": "https://live.staticflickr.com/65535/49712197597_fb030793e9_n.jpg",
    "id_album": "1402713104",
    "description": "Landscape_960703",
    "title": "Landscape_960703",
    "link_img": "https://live.staticflickr.com/65535/49712197597_1010764913_o.jpg",
    "id_image": "Landscape_960703",
    "count_view": 0
  },
  {
    "link_thumb": "https://live.staticflickr.com/65535/49711298356_5611154d8e_n.jpg",
    "id_album": "-437872736",
    "description": "Creature_958930",
    "title": "Creature_958930",
    "link_img": "https://live.staticflickr.com/65535/49711298356_eb561f460f_o.jpg",
    "id_image": "Creature_958930",
    "count_view": 0
  },
  {
    "link_thumb": "https://live.staticflickr.com/65535/49710584308_3ae2bdbb97_n.jpg",
    "id_album": "-1964113117",
    "description": "City_821469",
    "title": "City_821469",
    "link_img": "https://live.staticflickr.com/65535/49710584308_0c9f46b1ca_o.jpg",
    "id_image": "City_821469",
    "count_view": 0
  },
  {
    "link_thumb": "https://live.staticflickr.com/65535/49710933493_3ee61c83cd_n.jpg",
    "id_album": "850176884",
    "description": "Dragon_517947",
    "title": "Dragon_517947",
    "link_img": "https://live.staticflickr.com/65535/49710933493_e76c9565d6_o.jpg",
    "id_image": "Dragon_517947",
    "count_view": 0
  },
  {
    "link_thumb": "https://live.staticflickr.com/65535/49712053972_3fbbf89e3b_n.jpg",
    "id_album": "402434752",
    "description": "Giant_293450",
    "title": "Giant_293450",
    "link_img": "https://live.staticflickr.com/65535/49712053972_597a65359d_o.jpg",
    "id_image": "Giant_293450",
    "count_view": 0
  },
  {
    "link_thumb": "https://live.staticflickr.com/65535/49712485577_1703280fe2_n.jpg",
    "id_album": "405170427",
    "description": "Tiger_710223",
    "title": "Tiger_710223",
    "link_img": "https://live.staticflickr.com/65535/49712485577_24b20a0bd7_o.jpg",
    "id_image": "Tiger_710223",
    "count_view": 0
  },
  {
    "link_thumb": "https://live.staticflickr.com/65535/49711767318_0c329e45ec_n.jpg",
    "id_album": "-709711865",
    "description": "Wolf_998796",
    "title": "Wolf_998796",
    "link_img": "https://live.staticflickr.com/65535/49711767318_249d7d8c4d_o.jpg",
    "id_image": "Wolf_998796",
    "count_view": 0
  },
  {
    "link_thumb": "https://live.staticflickr.com/65535/49711308671_ac1653ee6c_n.jpg",
    "id_album": "-437872736",
    "description": "Creature_966470",
    "title": "Creature_966470",
    "link_img": "https://live.staticflickr.com/65535/49711308671_1baba1f698_o.jpg",
    "id_image": "Creature_966470",
    "count_view": 0
  },
  {
    "link_thumb": "https://live.staticflickr.com/65535/49712051441_f7aff9b658_n.jpg",
    "id_album": "1892085513",
    "description": "Oriental_971389",
    "title": "Oriental_971389",
    "link_img": "https://live.staticflickr.com/65535/49712051441_ca884d87f5_o.jpg",
    "id_image": "Oriental_971389",
    "count_view": 0
  },
  {
    "link_thumb": "https://live.staticflickr.com/65535/49711202478_54dda97975_n.jpg",
    "id_album": "402434752",
    "description": "Giant_829894",
    "title": "Giant_829894",
    "link_img": "https://live.staticflickr.com/65535/49711202478_ed727a3a3b_o.jpg",
    "id_image": "Giant_829894",
    "count_view": 0
  },
  {
    "link_thumb": "https://live.staticflickr.com/65535/49711595786_5b90944d98_n.jpg",
    "id_album": "-1594184835",
    "description": "Dwarf_393197",
    "title": "Dwarf_393197",
    "link_img": "https://live.staticflickr.com/65535/49711595786_718c46cf0c_o.jpg",
    "id_image": "Dwarf_393197",
    "count_view": 0
  },
  {
    "link_thumb": "https://live.staticflickr.com/65535/49711392386_3439a9d069_n.jpg",
    "id_album": "850176884",
    "description": "Dragon_233833",
    "title": "Dragon_233833",
    "link_img": "https://live.staticflickr.com/65535/49711392386_2860b62fec_o.jpg",
    "id_image": "Dragon_233833",
    "count_view": 0
  },
  {
    "link_thumb": "https://live.staticflickr.com/65535/49711230836_28b4df325e_n.jpg",
    "id_album": "-437872736",
    "description": "Creature_447052",
    "title": "Creature_447052",
    "link_img": "https://live.staticflickr.com/65535/49711230836_4bae1e7ace_o.jpg",
    "id_image": "Creature_447052",
    "count_view": 0
  },
  {
    "link_thumb": "https://live.staticflickr.com/65535/49712081386_5a2fb9f7db_n.jpg",
    "id_album": "-300361534",
    "description": "Pirate_281423",
    "title": "Pirate_281423",
    "link_img": "https://live.staticflickr.com/65535/49712081386_c73d6cb8f7_o.jpg",
    "id_image": "Pirate_281423",
    "count_view": 0
  },
  {
    "link_thumb": "https://live.staticflickr.com/65535/49711501502_d67c9f23cc_n.jpg",
    "id_album": "-437872736",
    "description": "Creature_283632",
    "title": "Creature_283632",
    "link_img": "https://live.staticflickr.com/65535/49711501502_e35aa57019_o.jpg",
    "id_image": "Creature_283632",
    "count_view": 0
  },
  {
    "link_thumb": "https://live.staticflickr.com/65535/49712420131_333aa7af2b_n.jpg",
    "id_album": "295204930",
    "description": "Women_736796",
    "title": "Women_736796",
    "link_img": "https://live.staticflickr.com/65535/49712420131_783c1d4a63_o.jpg",
    "id_image": "Women_736796",
    "count_view": 0
  },
  {
    "link_thumb": "https://live.staticflickr.com/65535/49712008777_dc17d2a303_n.jpg",
    "id_album": "-1972042284",
    "description": "Fairy_903227",
    "title": "Fairy_903227",
    "link_img": "https://live.staticflickr.com/65535/49712008777_07365b3aee_o.jpg",
    "id_image": "Fairy_903227",
    "count_view": 0
  },
  {
    "link_thumb": "https://live.staticflickr.com/65535/49711552447_ecc056b737_n.jpg",
    "id_album": "-437872736",
    "description": "Creature_397636",
    "title": "Creature_397636",
    "link_img": "https://live.staticflickr.com/65535/49711552447_c05a8672cb_o.jpg",
    "id_image": "Creature_397636",
    "count_view": 0
  },
  {
    "link_thumb": "https://live.staticflickr.com/65535/49710325883_e212620ed0_n.jpg",
    "id_album": "-2109465612",
    "description": "Adventure_235399",
    "title": "Adventure_235399",
    "link_img": "https://live.staticflickr.com/65535/49710325883_1f6f2a3518_o.jpg",
    "id_image": "Adventure_235399",
    "count_view": 0
  },
  {
    "link_thumb": "https://live.staticflickr.com/65535/49710385473_e471e227ec_n.jpg",
    "id_album": "-1913845949",
    "description": "Animal_872957",
    "title": "Animal_872957",
    "link_img": "https://live.staticflickr.com/65535/49710385473_a8cb38ed18_o.jpg",
    "id_image": "Animal_872957",
    "count_view": 0
  },
  {
    "link_thumb": "https://live.staticflickr.com/65535/49711605843_da3a76441c_n.jpg",
    "id_album": "-5356651",
    "description": "Sorcerer_129830",
    "title": "Sorcerer_129830",
    "link_img": "https://live.staticflickr.com/65535/49711605843_e17cb3ee7d_o.jpg",
    "id_image": "Sorcerer_129830",
    "count_view": 0
  },
  {
    "link_thumb": "https://live.staticflickr.com/65535/49710699323_e9fd9472fd_n.jpg",
    "id_album": "-437872736",
    "description": "Creature_486565",
    "title": "Creature_486565",
    "link_img": "https://live.staticflickr.com/65535/49710699323_1f0813c479_o.jpg",
    "id_image": "Creature_486565",
    "count_view": 0
  },
  {
    "link_thumb": "https://live.staticflickr.com/65535/49711482371_580d91af44_n.jpg",
    "id_album": "850176884",
    "description": "Dragon_562957",
    "title": "Dragon_562957",
    "link_img": "https://live.staticflickr.com/65535/49711482371_dd2edc3029_o.jpg",
    "id_image": "Dragon_562957",
    "count_view": 0
  },
  {
    "link_thumb": "https://live.staticflickr.com/65535/49711216867_4f5a6f4772_n.jpg",
    "id_album": "-1913845949",
    "description": "Animal_137624",
    "title": "Animal_137624",
    "link_img": "https://live.staticflickr.com/65535/49711216867_585bc594a6_o.jpg",
    "id_image": "Animal_137624",
    "count_view": 0
  },
  {
    "link_thumb": "https://live.staticflickr.com/65535/49710573433_702088dc33_n.jpg",
    "id_album": "-1964113117",
    "description": "City_597426",
    "title": "City_597426",
    "link_img": "https://live.staticflickr.com/65535/49710573433_ce321534a0_o.jpg",
    "id_image": "City_597426",
    "count_view": 0
  },
  {
    "link_thumb": "https://live.staticflickr.com/65535/49711522792_ec7f0d6c21_n.jpg",
    "id_album": "-437872736",
    "description": "Creature_326033",
    "title": "Creature_326033",
    "link_img": "https://live.staticflickr.com/65535/49711522792_544299bd5b_o.jpg",
    "id_image": "Creature_326033",
    "count_view": 0
  },
  {
    "link_thumb": "https://live.staticflickr.com/65535/49711703173_7dd47bdd79_n.jpg",
    "id_album": "-1261420436",
    "description": "Warrior_945319",
    "title": "Warrior_945319",
    "link_img": "https://live.staticflickr.com/65535/49711703173_8e33d4de6c_o.jpg",
    "id_image": "Warrior_945319",
    "count_view": 0
  },
  {
    "link_thumb": "https://live.staticflickr.com/65535/49712278432_8c76ac7620_n.jpg",
    "id_album": "-833110404",
    "description": "Landscape_504302",
    "title": "Landscape_504302",
    "link_img": "https://live.staticflickr.com/65535/49712278432_568407a7a4_o.jpg",
    "id_image": "Landscape_504302",
    "count_view": 0
  },
  {
    "link_thumb": "https://live.staticflickr.com/65535/49711762531_b873b6ab37_n.jpg",
    "id_album": "-1933715543",
    "description": "Horse_820386",
    "title": "Horse_820386",
    "link_img": "https://live.staticflickr.com/65535/49711762531_d7fb6e561c_o.jpg",
    "id_image": "Horse_820386",
    "count_view": 0
  },
  {
    "link_thumb": "https://live.staticflickr.com/65535/49711328313_6e18262931_n.jpg",
    "id_album": "1402713104",
    "description": "Landscape_943132",
    "title": "Landscape_943132",
    "link_img": "https://live.staticflickr.com/65535/49711328313_fc8b75b809_o.jpg",
    "id_image": "Landscape_943132",
    "count_view": 0
  },
  {
    "link_thumb": "https://live.staticflickr.com/65535/49711337351_50f4a97669_n.jpg",
    "id_album": "7198985",
    "description": "Demon_582392",
    "title": "Demon_582392",
    "link_img": "https://live.staticflickr.com/65535/49711337351_d2fec56848_o.jpg",
    "id_image": "Demon_582392",
    "count_view": 0
  },
  {
    "link_thumb": "https://live.staticflickr.com/65535/49710690908_6dd3629dd7_n.jpg",
    "id_album": "-437872736",
    "description": "Creature_396027",
    "title": "Creature_396027",
    "link_img": "https://live.staticflickr.com/65535/49710690908_507f3fe4c8_o.jpg",
    "id_image": "Creature_396027",
    "count_view": 0
  },
  {
    "link_thumb": "https://live.staticflickr.com/65535/49711746967_b108032148_n.jpg",
    "id_album": "850176884",
    "description": "Dragon_331500",
    "title": "Dragon_331500",
    "link_img": "https://live.staticflickr.com/65535/49711746967_9fb8f675b8_o.jpg",
    "id_image": "Dragon_331500",
    "count_view": 0
  },
  {
    "link_thumb": "https://live.staticflickr.com/65535/49711259491_672f8c4281_n.jpg",
    "id_album": "-437872736",
    "description": "Creature_681007",
    "title": "Creature_681007",
    "link_img": "https://live.staticflickr.com/65535/49711259491_99c54f9e1f_o.jpg",
    "id_image": "Creature_681007",
    "count_view": 0
  },
  {
    "link_thumb": "https://live.staticflickr.com/65535/49711450217_2485107a0a_n.jpg",
    "id_album": "-1964113117",
    "description": "City_876298",
    "title": "City_876298",
    "link_img": "https://live.staticflickr.com/65535/49711450217_f47004593f_o.jpg",
    "id_image": "City_876298",
    "count_view": 0
  },
  {
    "link_thumb": "https://live.staticflickr.com/65535/49712587882_90c964530f_n.jpg",
    "id_album": "-656526651",
    "description": "Wizard_208440",
    "title": "Wizard_208440",
    "link_img": "https://live.staticflickr.com/65535/49712587882_9b97d63ac4_o.jpg",
    "id_image": "Wizard_208440",
    "count_view": 0
  },
  {
    "link_thumb": "https://live.staticflickr.com/65535/49710569643_4036792bbe_n.jpg",
    "id_album": "-1964113117",
    "description": "City_527908",
    "title": "City_527908",
    "link_img": "https://live.staticflickr.com/65535/49710569643_2ae90bd7a9_o.jpg",
    "id_image": "City_527908",
    "count_view": 0
  },
  {
    "link_thumb": "https://live.staticflickr.com/65535/49710653553_cd28998e40_n.jpg",
    "id_album": "-437872736",
    "description": "Creature_312982",
    "title": "Creature_312982",
    "link_img": "https://live.staticflickr.com/65535/49710653553_1229e92b18_o.jpg",
    "id_image": "Creature_312982",
    "count_view": 0
  },
  {
    "link_thumb": "https://live.staticflickr.com/65535/49712652626_c75eb05030_n.jpg",
    "id_album": "-1675918237",
    "description": "WomenWarrior_687573",
    "title": "WomenWarrior_687573",
    "link_img": "https://live.staticflickr.com/65535/49712652626_a4d102fded_o.jpg",
    "id_image": "WomenWarrior_687573",
    "count_view": 0
  },
  {
    "link_thumb": "https://live.staticflickr.com/65535/49711439232_4e49e16cc5_n.jpg",
    "id_album": "-1964113117",
    "description": "City_703156",
    "title": "City_703156",
    "link_img": "https://live.staticflickr.com/65535/49711439232_33a19a8443_o.jpg",
    "id_image": "City_703156",
    "count_view": 0
  },
  {
    "link_thumb": "https://live.staticflickr.com/65535/49711138901_95d1dfeaf9_n.jpg",
    "id_album": "-437872736",
    "description": "Creature_112734",
    "title": "Creature_112734",
    "link_img": "https://live.staticflickr.com/65535/49711138901_a0da1b819a_o.jpg",
    "id_image": "Creature_112734",
    "count_view": 0
  },
  {
    "link_thumb": "https://live.staticflickr.com/65535/49710843838_8d94b586fb_n.jpg",
    "id_album": "850176884",
    "description": "Dragon_188276",
    "title": "Dragon_188276",
    "link_img": "https://live.staticflickr.com/65535/49710843838_b3d99c5bdb_o.jpg",
    "id_image": "Dragon_188276",
    "count_view": 0
  },
  {
    "link_thumb": "https://live.staticflickr.com/65535/49711762327_edc794fb85_n.jpg",
    "id_album": "850176884",
    "description": "Dragon_402986",
    "title": "Dragon_402986",
    "link_img": "https://live.staticflickr.com/65535/49711762327_ca16d340c4_o.jpg",
    "id_image": "Dragon_402986",
    "count_view": 0
  },
  {
    "link_thumb": "https://live.staticflickr.com/65535/49711968642_774044a564_n.jpg",
    "id_album": "-1972042284",
    "description": "Fairy_112408",
    "title": "Fairy_112408",
    "link_img": "https://live.staticflickr.com/65535/49711968642_9c3d0fe357_o.jpg",
    "id_image": "Fairy_112408",
    "count_view": 0
  },
  {
    "link_thumb": "https://live.staticflickr.com/65535/49711554432_805dcff17f_n.jpg",
    "id_album": "-437872736",
    "description": "Creature_405766",
    "title": "Creature_405766",
    "link_img": "https://live.staticflickr.com/65535/49711554432_96fce8fe21_o.jpg",
    "id_image": "Creature_405766",
    "count_view": 0
  },
  {
    "link_thumb": "https://live.staticflickr.com/65535/49712665662_3e632ab50c_n.jpg",
    "id_album": "-1126835654",
    "description": "Women_950714",
    "title": "Women_950714",
    "link_img": "https://live.staticflickr.com/65535/49712665662_00cda24e4d_o.jpg",
    "id_image": "Women_950714",
    "count_view": 0
  },
  {
    "link_thumb": "https://live.staticflickr.com/65535/49712005243_bea2970b1f_n.jpg",
    "id_album": "-867594484",
    "description": "Women_694478",
    "title": "Women_694478",
    "link_img": "https://live.staticflickr.com/65535/49712005243_a0c344e877_o.jpg",
    "id_image": "Women_694478",
    "count_view": 0
  },
  {
    "link_thumb": "https://live.staticflickr.com/65535/49711512317_f2599526ab_n.jpg",
    "id_album": "-437872736",
    "description": "Creature_310641",
    "title": "Creature_310641",
    "link_img": "https://live.staticflickr.com/65535/49711512317_5c43a7e06e_o.jpg",
    "id_image": "Creature_310641",
    "count_view": 0
  },
  {
    "link_thumb": "https://live.staticflickr.com/65535/49711794166_7dd132c69e_n.jpg",
    "id_album": "1402713104",
    "description": "Landscape_641975",
    "title": "Landscape_641975",
    "link_img": "https://live.staticflickr.com/65535/49711794166_3c14a0c538_o.jpg",
    "id_image": "Landscape_641975",
    "count_view": 0
  },
  {
    "link_thumb": "https://live.staticflickr.com/65535/49712298062_59c74b7b9f_n.jpg",
    "id_album": "-1284959130",
    "description": "LegendOfTheFiveRings_175369",
    "title": "LegendOfTheFiveRings_175369",
    "link_img": "https://live.staticflickr.com/65535/49712298062_5fd8b59ea1_o.jpg",
    "id_image": "LegendOfTheFiveRings_175369",
    "count_view": 0
  },
  {
    "link_thumb": "https://live.staticflickr.com/65535/49711879516_57e4760d99_n.jpg",
    "id_album": "1402713104",
    "description": "Landscape_982726",
    "title": "Landscape_982726",
    "link_img": "https://live.staticflickr.com/65535/49711879516_65c9c6e0b1_o.jpg",
    "id_image": "Landscape_982726",
    "count_view": 0
  },
  {
    "link_thumb": "https://live.staticflickr.com/65535/49712225146_792b0f3c3c_n.jpg",
    "id_album": "-1261420436",
    "description": "Warrior_792209",
    "title": "Warrior_792209",
    "link_img": "https://live.staticflickr.com/65535/49712225146_6003d89f8f_o.jpg",
    "id_image": "Warrior_792209",
    "count_view": 0
  },
  {
    "link_thumb": "https://live.staticflickr.com/65535/49711526918_34037aed77_n.jpg",
    "id_album": "-639976841",
    "description": "Pegasus_331147",
    "title": "Pegasus_331147",
    "link_img": "https://live.staticflickr.com/65535/49711526918_95b3265a7f_o.jpg",
    "id_image": "Pegasus_331147",
    "count_view": 0
  },
  {
    "link_thumb": "https://live.staticflickr.com/65535/49712468831_7137cdefd4_n.jpg",
    "id_album": "1861288871",
    "description": "Women_785147",
    "title": "Women_785147",
    "link_img": "https://live.staticflickr.com/65535/49712468831_1fc4cf2799_o.jpg",
    "id_image": "Women_785147",
    "count_view": 0
  },
  {
    "link_thumb": "https://live.staticflickr.com/65535/49711679152_bf9b937ff2_n.jpg",
    "id_album": "850176884",
    "description": "Dragon_112640",
    "title": "Dragon_112640",
    "link_img": "https://live.staticflickr.com/65535/49711679152_eb0dcae9c4_o.jpg",
    "id_image": "Dragon_112640",
    "count_view": 0
  },
  {
    "link_thumb": "https://live.staticflickr.com/65535/49711542006_d152af881f_n.jpg",
    "id_album": "850176884",
    "description": "Dragon_867423",
    "title": "Dragon_867423",
    "link_img": "https://live.staticflickr.com/65535/49711542006_3114965843_o.jpg",
    "id_image": "Dragon_867423",
    "count_view": 0
  },
  {
    "link_thumb": "https://live.staticflickr.com/65535/49711882993_ba1af8eedf_n.jpg",
    "id_album": "295204930",
    "description": "Women_732171",
    "title": "Women_732171",
    "link_img": "https://live.staticflickr.com/65535/49711882993_eb4e7d51d8_o.jpg",
    "id_image": "Women_732171",
    "count_view": 0
  },
  {
    "link_thumb": "https://live.staticflickr.com/65535/49711201306_e28795d9d5_n.jpg",
    "id_album": "-437872736",
    "description": "Creature_331842",
    "title": "Creature_331842",
    "link_img": "https://live.staticflickr.com/65535/49711201306_fbaa815b89_o.jpg",
    "id_image": "Creature_331842",
    "count_view": 0
  },
  {
    "link_thumb": "https://live.staticflickr.com/65535/49711019808_071e521d02_n.jpg",
    "id_album": "850176884",
    "description": "Dragon_900223",
    "title": "Dragon_900223",
    "link_img": "https://live.staticflickr.com/65535/49711019808_96ab18b12a_o.jpg",
    "id_image": "Dragon_900223",
    "count_view": 0
  },
  {
    "link_thumb": "https://live.staticflickr.com/65535/49710327973_66da171606_n.jpg",
    "id_album": "-2109465612",
    "description": "Adventure_240985",
    "title": "Adventure_240985",
    "link_img": "https://live.staticflickr.com/65535/49710327973_9a14367f37_o.jpg",
    "id_image": "Adventure_240985",
    "count_view": 0
  },
  {
    "link_thumb": "https://live.staticflickr.com/65535/49712668942_446c3ce978_n.jpg",
    "id_album": "-1126835654",
    "description": "Women_969734",
    "title": "Women_969734",
    "link_img": "https://live.staticflickr.com/65535/49712668942_042fe61048_o.jpg",
    "id_image": "Women_969734",
    "count_view": 0
  },
  {
    "link_thumb": "https://live.staticflickr.com/65535/49712673092_511a4c27b6_n.jpg",
    "id_album": "-1126835654",
    "description": "Women_993473",
    "title": "Women_993473",
    "link_img": "https://live.staticflickr.com/65535/49712673092_66174280b0_o.jpg",
    "id_image": "Women_993473",
    "count_view": 0
  },
  {
    "link_thumb": "https://live.staticflickr.com/65535/49710574973_5d487ca6df_n.jpg",
    "id_album": "-1964113117",
    "description": "City_646610",
    "title": "City_646610",
    "link_img": "https://live.staticflickr.com/65535/49710574973_956f5ee05a_o.jpg",
    "id_image": "City_646610",
    "count_view": 0
  },
  {
    "link_thumb": "https://live.staticflickr.com/65535/49711718052_d61f6979b2_n.jpg",
    "id_album": "850176884",
    "description": "Dragon_242503",
    "title": "Dragon_242503",
    "link_img": "https://live.staticflickr.com/65535/49711718052_853d31849f_o.jpg",
    "id_image": "Dragon_242503",
    "count_view": 0
  },
  {
    "link_thumb": "https://live.staticflickr.com/65535/49712155682_9e020c13d5_n.jpg",
    "id_album": "1402713104",
    "description": "Landscape_864102",
    "title": "Landscape_864102",
    "link_img": "https://live.staticflickr.com/65535/49712155682_2d88cca2b5_o.jpg",
    "id_image": "Landscape_864102",
    "count_view": 0
  },
  {
    "link_thumb": "https://live.staticflickr.com/65535/49711226617_d6eeed52b3_n.jpg",
    "id_album": "-1913845949",
    "description": "Animal_512019",
    "title": "Animal_512019",
    "link_img": "https://live.staticflickr.com/65535/49711226617_86decfff1d_o.jpg",
    "id_image": "Animal_512019",
    "count_view": 0
  },
  {
    "link_thumb": "https://live.staticflickr.com/65535/49711606141_c596915102_n.jpg",
    "id_album": "134100487",
    "description": "Elf_251227",
    "title": "Elf_251227",
    "link_img": "https://live.staticflickr.com/65535/49711606141_98ebb30585_o.jpg",
    "id_image": "Elf_251227",
    "count_view": 0
  },
  {
    "link_thumb": "https://live.staticflickr.com/65535/49710700608_893ecb7a24_n.jpg",
    "id_album": "-437872736",
    "description": "Creature_493963",
    "title": "Creature_493963",
    "link_img": "https://live.staticflickr.com/65535/49710700608_6fe0791968_o.jpg",
    "id_image": "Creature_493963",
    "count_view": 0
  },
  {
    "link_thumb": "https://live.staticflickr.com/65535/49710976326_e79cf28d88_n.jpg",
    "id_album": "523598895",
    "description": "Artistic_618357",
    "title": "Artistic_618357",
    "link_img": "https://live.staticflickr.com/65535/49710976326_737b9d3a7c_o.jpg",
    "id_image": "Artistic_618357",
    "count_view": 0
  },
  {
    "link_thumb": "https://live.staticflickr.com/65535/49711525683_5ef81d2867_n.jpg",
    "id_album": "-639976841",
    "description": "Pegasus_28390",
    "title": "Pegasus_28390",
    "link_img": "https://live.staticflickr.com/65535/49711525683_0c272555d9_o.jpg",
    "id_image": "Pegasus_28390",
    "count_view": 0
  },
  {
    "link_thumb": "https://live.staticflickr.com/65535/49712754097_c169009ac9_n.jpg",
    "id_album": "1861288871",
    "description": "Women_187166",
    "title": "Women_187166",
    "link_img": "https://live.staticflickr.com/65535/49712754097_67aca60798_o.jpg",
    "id_image": "Women_187166",
    "count_view": 0
  },
  {
    "link_thumb": "https://live.staticflickr.com/65535/49879232126_d0682ab45e_n.jpg",
    "id_album": "-1703946758",
    "description": "ANIME_PIC_d3224c4be8a881b2087b57c1ad3cc00c",
    "title": "ANIME_PIC_d3224c4be8a881b2087b57c1ad3cc00c",
    "link_img": "https://live.staticflickr.com/65535/49879232126_114ff30cae_o.jpg",
    "id_image": "ANIME_PIC_d3224c4be8a881b2087b57c1ad3cc00c",
    "count_view": 0
  },
  {
    "link_thumb": "https://live.staticflickr.com/65535/49711450483_3d363378e7_n.jpg",
    "id_album": "416744915",
    "description": "Lion_984671",
    "title": "Lion_984671",
    "link_img": "https://live.staticflickr.com/65535/49711450483_9ea8deba28_o.jpg",
    "id_image": "Lion_984671",
    "count_view": 0
  },
  {
    "link_thumb": "https://live.staticflickr.com/65535/49712536482_cd18d79263_n.jpg",
    "id_album": "-1261420436",
    "description": "Warrior_607028",
    "title": "Warrior_607028",
    "link_img": "https://live.staticflickr.com/65535/49712536482_560d1bf06d_o.jpg",
    "id_image": "Warrior_607028",
    "count_view": 0
  },
  {
    "link_thumb": "https://live.staticflickr.com/65535/49711310827_2d5aa0b0b7_n.jpg",
    "id_album": "1187037014",
    "description": "Battle_240026",
    "title": "Battle_240026",
    "link_img": "https://live.staticflickr.com/65535/49711310827_b88a61d44b_o.jpg",
    "id_image": "Battle_240026",
    "count_view": 0
  },
  {
    "link_thumb": "https://live.staticflickr.com/65535/49711911682_8246ca335e_n.jpg",
    "id_album": "850176884",
    "description": "Dragon_982562",
    "title": "Dragon_982562",
    "link_img": "https://live.staticflickr.com/65535/49711911682_5334980e9e_o.jpg",
    "id_image": "Dragon_982562",
    "count_view": 0
  },
  {
    "link_thumb": "https://live.staticflickr.com/65535/49712226842_4bce02d327_n.jpg",
    "id_album": "-833110404",
    "description": "Landscape_269793",
    "title": "Landscape_269793",
    "link_img": "https://live.staticflickr.com/65535/49712226842_ff1422ea7d_o.jpg",
    "id_image": "Landscape_269793",
    "count_view": 0
  },
  {
    "link_thumb": "https://live.staticflickr.com/65535/49710742648_64a44a095b_n.jpg",
    "id_album": "-437872736",
    "description": "Creature_958650",
    "title": "Creature_958650",
    "link_img": "https://live.staticflickr.com/65535/49710742648_1665ee4315_o.jpg",
    "id_image": "Creature_958650",
    "count_view": 0
  },
  {
    "link_thumb": "https://live.staticflickr.com/65535/49712241296_c4f5ba1cf3_n.jpg",
    "id_album": "1173975892",
    "description": "Werewolf_126995",
    "title": "Werewolf_126995",
    "link_img": "https://live.staticflickr.com/65535/49712241296_aa13968a69_o.jpg",
    "id_image": "Werewolf_126995",
    "count_view": 0
  },
  {
    "link_thumb": "https://live.staticflickr.com/65535/49711431836_7cc832866d_n.jpg",
    "id_album": "850176884",
    "description": "Dragon_353791",
    "title": "Dragon_353791",
    "link_img": "https://live.staticflickr.com/65535/49711431836_bc52b5a7a2_o.jpg",
    "id_image": "Dragon_353791",
    "count_view": 0
  },
  {
    "link_thumb": "https://live.staticflickr.com/65535/49711706851_2d6c90a25f_n.jpg",
    "id_album": "-1083189875",
    "description": "Forest_711426",
    "title": "Forest_711426",
    "link_img": "https://live.staticflickr.com/65535/49711706851_891b95561c_o.jpg",
    "id_image": "Forest_711426",
    "count_view": 0
  },
  {
    "link_thumb": "https://live.staticflickr.com/65535/49711317536_5d95f04d8f_n.jpg",
    "id_album": "2021464556",
    "description": "Dark_256100",
    "title": "Dark_256100",
    "link_img": "https://live.staticflickr.com/65535/49711317536_c015cbf37e_o.jpg",
    "id_image": "Dark_256100",
    "count_view": 0
  },
  {
    "link_thumb": "https://live.staticflickr.com/65535/49711771101_093985a6d0_n.jpg",
    "id_album": "1957967226",
    "description": "House_753655",
    "title": "House_753655",
    "link_img": "https://live.staticflickr.com/65535/49711771101_7ec3445235_o.jpg",
    "id_image": "House_753655",
    "count_view": 0
  },
  {
    "link_thumb": "https://live.staticflickr.com/65535/49711936346_beb2c9b0be_n.jpg",
    "id_album": "-833110404",
    "description": "Landscape_402878",
    "title": "Landscape_402878",
    "link_img": "https://live.staticflickr.com/65535/49711936346_9f4f4efba6_o.jpg",
    "id_image": "Landscape_402878",
    "count_view": 0
  },
  {
    "link_thumb": "https://live.staticflickr.com/65535/49710784178_cdd1081a5c_n.jpg",
    "id_album": "2021464556",
    "description": "Dark_680407",
    "title": "Dark_680407",
    "link_img": "https://live.staticflickr.com/65535/49710784178_8c5e838a18_o.jpg",
    "id_image": "Dark_680407",
    "count_view": 0
  },
  {
    "link_thumb": "https://live.staticflickr.com/65535/49711484672_86cdfee58c_n.jpg",
    "id_album": "-437872736",
    "description": "Creature_220625",
    "title": "Creature_220625",
    "link_img": "https://live.staticflickr.com/65535/49711484672_e5ed107cf6_o.jpg",
    "id_image": "Creature_220625",
    "count_view": 0
  },
  {
    "link_thumb": "https://live.staticflickr.com/65535/49710814798_aefa67378d_n.jpg",
    "id_album": "850176884",
    "description": "DRAGON26101916500838",
    "title": "DRAGON26101916500838",
    "link_img": "https://live.staticflickr.com/65535/49710814798_ba18052eb9_o.jpg",
    "id_image": "DRAGON26101916500838",
    "count_view": 0
  },
  {
    "link_thumb": "https://live.staticflickr.com/65535/49711552701_67c2f537f3_n.jpg",
    "id_album": "850176884",
    "description": "Dragon_894445",
    "title": "Dragon_894445",
    "link_img": "https://live.staticflickr.com/65535/49711552701_c4c78df157_o.jpg",
    "id_image": "Dragon_894445",
    "count_view": 0
  },
  {
    "link_thumb": "https://live.staticflickr.com/65535/49711442358_8b9a3bd413_n.jpg",
    "id_album": "-1284959130",
    "description": "LegendOfTheFiveRings_550175",
    "title": "LegendOfTheFiveRings_550175",
    "link_img": "https://live.staticflickr.com/65535/49711442358_978d2329bd_o.jpg",
    "id_image": "LegendOfTheFiveRings_550175",
    "count_view": 0
  },
  {
    "link_thumb": "https://live.staticflickr.com/65535/49711725162_20418ed9f5_n.jpg",
    "id_album": "850176884",
    "description": "Dragon_259883",
    "title": "Dragon_259883",
    "link_img": "https://live.staticflickr.com/65535/49711725162_0d5be5f87a_o.jpg",
    "id_image": "Dragon_259883",
    "count_view": 0
  },
  {
    "link_thumb": "https://live.staticflickr.com/65535/49711520207_55b541de73_n.jpg",
    "id_album": "-437872736",
    "description": "Creature_323591",
    "title": "Creature_323591",
    "link_img": "https://live.staticflickr.com/65535/49711520207_0bf30e91a7_o.jpg",
    "id_image": "Creature_323591",
    "count_view": 0
  },
  {
    "link_thumb": "https://live.staticflickr.com/65535/49711768176_da0c36c450_n.jpg",
    "id_album": "1957967226",
    "description": "House_665327",
    "title": "House_665327",
    "link_img": "https://live.staticflickr.com/65535/49711768176_b852dc63e4_o.jpg",
    "id_image": "House_665327",
    "count_view": 0
  },
  {
    "link_thumb": "https://live.staticflickr.com/65535/49710894943_f0cf57be80_n.jpg",
    "id_album": "850176884",
    "description": "Dragon_350277",
    "title": "Dragon_350277",
    "link_img": "https://live.staticflickr.com/65535/49710894943_406493ecac_o.jpg",
    "id_image": "Dragon_350277",
    "count_view": 0
  },
  {
    "link_thumb": "https://live.staticflickr.com/65535/49711367006_33962f7248_n.jpg",
    "id_album": "850176884",
    "description": "Dragon_124508",
    "title": "Dragon_124508",
    "link_img": "https://live.staticflickr.com/65535/49711367006_827682c35f_o.jpg",
    "id_image": "Dragon_124508",
    "count_view": 0
  },
  {
    "link_thumb": "https://live.staticflickr.com/65535/49712161031_2d1ac496bd_n.jpg",
    "id_album": "405170427",
    "description": "Tiger_642280",
    "title": "Tiger_642280",
    "link_img": "https://live.staticflickr.com/65535/49712161031_e8eab54440_o.jpg",
    "id_image": "Tiger_642280",
    "count_view": 0
  },
  {
    "link_thumb": "https://live.staticflickr.com/65535/49711110616_7bcaa7b35a_n.jpg",
    "id_album": "-1964113117",
    "description": "City_670088",
    "title": "City_670088",
    "link_img": "https://live.staticflickr.com/65535/49711110616_37fbf5f101_o.jpg",
    "id_image": "City_670088",
    "count_view": 0
  },
  {
    "link_thumb": "https://live.staticflickr.com/65535/49712156837_4f75cc4c71_n.jpg",
    "id_album": "1402713104",
    "description": "Landscape_864153",
    "title": "Landscape_864153",
    "link_img": "https://live.staticflickr.com/65535/49712156837_e0e056c65c_o.jpg",
    "id_image": "Landscape_864153",
    "count_view": 0
  },
  {
    "link_thumb": "https://live.staticflickr.com/65535/49711943066_898027c982_n.jpg",
    "id_album": "-833110404",
    "description": "Landscape_420133",
    "title": "Landscape_420133",
    "link_img": "https://live.staticflickr.com/65535/49711943066_71195e24e3_o.jpg",
    "id_image": "Landscape_420133",
    "count_view": 0
  },
  {
    "link_thumb": "https://live.staticflickr.com/65535/49712438116_5bc5462033_n.jpg",
    "id_album": "1861288871",
    "description": "Women_240978",
    "title": "Women_240978",
    "link_img": "https://live.staticflickr.com/65535/49712438116_255162fd2e_o.jpg",
    "id_image": "Women_240978",
    "count_view": 0
  },
  {
    "link_thumb": "https://live.staticflickr.com/65535/49711386426_71b1e81ee3_n.jpg",
    "id_album": "850176884",
    "description": "Dragon_213667",
    "title": "Dragon_213667",
    "link_img": "https://live.staticflickr.com/65535/49711386426_fc4314a467_o.jpg",
    "id_image": "Dragon_213667",
    "count_view": 0
  },
  {
    "link_thumb": "https://live.staticflickr.com/65535/49711381853_b1e654503e_n.jpg",
    "id_album": "-833110404",
    "description": "Landscape_294006",
    "title": "Landscape_294006",
    "link_img": "https://live.staticflickr.com/65535/49711381853_6b6d624418_o.jpg",
    "id_image": "Landscape_294006",
    "count_view": 0
  },
  {
    "link_thumb": "https://live.staticflickr.com/65535/49712103702_ae1ae3482b_n.jpg",
    "id_album": "469960528",
    "description": "Knight_448114",
    "title": "Knight_448114",
    "link_img": "https://live.staticflickr.com/65535/49712103702_6dc32afe14_o.jpg",
    "id_image": "Knight_448114",
    "count_view": 0
  },
  {
    "link_thumb": "https://live.staticflickr.com/65535/49712202347_a4f181a55f_n.jpg",
    "id_album": "1402713104",
    "description": "Landscape_979173",
    "title": "Landscape_979173",
    "link_img": "https://live.staticflickr.com/65535/49712202347_24131757f9_o.jpg",
    "id_image": "Landscape_979173",
    "count_view": 0
  },
  {
    "link_thumb": "https://live.staticflickr.com/65535/49710396248_e25258037e_n.jpg",
    "id_album": "-1560111795",
    "description": "Archer_280789",
    "title": "Archer_280789",
    "link_img": "https://live.staticflickr.com/65535/49710396248_f37b44603f_o.jpg",
    "id_image": "Archer_280789",
    "count_view": 0
  },
  {
    "link_thumb": "https://live.staticflickr.com/65535/49712573947_91913da414_n.jpg",
    "id_album": "786934945",
    "description": "Whale_81270",
    "title": "Whale_81270",
    "link_img": "https://live.staticflickr.com/65535/49712573947_8972a4959d_o.jpg",
    "id_image": "Whale_81270",
    "count_view": 0
  },
  {
    "link_thumb": "https://live.staticflickr.com/65535/49711172121_f24ee6e7e1_n.jpg",
    "id_album": "-437872736",
    "description": "Creature_270094",
    "title": "Creature_270094",
    "link_img": "https://live.staticflickr.com/65535/49711172121_fdcd9a8790_o.jpg",
    "id_image": "Creature_270094",
    "count_view": 0
  },
  {
    "link_thumb": "https://live.staticflickr.com/65535/49710749353_c5b49e637d_n.jpg",
    "id_album": "-437872736",
    "description": "Creature_958699",
    "title": "Creature_958699",
    "link_img": "https://live.staticflickr.com/65535/49710749353_d6a7186568_o.jpg",
    "id_image": "Creature_958699",
    "count_view": 0
  },
  {
    "link_thumb": "https://live.staticflickr.com/65535/49711890297_0aa8ba5dde_n.jpg",
    "id_album": "850176884",
    "description": "Dragon_922850",
    "title": "Dragon_922850",
    "link_img": "https://live.staticflickr.com/65535/49711890297_1beddcebd6_o.jpg",
    "id_image": "Dragon_922850",
    "count_view": 0
  },
  {
    "link_thumb": "https://live.staticflickr.com/65535/49710972431_8bcc53d5b0_n.jpg",
    "id_album": "523598895",
    "description": "Artistic_546346",
    "title": "Artistic_546346",
    "link_img": "https://live.staticflickr.com/65535/49710972431_817f2d1778_o.jpg",
    "id_image": "Artistic_546346",
    "count_view": 0
  },
  {
    "link_thumb": "https://live.staticflickr.com/65535/49711445012_d7b5e1133d_n.jpg",
    "id_album": "-1964113117",
    "description": "City_86109",
    "title": "City_86109",
    "link_img": "https://live.staticflickr.com/65535/49711445012_5d7833cfdb_o.jpg",
    "id_image": "City_86109",
    "count_view": 0
  },
  {
    "link_thumb": "https://live.staticflickr.com/65535/49711200771_28436301e5_n.jpg",
    "id_album": "-437872736",
    "description": "Creature_331528",
    "title": "Creature_331528",
    "link_img": "https://live.staticflickr.com/65535/49711200771_97a915feeb_o.jpg",
    "id_image": "Creature_331528",
    "count_view": 0
  },
  {
    "link_thumb": "https://live.staticflickr.com/65535/49711523093_4838a3bc46_n.jpg",
    "id_album": "-1862561193",
    "description": "Other_316140",
    "title": "Other_316140",
    "link_img": "https://live.staticflickr.com/65535/49711523093_f34f03ef16_o.jpg",
    "id_image": "Other_316140",
    "count_view": 0
  }
]