[
  {
    "link_thumb": "https://live.staticflickr.com/65535/49710463518_7d70bc04d3_n.jpg",
    "id_album": "1187037014",
    "description": "Battle_387912",
    "title": "Battle_387912",
    "link_img": "https://live.staticflickr.com/65535/49710463518_cd22be8cd3_o.jpg",
    "id_image": "Battle_387912",
    "count_view": 0
  },
  {
    "link_thumb": "https://live.staticflickr.com/65535/49710410408_98f497fe22_n.jpg",
    "id_album": "523598895",
    "description": "Artistic_151071",
    "title": "Artistic_151071",
    "link_img": "https://live.staticflickr.com/65535/49710410408_b315df9fc2_o.jpg",
    "id_image": "Artistic_151071",
    "count_view": 0
  },
  {
    "link_thumb": "https://live.staticflickr.com/65535/49711961988_03f2903f5c_n.jpg",
    "id_album": "-867594484",
    "description": "Women_522618",
    "title": "Women_522618",
    "link_img": "https://live.staticflickr.com/65535/49711961988_396cdfc2c5_o.jpg",
    "id_image": "Women_522618",
    "count_view": 0
  },
  {
    "link_thumb": "https://live.staticflickr.com/65535/49711219206_559fd46e05_n.jpg",
    "id_album": "-437872736",
    "description": "Creature_375681",
    "title": "Creature_375681",
    "link_img": "https://live.staticflickr.com/65535/49711219206_294a513ff6_o.jpg",
    "id_image": "Creature_375681",
    "count_view": 0
  },
  {
    "link_thumb": "https://live.staticflickr.com/65535/49710421013_6f50552701_n.jpg",
    "id_album": "523598895",
    "description": "Artistic_221457",
    "title": "Artistic_221457",
    "link_img": "https://live.staticflickr.com/65535/49710421013_3afbb2c4ec_o.jpg",
    "id_image": "Artistic_221457",
    "count_view": 0
  },
  {
    "link_thumb": "https://live.staticflickr.com/65535/49710550538_a1a9b11f96_n.jpg",
    "id_album": "430704260",
    "description": "Child_958227",
    "title": "Child_958227",
    "link_img": "https://live.staticflickr.com/65535/49710550538_0ee09937fe_o.jpg",
    "id_image": "Child_958227",
    "count_view": 0
  },
  {
    "link_thumb": "https://live.staticflickr.com/65535/49711136068_a89dcfe5f7_n.jpg",
    "id_album": "-1972042284",
    "description": "Fairy_550172",
    "title": "Fairy_550172",
    "link_img": "https://live.staticflickr.com/65535/49711136068_5581571dab_o.jpg",
    "id_image": "Fairy_550172",
    "count_view": 0
  },
  {
    "link_thumb": "https://live.staticflickr.com/65535/49711313121_bee714c0a9_n.jpg",
    "id_album": "2021464556",
    "description": "Dark_156189",
    "title": "Dark_156189",
    "link_img": "https://live.staticflickr.com/65535/49711313121_3779a3df47_o.jpg",
    "id_image": "Dark_156189",
    "count_view": 0
  },
  {
    "link_thumb": "https://live.staticflickr.com/65535/49711868443_ede191b11b_n.jpg",
    "id_album": "295204930",
    "description": "Women_697100",
    "title": "Women_697100",
    "link_img": "https://live.staticflickr.com/65535/49711868443_18138234e0_o.jpg",
    "id_image": "Women_697100",
    "count_view": 0
  },
  {
    "link_thumb": "https://live.staticflickr.com/65535/49711255916_8641774c6c_n.jpg",
    "id_album": "-437872736",
    "description": "Creature_651330",
    "title": "Creature_651330",
    "link_img": "https://live.staticflickr.com/65535/49711255916_c36a080051_o.jpg",
    "id_image": "Creature_651330",
    "count_view": 0
  },
  {
    "link_thumb": "https://live.staticflickr.com/65535/49711178283_57d2dedf30_n.jpg",
    "id_album": "-1083189875",
    "description": "Forest_820285",
    "title": "Forest_820285",
    "link_img": "https://live.staticflickr.com/65535/49711178283_ae0bfc8464_o.jpg",
    "id_image": "Forest_820285",
    "count_view": 0
  },
  {
    "link_thumb": "https://live.staticflickr.com/65535/49712275831_a740ab8005_n.jpg",
    "id_album": "-709711865",
    "description": "Wolf_552842",
    "title": "Wolf_552842",
    "link_img": "https://live.staticflickr.com/65535/49712275831_1bb11d10f5_o.jpg",
    "id_image": "Wolf_552842",
    "count_view": 0
  },
  {
    "link_thumb": "https://live.staticflickr.com/65535/49711659403_4973ac5a69_n.jpg",
    "id_album": "1215289234",
    "description": "WARIOR2610191651255",
    "title": "WARIOR2610191651255",
    "link_img": "https://live.staticflickr.com/65535/49711659403_fdf3b5c4f2_o.jpg",
    "id_image": "WARIOR2610191651255",
    "count_view": 0
  },
  {
    "link_thumb": "https://live.staticflickr.com/65535/49711278261_72d59f05c9_n.jpg",
    "id_album": "-437872736",
    "description": "Creature_958643",
    "title": "Creature_958643",
    "link_img": "https://live.staticflickr.com/65535/49711278261_d7b69f8feb_o.jpg",
    "id_image": "Creature_958643",
    "count_view": 0
  },
  {
    "link_thumb": "https://live.staticflickr.com/65535/49711305906_fd2b3f79e5_n.jpg",
    "id_album": "-437872736",
    "description": "Creature_958985",
    "title": "Creature_958985",
    "link_img": "https://live.staticflickr.com/65535/49711305906_9a9eb6d1c0_o.jpg",
    "id_image": "Creature_958985",
    "count_view": 0
  },
  {
    "link_thumb": "https://live.staticflickr.com/65535/49711782608_c37cded4bb_n.jpg",
    "id_album": "-1126835654",
    "description": "Women_875501",
    "title": "Women_875501",
    "link_img": "https://live.staticflickr.com/65535/49711782608_7782410d19_o.jpg",
    "id_image": "Women_875501",
    "count_view": 0
  },
  {
    "link_thumb": "https://live.staticflickr.com/65535/49711837258_115299f694_n.jpg",
    "id_album": "295204930",
    "description": "Women_280736",
    "title": "Women_280736",
    "link_img": "https://live.staticflickr.com/65535/49711837258_5540eb38ba_o.jpg",
    "id_image": "Women_280736",
    "count_view": 0
  },
  {
    "link_thumb": "https://live.staticflickr.com/65535/49711343856_5377928580_n.jpg",
    "id_album": "7198985",
    "description": "Demon_967887",
    "title": "Demon_967887",
    "link_img": "https://live.staticflickr.com/65535/49711343856_e7d337468a_o.jpg",
    "id_image": "Demon_967887",
    "count_view": 0
  },
  {
    "link_thumb": "https://live.staticflickr.com/65535/49710978038_3973d4caa3_n.jpg",
    "id_album": "850176884",
    "description": "Dragon_716418",
    "title": "Dragon_716418",
    "link_img": "https://live.staticflickr.com/65535/49710978038_070883c6f7_o.jpg",
    "id_image": "Dragon_716418",
    "count_view": 0
  },
  {
    "link_thumb": "https://live.staticflickr.com/65535/49712489372_0a0c06586d_n.jpg",
    "id_album": "405170427",
    "description": "Tiger_891860",
    "title": "Tiger_891860",
    "link_img": "https://live.staticflickr.com/65535/49712489372_fa5f4fb0bc_o.jpg",
    "id_image": "Tiger_891860",
    "count_view": 0
  },
  {
    "link_thumb": "https://live.staticflickr.com/65535/49710957496_c997504166_n.jpg",
    "id_album": "523598895",
    "description": "Artistic_25264",
    "title": "Artistic_25264",
    "link_img": "https://live.staticflickr.com/65535/49710957496_95d4268bbf_o.jpg",
    "id_image": "Artistic_25264",
    "count_view": 0
  },
  {
    "link_thumb": "https://live.staticflickr.com/65535/49710800593_4ff7fd1a35_n.jpg",
    "id_album": "7198985",
    "description": "Demon_371274",
    "title": "Demon_371274",
    "link_img": "https://live.staticflickr.com/65535/49710800593_9441b0058b_o.jpg",
    "id_image": "Demon_371274",
    "count_view": 0
  },
  {
    "link_thumb": "https://live.staticflickr.com/65535/49711152421_fa869a7ef9_n.jpg",
    "id_album": "-437872736",
    "description": "Creature_179181",
    "title": "Creature_179181",
    "link_img": "https://live.staticflickr.com/65535/49711152421_9a07a59bdd_o.jpg",
    "id_image": "Creature_179181",
    "count_view": 0
  },
  {
    "link_thumb": "https://live.staticflickr.com/65535/49711703173_7dd47bdd79_n.jpg",
    "id_album": "-1261420436",
    "description": "Warrior_945319",
    "title": "Warrior_945319",
    "link_img": "https://live.staticflickr.com/65535/49711703173_8e33d4de6c_o.jpg",
    "id_image": "Warrior_945319",
    "count_view": 0
  },
  {
    "link_thumb": "https://live.staticflickr.com/65535/49710560448_6a1555ee4d_n.jpg",
    "id_album": "-1964113117",
    "description": "City_304689",
    "title": "City_304689",
    "link_img": "https://live.staticflickr.com/65535/49710560448_c0dd9b3f1d_o.jpg",
    "id_image": "City_304689",
    "count_view": 0
  },
  {
    "link_thumb": "https://live.staticflickr.com/65535/49711496413_9c0bfe4a7d_n.jpg",
    "id_album": "-14582214",
    "description": "Ocean_332397",
    "title": "Ocean_332397",
    "link_img": "https://live.staticflickr.com/65535/49711496413_750c615f16_o.jpg",
    "id_image": "Ocean_332397",
    "count_view": 0
  },
  {
    "link_thumb": "https://live.staticflickr.com/65535/49710817188_ab514c6af5_n.jpg",
    "id_album": "850176884",
    "description": "DRAGON26101916503266",
    "title": "DRAGON26101916503266",
    "link_img": "https://live.staticflickr.com/65535/49710817188_df05a12979_o.jpg",
    "id_image": "DRAGON26101916503266",
    "count_view": 0
  },
  {
    "link_thumb": "https://live.staticflickr.com/65535/49712441327_d9bff3bf83_n.jpg",
    "id_album": "407101116",
    "description": "SeaMonster_218494",
    "title": "SeaMonster_218494",
    "link_img": "https://live.staticflickr.com/65535/49712441327_c19918623b_o.jpg",
    "id_image": "SeaMonster_218494",
    "count_view": 0
  },
  {
    "link_thumb": "https://live.staticflickr.com/65535/49711030396_a5571ba56a_n.jpg",
    "id_album": "406431601",
    "description": "Building_998250",
    "title": "Building_998250",
    "link_img": "https://live.staticflickr.com/65535/49711030396_25bd4d86b0_o.jpg",
    "id_image": "Building_998250",
    "count_view": 0
  },
  {
    "link_thumb": "https://live.staticflickr.com/65535/49711225462_f4e43e3e1a_n.jpg",
    "id_album": "-1913845949",
    "description": "Animal_410770",
    "title": "Animal_410770",
    "link_img": "https://live.staticflickr.com/65535/49711225462_83b24dd936_o.jpg",
    "id_image": "Animal_410770",
    "count_view": 0
  },
  {
    "link_thumb": "https://live.staticflickr.com/65535/49712201541_f898ec7de7_n.jpg",
    "id_album": "-1261420436",
    "description": "Warrior_225450",
    "title": "Warrior_225450",
    "link_img": "https://live.staticflickr.com/65535/49712201541_b89a58f2a3_o.jpg",
    "id_image": "Warrior_225450",
    "count_view": 0
  },
  {
    "link_thumb": "https://live.staticflickr.com/65535/49711221808_86d39243e4_n.jpg",
    "id_album": "857581314",
    "description": "Griffin_940952",
    "title": "Griffin_940952",
    "link_img": "https://live.staticflickr.com/65535/49711221808_259496268a_o.jpg",
    "id_image": "Griffin_940952",
    "count_view": 0
  },
  {
    "link_thumb": "https://live.staticflickr.com/65535/49710908853_37330b1e2a_n.jpg",
    "id_album": "850176884",
    "description": "Dragon_429554",
    "title": "Dragon_429554",
    "link_img": "https://live.staticflickr.com/65535/49710908853_1d28c76507_o.jpg",
    "id_image": "Dragon_429554",
    "count_view": 0
  },
  {
    "link_thumb": "https://live.staticflickr.com/65535/49711976612_67c4ea50c6_n.jpg",
    "id_album": "-1972042284",
    "description": "Fairy_283673",
    "title": "Fairy_283673",
    "link_img": "https://live.staticflickr.com/65535/49711976612_e6021b83f2_o.jpg",
    "id_image": "Fairy_283673",
    "count_view": 0
  },
  {
    "link_thumb": "https://live.staticflickr.com/65535/49711161913_85a5155b9a_n.jpg",
    "id_album": "-1083189875",
    "description": "Forest_434280",
    "title": "Forest_434280",
    "link_img": "https://live.staticflickr.com/65535/49711161913_679abfa2c4_o.jpg",
    "id_image": "Forest_434280",
    "count_view": 0
  },
  {
    "link_thumb": "https://live.staticflickr.com/65535/49710570598_0147c35d84_n.jpg",
    "id_album": "-1964113117",
    "description": "City_528594",
    "title": "City_528594",
    "link_img": "https://live.staticflickr.com/65535/49710570598_8405d535a5_o.jpg",
    "id_image": "City_528594",
    "count_view": 0
  },
  {
    "link_thumb": "https://live.staticflickr.com/65535/49711178456_19dfb37d87_n.jpg",
    "id_album": "-437872736",
    "description": "Creature_293446",
    "title": "Creature_293446",
    "link_img": "https://live.staticflickr.com/65535/49711178456_0145926f42_o.jpg",
    "id_image": "Creature_293446",
    "count_view": 0
  },
  {
    "link_thumb": "https://live.staticflickr.com/65535/49712140507_195f04887a_n.jpg",
    "id_album": "1402713104",
    "description": "Landscape_772255",
    "title": "Landscape_772255",
    "link_img": "https://live.staticflickr.com/65535/49712140507_c13594b447_o.jpg",
    "id_image": "Landscape_772255",
    "count_view": 0
  },
  {
    "link_thumb": "https://live.staticflickr.com/65535/49710970783_71f9ac1cd6_n.jpg",
    "id_album": "850176884",
    "description": "Dragon_692312",
    "title": "Dragon_692312",
    "link_img": "https://live.staticflickr.com/65535/49710970783_c32d274fb6_o.jpg",
    "id_image": "Dragon_692312",
    "count_view": 0
  },
  {
    "link_thumb": "https://live.staticflickr.com/65535/49712208172_1831f9f02f_n.jpg",
    "id_album": "1402713104",
    "description": "Landscape_994322",
    "title": "Landscape_994322",
    "link_img": "https://live.staticflickr.com/65535/49712208172_52e90bebed_o.jpg",
    "id_image": "Landscape_994322",
    "count_view": 0
  },
  {
    "link_thumb": "https://live.staticflickr.com/65535/49712626817_3ba1cd25ac_n.jpg",
    "id_album": "-1126835654",
    "description": "Women_112739",
    "title": "Women_112739",
    "link_img": "https://live.staticflickr.com/65535/49712626817_685c1718a6_o.jpg",
    "id_image": "Women_112739",
    "count_view": 0
  },
  {
    "link_thumb": "https://live.staticflickr.com/65535/49711374111_3d9b550dc8_n.jpg",
    "id_album": "850176884",
    "description": "Dragon_151973",
    "title": "Dragon_151973",
    "link_img": "https://live.staticflickr.com/65535/49711374111_64146c29ed_o.jpg",
    "id_image": "Dragon_151973",
    "count_view": 0
  },
  {
    "link_thumb": "https://live.staticflickr.com/65535/49711873783_8bea32dd65_n.jpg",
    "id_album": "295204930",
    "description": "Women_704774",
    "title": "Women_704774",
    "link_img": "https://live.staticflickr.com/65535/49711873783_4916f34629_o.jpg",
    "id_image": "Women_704774",
    "count_view": 0
  },
  {
    "link_thumb": "https://live.staticflickr.com/65535/49711843072_9c1bf56163_n.jpg",
    "id_album": "850176884",
    "description": "Dragon_76705",
    "title": "Dragon_76705",
    "link_img": "https://live.staticflickr.com/65535/49711843072_c4c9b1ef29_o.jpg",
    "id_image": "Dragon_76705",
    "count_view": 0
  },
  {
    "link_thumb": "https://live.staticflickr.com/65535/49712134346_b479d08ec9_n.jpg",
    "id_album": "-395228614",
    "description": "Ship_423267",
    "title": "Ship_423267",
    "link_img": "https://live.staticflickr.com/65535/49712134346_54c73422e2_o.jpg",
    "id_image": "Ship_423267",
    "count_view": 0
  },
  {
    "link_thumb": "https://live.staticflickr.com/65535/49711784366_86ac85bb72_n.jpg",
    "id_album": "469960528",
    "description": "Knight_688749",
    "title": "Knight_688749",
    "link_img": "https://live.staticflickr.com/65535/49711784366_094458822b_o.jpg",
    "id_image": "Knight_688749",
    "count_view": 0
  },
  {
    "link_thumb": "https://live.staticflickr.com/65535/49711573096_6cdac3ab31_n.jpg",
    "id_album": "850176884",
    "description": "Dragon_942085",
    "title": "Dragon_942085",
    "link_img": "https://live.staticflickr.com/65535/49711573096_c0806befba_o.jpg",
    "id_image": "Dragon_942085",
    "count_view": 0
  },
  {
    "link_thumb": "https://live.staticflickr.com/65535/49712409122_42c46e0110_n.jpg",
    "id_album": "1587588550",
    "description": "Place_288869",
    "title": "Place_288869",
    "link_img": "https://live.staticflickr.com/65535/49712409122_c795c7fe53_o.jpg",
    "id_image": "Place_288869",
    "count_view": 0
  },
  {
    "link_thumb": "https://live.staticflickr.com/65535/49712179806_da7b2820cd_n.jpg",
    "id_album": "431597977",
    "description": "Unicorn_451038",
    "title": "Unicorn_451038",
    "link_img": "https://live.staticflickr.com/65535/49712179806_75af6647fb_o.jpg",
    "id_image": "Unicorn_451038",
    "count_view": 0
  },
  {
    "link_thumb": "https://live.staticflickr.com/65535/49710322138_8871fdbc72_n.jpg",
    "id_album": "-218097820",
    "description": "ASongOfIceAndFire_26298",
    "title": "ASongOfIceAndFire_26298",
    "link_img": "https://live.staticflickr.com/65535/49710322138_f681e946af_o.jpg",
    "id_image": "ASongOfIceAndFire_26298",
    "count_view": 0
  },
  {
    "link_thumb": "https://live.staticflickr.com/65535/49711902228_d35ed7d0a2_n.jpg",
    "id_album": "1861288871",
    "description": "Women_235322",
    "title": "Women_235322",
    "link_img": "https://live.staticflickr.com/65535/49711902228_ca8f2e2954_o.jpg",
    "id_image": "Women_235322",
    "count_view": 0
  },
  {
    "link_thumb": "https://live.staticflickr.com/65535/49712376061_48630ecd4b_n.jpg",
    "id_album": "295204930",
    "description": "Women_322950",
    "title": "Women_322950",
    "link_img": "https://live.staticflickr.com/65535/49712376061_6d98bf2f79_o.jpg",
    "id_image": "Women_322950",
    "count_view": 0
  },
  {
    "link_thumb": "https://live.staticflickr.com/65535/49710469403_0d4a69328e_n.jpg",
    "id_album": "1187037014",
    "description": "Battle_547209",
    "title": "Battle_547209",
    "link_img": "https://live.staticflickr.com/65535/49710469403_a070ba0121_o.jpg",
    "id_image": "Battle_547209",
    "count_view": 0
  },
  {
    "link_thumb": "https://live.staticflickr.com/65535/49712293981_fcbb95fef4_n.jpg",
    "id_album": "-709711865",
    "description": "Wolf_883175",
    "title": "Wolf_883175",
    "link_img": "https://live.staticflickr.com/65535/49712293981_5a9400e08b_o.jpg",
    "id_image": "Wolf_883175",
    "count_view": 0
  },
  {
    "link_thumb": "https://live.staticflickr.com/65535/49710861953_aac069614b_n.jpg",
    "id_album": "850176884",
    "description": "Dragon_244464",
    "title": "Dragon_244464",
    "link_img": "https://live.staticflickr.com/65535/49710861953_f4072b9630_o.jpg",
    "id_image": "Dragon_244464",
    "count_view": 0
  },
  {
    "link_thumb": "https://live.staticflickr.com/65535/49711876212_c74070d551_n.jpg",
    "id_album": "850176884",
    "description": "Dragon_900181",
    "title": "Dragon_900181",
    "link_img": "https://live.staticflickr.com/65535/49711876212_2e337ca775_o.jpg",
    "id_image": "Dragon_900181",
    "count_view": 0
  },
  {
    "link_thumb": "https://live.staticflickr.com/65535/49712489902_7e4722bf0e_n.jpg",
    "id_album": "405170427",
    "description": "Tiger_917187",
    "title": "Tiger_917187",
    "link_img": "https://live.staticflickr.com/65535/49712489902_0a85d8982e_o.jpg",
    "id_image": "Tiger_917187",
    "count_view": 0
  },
  {
    "link_thumb": "https://live.staticflickr.com/65535/49710878766_64ff6fff96_n.jpg",
    "id_album": "-1000175186",
    "description": "AngelWarrior_327197",
    "title": "AngelWarrior_327197",
    "link_img": "https://live.staticflickr.com/65535/49710878766_d80d3edbf7_o.jpg",
    "id_image": "AngelWarrior_327197",
    "count_view": 0
  },
  {
    "link_thumb": "https://live.staticflickr.com/65535/49727410711_34b2862cd6_n.jpg",
    "id_album": "-1541846310",
    "description": "Castle_701613",
    "title": "Castle_701613",
    "link_img": "https://live.staticflickr.com/65535/49727410711_2f106932f9_o.jpg",
    "id_image": "Castle_701613",
    "count_view": 0
  },
  {
    "link_thumb": "https://live.staticflickr.com/65535/49711973098_8851162896_n.jpg",
    "id_album": "-867594484",
    "description": "Women_562234",
    "title": "Women_562234",
    "link_img": "https://live.staticflickr.com/65535/49711973098_9ec45d9a13_o.jpg",
    "id_image": "Women_562234",
    "count_view": 0
  },
  {
    "link_thumb": "https://live.staticflickr.com/65535/49710868356_99f1d362eb_n.jpg",
    "id_album": "-2109465612",
    "description": "Adventure_510832",
    "title": "Adventure_510832",
    "link_img": "https://live.staticflickr.com/65535/49710868356_9d64485753_o.jpg",
    "id_image": "Adventure_510832",
    "count_view": 0
  },
  {
    "link_thumb": "https://live.staticflickr.com/65535/49711641076_a65c717c2b_n.jpg",
    "id_album": "134100487",
    "description": "Elf_934758",
    "title": "Elf_934758",
    "link_img": "https://live.staticflickr.com/65535/49711641076_f841f00337_o.jpg",
    "id_image": "Elf_934758",
    "count_view": 0
  },
  {
    "link_thumb": "https://live.staticflickr.com/65535/49710909568_f00cef7b98_n.jpg",
    "id_album": "850176884",
    "description": "Dragon_436897",
    "title": "Dragon_436897",
    "link_img": "https://live.staticflickr.com/65535/49710909568_763216b8c1_o.jpg",
    "id_image": "Dragon_436897",
    "count_view": 0
  },
  {
    "link_thumb": "https://live.staticflickr.com/65535/49711041468_c5c2911997_n.jpg",
    "id_album": "850176884",
    "description": "Dragon_952020",
    "title": "Dragon_952020",
    "link_img": "https://live.staticflickr.com/65535/49711041468_8b865c3cd4_o.jpg",
    "id_image": "Dragon_952020",
    "count_view": 0
  },
  {
    "link_thumb": "https://live.staticflickr.com/65535/49711621903_38736ed84b_n.jpg",
    "id_album": "405170427",
    "description": "Tiger_330332",
    "title": "Tiger_330332",
    "link_img": "https://live.staticflickr.com/65535/49711621903_ee605c48ba_o.jpg",
    "id_image": "Tiger_330332",
    "count_view": 0
  },
  {
    "link_thumb": "https://live.staticflickr.com/65535/49712556912_af7b249a7f_n.jpg",
    "id_album": "-1261420436",
    "description": "Warrior_916113",
    "title": "Warrior_916113",
    "link_img": "https://live.staticflickr.com/65535/49712556912_c9217d2fe0_o.jpg",
    "id_image": "Warrior_916113",
    "count_view": 0
  },
  {
    "link_thumb": "https://live.staticflickr.com/65535/49711760521_b470cd9933_n.jpg",
    "id_album": "-1933715543",
    "description": "Horse_688267",
    "title": "Horse_688267",
    "link_img": "https://live.staticflickr.com/65535/49711760521_f37bf8bcb0_o.jpg",
    "id_image": "Horse_688267",
    "count_view": 0
  },
  {
    "link_thumb": "https://live.staticflickr.com/65535/49711486607_eeef8b29df_n.jpg",
    "id_album": "-437872736",
    "description": "Creature_225045",
    "title": "Creature_225045",
    "link_img": "https://live.staticflickr.com/65535/49711486607_af61146aa5_o.jpg",
    "id_image": "Creature_225045",
    "count_view": 0
  },
  {
    "link_thumb": "https://live.staticflickr.com/65535/49711275148_d5a92244b3_n.jpg",
    "id_album": "1402713104",
    "description": "Landscape_711424",
    "title": "Landscape_711424",
    "link_img": "https://live.staticflickr.com/65535/49711275148_de381b62fa_o.jpg",
    "id_image": "Landscape_711424",
    "count_view": 0
  },
  {
    "link_thumb": "https://live.staticflickr.com/65535/49711521081_e62229a0a8_n.jpg",
    "id_album": "850176884",
    "description": "Dragon_757048",
    "title": "Dragon_757048",
    "link_img": "https://live.staticflickr.com/65535/49711521081_a9a0d4f515_o.jpg",
    "id_image": "Dragon_757048",
    "count_view": 0
  },
  {
    "link_thumb": "https://live.staticflickr.com/65535/49711955847_9e3dd1ff8c_n.jpg",
    "id_album": "134100487",
    "description": "Elf_757160",
    "title": "Elf_757160",
    "link_img": "https://live.staticflickr.com/65535/49711955847_70f63bdccb_o.jpg",
    "id_image": "Elf_757160",
    "count_view": 0
  },
  {
    "link_thumb": "https://live.staticflickr.com/65535/49710820383_c6e49a7672_n.jpg",
    "id_album": "850176884",
    "description": "Dragon_114272",
    "title": "Dragon_114272",
    "link_img": "https://live.staticflickr.com/65535/49710820383_23b1596e33_o.jpg",
    "id_image": "Dragon_114272",
    "count_view": 0
  },
  {
    "link_thumb": "https://live.staticflickr.com/65535/49711228298_8138af6ba0_n.jpg",
    "id_album": "-1933715543",
    "description": "Horse_925241",
    "title": "Horse_925241",
    "link_img": "https://live.staticflickr.com/65535/49711228298_5ab67e8289_o.jpg",
    "id_image": "Horse_925241",
    "count_view": 0
  },
  {
    "link_thumb": "https://live.staticflickr.com/65535/49711733208_2305d5eaef_n.jpg",
    "id_album": "-656526651",
    "description": "Wizard_82066",
    "title": "Wizard_82066",
    "link_img": "https://live.staticflickr.com/65535/49711733208_07052aaa44_o.jpg",
    "id_image": "Wizard_82066",
    "count_view": 0
  },
  {
    "link_thumb": "https://live.staticflickr.com/65535/49711401481_e68fa69288_n.jpg",
    "id_album": "850176884",
    "description": "Dragon_252189",
    "title": "Dragon_252189",
    "link_img": "https://live.staticflickr.com/65535/49711401481_30715ca2fa_o.jpg",
    "id_image": "Dragon_252189",
    "count_view": 0
  },
  {
    "link_thumb": "https://live.staticflickr.com/65535/49711750573_1764bf4fab_n.jpg",
    "id_album": "-709711865",
    "description": "Wolf_665364",
    "title": "Wolf_665364",
    "link_img": "https://live.staticflickr.com/65535/49711750573_43190e3bf1_o.jpg",
    "id_image": "Wolf_665364",
    "count_view": 0
  },
  {
    "link_thumb": "https://live.staticflickr.com/65535/49711584061_bc4804a926_n.jpg",
    "id_album": "850176884",
    "description": "Dragon_974460",
    "title": "Dragon_974460",
    "link_img": "https://live.staticflickr.com/65535/49711584061_8c3bd04913_o.jpg",
    "id_image": "Dragon_974460",
    "count_view": 0
  },
  {
    "link_thumb": "https://live.staticflickr.com/65535/49711017631_67c319fed6_n.jpg",
    "id_album": "-1846011410",
    "description": "Bird_689851",
    "title": "Bird_689851",
    "link_img": "https://live.staticflickr.com/65535/49711017631_4d8868f73d_o.jpg",
    "id_image": "Bird_689851",
    "count_view": 0
  },
  {
    "link_thumb": "https://live.staticflickr.com/65535/49711727307_dd8d7f276f_n.jpg",
    "id_album": "850176884",
    "description": "Dragon_268472",
    "title": "Dragon_268472",
    "link_img": "https://live.staticflickr.com/65535/49711727307_2cd2b06a5f_o.jpg",
    "id_image": "Dragon_268472",
    "count_view": 0
  },
  {
    "link_thumb": "https://live.staticflickr.com/65535/49802268773_50c1288b7b_n.jpg",
    "id_album": "-1703946758",
    "description": "ANIME_PIC_aac893e7e3c6c524dea2b841b59e5b51",
    "title": "ANIME_PIC_aac893e7e3c6c524dea2b841b59e5b51",
    "link_img": "https://live.staticflickr.com/65535/49802268773_f2547c23ff_o.jpg",
    "id_image": "ANIME_PIC_aac893e7e3c6c524dea2b841b59e5b51",
    "count_view": 0
  },
  {
    "link_thumb": "https://live.staticflickr.com/65535/49710985396_229118e7e3_n.jpg",
    "id_album": "1187037014",
    "description": "Battle_205953",
    "title": "Battle_205953",
    "link_img": "https://live.staticflickr.com/65535/49710985396_4d47b8372b_o.jpg",
    "id_image": "Battle_205953",
    "count_view": 0
  },
  {
    "link_thumb": "https://live.staticflickr.com/65535/49712235731_eddcffe4ca_n.jpg",
    "id_album": "-1261420436",
    "description": "Warrior_918425",
    "title": "Warrior_918425",
    "link_img": "https://live.staticflickr.com/65535/49712235731_bd1ba249b1_o.jpg",
    "id_image": "Warrior_918425",
    "count_view": 0
  },
  {
    "link_thumb": "https://live.staticflickr.com/65535/49711254861_1963aa09d5_n.jpg",
    "id_album": "-437872736",
    "description": "Creature_631926",
    "title": "Creature_631926",
    "link_img": "https://live.staticflickr.com/65535/49711254861_0a3dd044ff_o.jpg",
    "id_image": "Creature_631926",
    "count_view": 0
  },
  {
    "link_thumb": "https://live.staticflickr.com/65535/49711104618_0da4b9c250_n.jpg",
    "id_album": "134100487",
    "description": "Elf_898707",
    "title": "Elf_898707",
    "link_img": "https://live.staticflickr.com/65535/49711104618_360cd0c285_o.jpg",
    "id_image": "Elf_898707",
    "count_view": 0
  },
  {
    "link_thumb": "https://live.staticflickr.com/65535/49711559673_304fa52669_n.jpg",
    "id_album": "1223576123",
    "description": "Ruin_557317",
    "title": "Ruin_557317",
    "link_img": "https://live.staticflickr.com/65535/49711559673_24d13fc7b2_o.jpg",
    "id_image": "Ruin_557317",
    "count_view": 0
  },
  {
    "link_thumb": "https://live.staticflickr.com/65535/49711584736_fffd96288c_n.jpg",
    "id_album": "850176884",
    "description": "Dragon_974467",
    "title": "Dragon_974467",
    "link_img": "https://live.staticflickr.com/65535/49711584736_5f08eaf940_o.jpg",
    "id_image": "Dragon_974467",
    "count_view": 0
  },
  {
    "link_thumb": "https://live.staticflickr.com/65535/49711723201_db4b6b43d7_n.jpg",
    "id_album": "-128218148",
    "description": "Fox_701260",
    "title": "Fox_701260",
    "link_img": "https://live.staticflickr.com/65535/49711723201_9751282339_o.jpg",
    "id_image": "Fox_701260",
    "count_view": 0
  },
  {
    "link_thumb": "https://live.staticflickr.com/65535/49712323202_ae99b57b9d_n.jpg",
    "id_album": "-1613076477",
    "description": "Magic_320802",
    "title": "Magic_320802",
    "link_img": "https://live.staticflickr.com/65535/49712323202_cd9b2e4f43_o.jpg",
    "id_image": "Magic_320802",
    "count_view": 0
  },
  {
    "link_thumb": "https://live.staticflickr.com/65535/49711759066_be68df6d57_n.jpg",
    "id_album": "-1933715543",
    "description": "Horse_616402",
    "title": "Horse_616402",
    "link_img": "https://live.staticflickr.com/65535/49711759066_1e7ef6d283_o.jpg",
    "id_image": "Horse_616402",
    "count_view": 0
  },
  {
    "link_thumb": "https://live.staticflickr.com/65535/49711193403_7014d931fc_n.jpg",
    "id_album": "-128218148",
    "description": "Fox_973223",
    "title": "Fox_973223",
    "link_img": "https://live.staticflickr.com/65535/49711193403_b78121be58_o.jpg",
    "id_image": "Fox_973223",
    "count_view": 0
  },
  {
    "link_thumb": "https://live.staticflickr.com/65535/49710484828_74c4881400_n.jpg",
    "id_album": "-1846011410",
    "description": "Bird_875303",
    "title": "Bird_875303",
    "link_img": "https://live.staticflickr.com/65535/49710484828_c883096f7f_o.jpg",
    "id_image": "Bird_875303",
    "count_view": 0
  },
  {
    "link_thumb": "https://live.staticflickr.com/65535/49710459153_e6a9b9684b_n.jpg",
    "id_album": "1187037014",
    "description": "Battle_321212",
    "title": "Battle_321212",
    "link_img": "https://live.staticflickr.com/65535/49710459153_d8f86a1454_o.jpg",
    "id_image": "Battle_321212",
    "count_view": 0
  },
  {
    "link_thumb": "https://live.staticflickr.com/65535/49711423952_cc2358077f_n.jpg",
    "id_album": "-1964113117",
    "description": "City_390171",
    "title": "City_390171",
    "link_img": "https://live.staticflickr.com/65535/49711423952_710d5ac9ba_o.jpg",
    "id_image": "City_390171",
    "count_view": 0
  },
  {
    "link_thumb": "https://live.staticflickr.com/65535/49710505323_a9207bf5f6_n.jpg",
    "id_album": "-1541846310",
    "description": "Castle_266617",
    "title": "Castle_266617",
    "link_img": "https://live.staticflickr.com/65535/49710505323_6127b10cfa_o.jpg",
    "id_image": "Castle_266617",
    "count_view": 0
  },
  {
    "link_thumb": "https://live.staticflickr.com/65535/49710953013_7ef20ede94_n.jpg",
    "id_album": "850176884",
    "description": "Dragon_591163",
    "title": "Dragon_591163",
    "link_img": "https://live.staticflickr.com/65535/49710953013_f0b1044385_o.jpg",
    "id_image": "Dragon_591163",
    "count_view": 0
  },
  {
    "link_thumb": "https://live.staticflickr.com/65535/49711298356_5611154d8e_n.jpg",
    "id_album": "-437872736",
    "description": "Creature_958930",
    "title": "Creature_958930",
    "link_img": "https://live.staticflickr.com/65535/49711298356_eb561f460f_o.jpg",
    "id_image": "Creature_958930",
    "count_view": 0
  },
  {
    "link_thumb": "https://live.staticflickr.com/65535/49711880062_4e39e1d952_n.jpg",
    "id_album": "850176884",
    "description": "Dragon_907916",
    "title": "Dragon_907916",
    "link_img": "https://live.staticflickr.com/65535/49711880062_f81cd50f29_o.jpg",
    "id_image": "Dragon_907916",
    "count_view": 0
  },
  {
    "link_thumb": "https://live.staticflickr.com/65535/49710678873_31ab34e387_n.jpg",
    "id_album": "-437872736",
    "description": "Creature_366390",
    "title": "Creature_366390",
    "link_img": "https://live.staticflickr.com/65535/49710678873_a410a96a95_o.jpg",
    "id_image": "Creature_366390",
    "count_view": 0
  },
  {
    "link_thumb": "https://live.staticflickr.com/65535/49712595697_04d9887b87_n.jpg",
    "id_album": "-709711865",
    "description": "Wolf_389664",
    "title": "Wolf_389664",
    "link_img": "https://live.staticflickr.com/65535/49712595697_3a493386ab_o.jpg",
    "id_image": "Wolf_389664",
    "count_view": 0
  },
  {
    "link_thumb": "https://live.staticflickr.com/65535/49712300822_ff061aef94_n.jpg",
    "id_album": "-1284959130",
    "description": "LegendOfTheFiveRings_694624",
    "title": "LegendOfTheFiveRings_694624",
    "link_img": "https://live.staticflickr.com/65535/49712300822_a848190b16_o.jpg",
    "id_image": "LegendOfTheFiveRings_694624",
    "count_view": 0
  },
  {
    "link_thumb": "https://live.staticflickr.com/65535/49711521642_dd4e32e519_n.jpg",
    "id_album": "-437872736",
    "description": "Creature_324941",
    "title": "Creature_324941",
    "link_img": "https://live.staticflickr.com/65535/49711521642_3fe46698f4_o.jpg",
    "id_image": "Creature_324941",
    "count_view": 0
  },
  {
    "link_thumb": "https://live.staticflickr.com/65535/49712293647_7d0d92cd91_n.jpg",
    "id_album": "-833110404",
    "description": "Landscape_559038",
    "title": "Landscape_559038",
    "link_img": "https://live.staticflickr.com/65535/49712293647_5707cbdc20_o.jpg",
    "id_image": "Landscape_559038",
    "count_view": 0
  },
  {
    "link_thumb": "https://live.staticflickr.com/65535/49710551098_8f2435b082_n.jpg",
    "id_album": "430704260",
    "description": "Child_991371",
    "title": "Child_991371",
    "link_img": "https://live.staticflickr.com/65535/49710551098_ed496a0d66_o.jpg",
    "id_image": "Child_991371",
    "count_view": 0
  },
  {
    "link_thumb": "https://live.staticflickr.com/65535/49712311901_b2406a7854_n.jpg",
    "id_album": "-1126835654",
    "description": "Women_863031",
    "title": "Women_863031",
    "link_img": "https://live.staticflickr.com/65535/49712311901_77418c98e8_o.jpg",
    "id_image": "Women_863031",
    "count_view": 0
  },
  {
    "link_thumb": "https://live.staticflickr.com/65535/49710388198_88f2a155dc_n.jpg",
    "id_album": "-1913845949",
    "description": "Animal_917196",
    "title": "Animal_917196",
    "link_img": "https://live.staticflickr.com/65535/49710388198_e7076afa02_o.jpg",
    "id_image": "Animal_917196",
    "count_view": 0
  },
  {
    "link_thumb": "https://live.staticflickr.com/65535/49710476158_c0a0034258_n.jpg",
    "id_album": "1187037014",
    "description": "Battle_846807",
    "title": "Battle_846807",
    "link_img": "https://live.staticflickr.com/65535/49710476158_5436cc3a55_o.jpg",
    "id_image": "Battle_846807",
    "count_view": 0
  },
  {
    "link_thumb": "https://live.staticflickr.com/65535/49711850078_51919df51c_n.jpg",
    "id_album": "295204930",
    "description": "Women_372385",
    "title": "Women_372385",
    "link_img": "https://live.staticflickr.com/65535/49711850078_660c958bd0_o.jpg",
    "id_image": "Women_372385",
    "count_view": 0
  },
  {
    "link_thumb": "https://live.staticflickr.com/65535/49711590193_0f4116fe65_n.jpg",
    "id_album": "407101116",
    "description": "SeaMonster_911860",
    "title": "SeaMonster_911860",
    "link_img": "https://live.staticflickr.com/65535/49711590193_32677d672d_o.jpg",
    "id_image": "SeaMonster_911860",
    "count_view": 0
  },
  {
    "link_thumb": "https://live.staticflickr.com/65535/49711262281_f9928cb9d9_n.jpg",
    "id_album": "-437872736",
    "description": "Creature_702635",
    "title": "Creature_702635",
    "link_img": "https://live.staticflickr.com/65535/49711262281_8b2f96ebfe_o.jpg",
    "id_image": "Creature_702635",
    "count_view": 0
  },
  {
    "link_thumb": "https://live.staticflickr.com/65535/49712029717_87de64f732_n.jpg",
    "id_album": "-1083189875",
    "description": "Forest_707124",
    "title": "Forest_707124",
    "link_img": "https://live.staticflickr.com/65535/49712029717_9053cec4dd_o.jpg",
    "id_image": "Forest_707124",
    "count_view": 0
  },
  {
    "link_thumb": "https://live.staticflickr.com/65535/49710485238_6cd88e2590_n.jpg",
    "id_album": "-1846011410",
    "description": "Bird_909535",
    "title": "Bird_909535",
    "link_img": "https://live.staticflickr.com/65535/49710485238_7eebfd0ecc_o.jpg",
    "id_image": "Bird_909535",
    "count_view": 0
  },
  {
    "link_thumb": "https://live.staticflickr.com/65535/49711318276_cc89e79df4_n.jpg",
    "id_album": "2021464556",
    "description": "Dark_310658",
    "title": "Dark_310658",
    "link_img": "https://live.staticflickr.com/65535/49711318276_fed817c30e_o.jpg",
    "id_image": "Dark_310658",
    "count_view": 0
  },
  {
    "link_thumb": "https://live.staticflickr.com/65535/49710329878_4578539d4a_n.jpg",
    "id_album": "-2109465612",
    "description": "Adventure_247200",
    "title": "Adventure_247200",
    "link_img": "https://live.staticflickr.com/65535/49710329878_0814113655_o.jpg",
    "id_image": "Adventure_247200",
    "count_view": 0
  },
  {
    "link_thumb": "https://live.staticflickr.com/65535/49711366081_ba31013eb1_n.jpg",
    "id_album": "850176884",
    "description": "Dragon_123152",
    "title": "Dragon_123152",
    "link_img": "https://live.staticflickr.com/65535/49711366081_270e1da3dd_o.jpg",
    "id_image": "Dragon_123152",
    "count_view": 0
  },
  {
    "link_thumb": "https://live.staticflickr.com/65535/49711021076_3fbaf64c44_n.jpg",
    "id_album": "-1846011410",
    "description": "Bird_987592",
    "title": "Bird_987592",
    "link_img": "https://live.staticflickr.com/65535/49711021076_f4e4a83f0f_o.jpg",
    "id_image": "Bird_987592",
    "count_view": 0
  },
  {
    "link_thumb": "https://live.staticflickr.com/65535/49710410113_060014b4b9_n.jpg",
    "id_album": "523598895",
    "description": "Artistic_150283",
    "title": "Artistic_150283",
    "link_img": "https://live.staticflickr.com/65535/49710410113_e46ab70372_o.jpg",
    "id_image": "Artistic_150283",
    "count_view": 0
  },
  {
    "link_thumb": "https://live.staticflickr.com/65535/49711660338_6c6e2f080e_n.jpg",
    "id_album": "1215289234",
    "description": "WARIOR2610191651318",
    "title": "WARIOR2610191651318",
    "link_img": "https://live.staticflickr.com/65535/49711660338_65a4ff9212_o.jpg",
    "id_image": "WARIOR2610191651318",
    "count_view": 0
  },
  {
    "link_thumb": "https://live.staticflickr.com/65535/49798295478_462620057c_n.jpg",
    "id_album": "-1703946758",
    "description": "ANIME_PIC_ec497c7cb10211140051181f39120177",
    "title": "ANIME_PIC_ec497c7cb10211140051181f39120177",
    "link_img": "https://live.staticflickr.com/65535/49798295478_7ac85c5aa3_o.jpg",
    "id_image": "ANIME_PIC_ec497c7cb10211140051181f39120177",
    "count_view": 0
  },
  {
    "link_thumb": "https://live.staticflickr.com/65535/49712538077_c2b520685c_n.jpg",
    "id_album": "-1261420436",
    "description": "Warrior_610432",
    "title": "Warrior_610432",
    "link_img": "https://live.staticflickr.com/65535/49712538077_d35dd5fe81_o.jpg",
    "id_image": "Warrior_610432",
    "count_view": 0
  },
  {
    "link_thumb": "https://live.staticflickr.com/65535/49710371823_f77b9a31cf_n.jpg",
    "id_album": "-1913845949",
    "description": "Animal_636030",
    "title": "Animal_636030",
    "link_img": "https://live.staticflickr.com/65535/49710371823_04416b6180_o.jpg",
    "id_image": "Animal_636030",
    "count_view": 0
  },
  {
    "link_thumb": "https://live.staticflickr.com/65535/49712343807_2780326105_n.jpg",
    "id_album": "-222719689",
    "description": "Men_970319",
    "title": "Men_970319",
    "link_img": "https://live.staticflickr.com/65535/49712343807_27ac6402c2_o.jpg",
    "id_image": "Men_970319",
    "count_view": 0
  },
  {
    "link_thumb": "https://live.staticflickr.com/65535/49711725526_e53d78c107_n.jpg",
    "id_album": "-128218148",
    "description": "Fox_903148",
    "title": "Fox_903148",
    "link_img": "https://live.staticflickr.com/65535/49711725526_a4243c20dc_o.jpg",
    "id_image": "Fox_903148",
    "count_view": 0
  },
  {
    "link_thumb": "https://live.staticflickr.com/65535/49710635298_1837bf1260_n.jpg",
    "id_album": "-437872736",
    "description": "Creature_267696",
    "title": "Creature_267696",
    "link_img": "https://live.staticflickr.com/65535/49710635298_6322839878_o.jpg",
    "id_image": "Creature_267696",
    "count_view": 0
  },
  {
    "link_thumb": "https://live.staticflickr.com/65535/49711238067_f534ab430f_n.jpg",
    "id_album": "-1913845949",
    "description": "Animal_644251",
    "title": "Animal_644251",
    "link_img": "https://live.staticflickr.com/65535/49711238067_ecdd89bc2d_o.jpg",
    "id_image": "Animal_644251",
    "count_view": 0
  },
  {
    "link_thumb": "https://live.staticflickr.com/65535/49710860886_75a665013e_n.jpg",
    "id_album": "-2109465612",
    "description": "Adventure_238427",
    "title": "Adventure_238427",
    "link_img": "https://live.staticflickr.com/65535/49710860886_8d2d355da6_o.jpg",
    "id_image": "Adventure_238427",
    "count_view": 0
  },
  {
    "link_thumb": "https://live.staticflickr.com/65535/49710989176_4bf8e851d1_n.jpg",
    "id_album": "1187037014",
    "description": "Battle_271768",
    "title": "Battle_271768",
    "link_img": "https://live.staticflickr.com/65535/49710989176_a9cdbee153_o.jpg",
    "id_image": "Battle_271768",
    "count_view": 0
  },
  {
    "link_thumb": "https://live.staticflickr.com/65535/49711705717_7cbe26f272_n.jpg",
    "id_album": "850176884",
    "description": "Dragon_199621",
    "title": "Dragon_199621",
    "link_img": "https://live.staticflickr.com/65535/49711705717_01fdea4afe_o.jpg",
    "id_image": "Dragon_199621",
    "count_view": 0
  },
  {
    "link_thumb": "https://live.staticflickr.com/65535/49712408042_e96fa1a3d8_n.jpg",
    "id_album": "1587588550",
    "description": "Place_260515",
    "title": "Place_260515",
    "link_img": "https://live.staticflickr.com/65535/49712408042_b1ae943ce7_o.jpg",
    "id_image": "Place_260515",
    "count_view": 0
  },
  {
    "link_thumb": "https://live.staticflickr.com/65535/49711644466_2a2ec9d0c6_n.jpg",
    "id_album": "-1972042284",
    "description": "Fairy_108961",
    "title": "Fairy_108961",
    "link_img": "https://live.staticflickr.com/65535/49711644466_494cd9c676_o.jpg",
    "id_image": "Fairy_108961",
    "count_view": 0
  },
  {
    "link_thumb": "https://live.staticflickr.com/65535/49711549156_8847ac4019_n.jpg",
    "id_album": "850176884",
    "description": "Dragon_881736",
    "title": "Dragon_881736",
    "link_img": "https://live.staticflickr.com/65535/49711549156_ee0154c94c_o.jpg",
    "id_image": "Dragon_881736",
    "count_view": 0
  },
  {
    "link_thumb": "https://live.staticflickr.com/65535/49711824196_50d992d5a6_n.jpg",
    "id_album": "1402713104",
    "description": "Landscape_842659",
    "title": "Landscape_842659",
    "link_img": "https://live.staticflickr.com/65535/49711824196_006d0cbc75_o.jpg",
    "id_image": "Landscape_842659",
    "count_view": 0
  },
  {
    "link_thumb": "https://live.staticflickr.com/65535/49711020016_1540d32eb2_n.jpg",
    "id_album": "-1846011410",
    "description": "Bird_922853",
    "title": "Bird_922853",
    "link_img": "https://live.staticflickr.com/65535/49711020016_b05a889e19_o.jpg",
    "id_image": "Bird_922853",
    "count_view": 0
  },
  {
    "link_thumb": "https://live.staticflickr.com/65535/49711819062_c515c6ab70_n.jpg",
    "id_album": "850176884",
    "description": "Dragon_617561",
    "title": "Dragon_617561",
    "link_img": "https://live.staticflickr.com/65535/49711819062_8a13f7b6fa_o.jpg",
    "id_image": "Dragon_617561",
    "count_view": 0
  },
  {
    "link_thumb": "https://live.staticflickr.com/65535/49711054796_e89bd81ba7_n.jpg",
    "id_album": "-1541846310",
    "description": "Castle_705143",
    "title": "Castle_705143",
    "link_img": "https://live.staticflickr.com/65535/49711054796_1b1464b4d5_o.jpg",
    "id_image": "Castle_705143",
    "count_view": 0
  },
  {
    "link_thumb": "https://live.staticflickr.com/65535/49710550413_bc74ae2c4b_n.jpg",
    "id_album": "430704260",
    "description": "Child_952598",
    "title": "Child_952598",
    "link_img": "https://live.staticflickr.com/65535/49710550413_47163a6461_o.jpg",
    "id_image": "Child_952598",
    "count_view": 0
  },
  {
    "link_thumb": "https://live.staticflickr.com/65535/49710684683_88f1e73a74_n.jpg",
    "id_album": "-437872736",
    "description": "Creature_379070",
    "title": "Creature_379070",
    "link_img": "https://live.staticflickr.com/65535/49710684683_bbe5f0cec8_o.jpg",
    "id_image": "Creature_379070",
    "count_view": 0
  },
  {
    "link_thumb": "https://live.staticflickr.com/65535/49711807206_d971a3708d_n.jpg",
    "id_album": "1402713104",
    "description": "Landscape_708765",
    "title": "Landscape_708765",
    "link_img": "https://live.staticflickr.com/65535/49711807206_930d5af0c9_o.jpg",
    "id_image": "Landscape_708765",
    "count_view": 0
  },
  {
    "link_thumb": "https://live.staticflickr.com/65535/49711675561_9f517cbb12_n.jpg",
    "id_album": "-1972042284",
    "description": "Fairy_697935",
    "title": "Fairy_697935",
    "link_img": "https://live.staticflickr.com/65535/49711675561_73c3365180_o.jpg",
    "id_image": "Fairy_697935",
    "count_view": 0
  },
  {
    "link_thumb": "https://live.staticflickr.com/65535/49710839568_9a70497bd2_n.jpg",
    "id_album": "850176884",
    "description": "Dragon_168268",
    "title": "Dragon_168268",
    "link_img": "https://live.staticflickr.com/65535/49710839568_5e2c43a965_o.jpg",
    "id_image": "Dragon_168268",
    "count_view": 0
  },
  {
    "link_thumb": "https://live.staticflickr.com/65535/49712034341_a45c7805ee_n.jpg",
    "id_album": "-14582214",
    "description": "Ocean_652494",
    "title": "Ocean_652494",
    "link_img": "https://live.staticflickr.com/65535/49712034341_2e9cf8286b_o.jpg",
    "id_image": "Ocean_652494",
    "count_view": 0
  },
  {
    "link_thumb": "https://live.staticflickr.com/65535/49711542303_0b98c948c5_n.jpg",
    "id_album": "-1326601535",
    "description": "Phoenix_772731",
    "title": "Phoenix_772731",
    "link_img": "https://live.staticflickr.com/65535/49711542303_9fb98a2e8f_o.jpg",
    "id_image": "Phoenix_772731",
    "count_view": 0
  },
  {
    "link_thumb": "https://live.staticflickr.com/65535/49710361628_9da2c2b2cc_n.jpg",
    "id_album": "-1913845949",
    "description": "Animal_201835",
    "title": "Animal_201835",
    "link_img": "https://live.staticflickr.com/65535/49710361628_79ec06cd2d_o.jpg",
    "id_image": "Animal_201835",
    "count_view": 0
  },
  {
    "link_thumb": "https://live.staticflickr.com/65535/49711397197_3d62b55925_n.jpg",
    "id_album": "-1741487325",
    "description": "Cat_866898",
    "title": "Cat_866898",
    "link_img": "https://live.staticflickr.com/65535/49711397197_22ef09fa4e_o.jpg",
    "id_image": "Cat_866898",
    "count_view": 0
  },
  {
    "link_thumb": "https://live.staticflickr.com/65535/49710984361_b60646a951_n.jpg",
    "id_album": "1187037014",
    "description": "Battle_176704",
    "title": "Battle_176704",
    "link_img": "https://live.staticflickr.com/65535/49710984361_ed862bbc8a_o.jpg",
    "id_image": "Battle_176704",
    "count_view": 0
  },
  {
    "link_thumb": "https://live.staticflickr.com/65535/49712408756_b0c3d074fe_n.jpg",
    "id_album": "295204930",
    "description": "Women_703666",
    "title": "Women_703666",
    "link_img": "https://live.staticflickr.com/65535/49712408756_595b09d277_o.jpg",
    "id_image": "Women_703666",
    "count_view": 0
  },
  {
    "link_thumb": "https://live.staticflickr.com/65535/49711735102_8495ff79f6_n.jpg",
    "id_album": "850176884",
    "description": "Dragon_299929",
    "title": "Dragon_299929",
    "link_img": "https://live.staticflickr.com/65535/49711735102_8bf03be8a5_o.jpg",
    "id_image": "Dragon_299929",
    "count_view": 0
  },
  {
    "link_thumb": "https://live.staticflickr.com/65535/49712779197_fd3ea64c71_n.jpg",
    "id_album": "1861288871",
    "description": "Women_750956",
    "title": "Women_750956",
    "link_img": "https://live.staticflickr.com/65535/49712779197_81e3e899a6_o.jpg",
    "id_image": "Women_750956",
    "count_view": 0
  },
  {
    "link_thumb": "https://live.staticflickr.com/65535/49711783532_5daaf65299_n.jpg",
    "id_album": "850176884",
    "description": "Dragon_494996",
    "title": "Dragon_494996",
    "link_img": "https://live.staticflickr.com/65535/49711783532_c7781fbbca_o.jpg",
    "id_image": "Dragon_494996",
    "count_view": 0
  },
  {
    "link_thumb": "https://live.staticflickr.com/65535/49712574327_e29cea1c37_n.jpg",
    "id_album": "786934945",
    "description": "Whale_81761",
    "title": "Whale_81761",
    "link_img": "https://live.staticflickr.com/65535/49712574327_e29bd025c4_o.jpg",
    "id_image": "Whale_81761",
    "count_view": 0
  },
  {
    "link_thumb": "https://live.staticflickr.com/65535/49712627767_21fd69a01c_n.jpg",
    "id_album": "-1126835654",
    "description": "Women_114160",
    "title": "Women_114160",
    "link_img": "https://live.staticflickr.com/65535/49712627767_b0894947ce_o.jpg",
    "id_image": "Women_114160",
    "count_view": 0
  },
  {
    "link_thumb": "https://live.staticflickr.com/65535/49711338626_0f20228255_n.jpg",
    "id_album": "7198985",
    "description": "Demon_594689",
    "title": "Demon_594689",
    "link_img": "https://live.staticflickr.com/65535/49711338626_ed169d692d_o.jpg",
    "id_image": "Demon_594689",
    "count_view": 0
  },
  {
    "link_thumb": "https://live.staticflickr.com/65535/49712377372_43b7a735ea_n.jpg",
    "id_album": "-1862561193",
    "description": "Other_151303",
    "title": "Other_151303",
    "link_img": "https://live.staticflickr.com/65535/49712377372_2f4a51330e_o.jpg",
    "id_image": "Other_151303",
    "count_view": 0
  },
  {
    "link_thumb": "https://live.staticflickr.com/65535/49711631002_4247419764_n.jpg",
    "id_album": "-437872736",
    "description": "Creature_958992",
    "title": "Creature_958992",
    "link_img": "https://live.staticflickr.com/65535/49711631002_82324a7aed_o.jpg",
    "id_image": "Creature_958992",
    "count_view": 0
  },
  {
    "link_thumb": "https://live.staticflickr.com/65535/49711484326_04a8c249e5_n.jpg",
    "id_album": "850176884",
    "description": "Dragon_564442",
    "title": "Dragon_564442",
    "link_img": "https://live.staticflickr.com/65535/49711484326_866d8ed2e3_o.jpg",
    "id_image": "Dragon_564442",
    "count_view": 0
  },
  {
    "link_thumb": "https://live.staticflickr.com/65535/49711666021_b361bff38e_n.jpg",
    "id_album": "-1972042284",
    "description": "Fairy_452240",
    "title": "Fairy_452240",
    "link_img": "https://live.staticflickr.com/65535/49711666021_1819235f13_o.jpg",
    "id_image": "Fairy_452240",
    "count_view": 0
  },
  {
    "link_thumb": "https://live.staticflickr.com/65535/49710880321_a64726fc5b_n.jpg",
    "id_album": "-1000175186",
    "description": "AngelWarrior_486417",
    "title": "AngelWarrior_486417",
    "link_img": "https://live.staticflickr.com/65535/49710880321_57df9dc89b_o.jpg",
    "id_image": "AngelWarrior_486417",
    "count_view": 0
  },
  {
    "link_thumb": "https://live.staticflickr.com/65535/49711495692_1d3caf4e59_n.jpg",
    "id_album": "-437872736",
    "description": "Creature_267598",
    "title": "Creature_267598",
    "link_img": "https://live.staticflickr.com/65535/49711495692_f93645984c_o.jpg",
    "id_image": "Creature_267598",
    "count_view": 0
  },
  {
    "link_thumb": "https://live.staticflickr.com/65535/49711170656_58eb63e355_n.jpg",
    "id_album": "-437872736",
    "description": "Creature_269277",
    "title": "Creature_269277",
    "link_img": "https://live.staticflickr.com/65535/49711170656_037f886644_o.jpg",
    "id_image": "Creature_269277",
    "count_view": 0
  },
  {
    "link_thumb": "https://live.staticflickr.com/65535/49711605843_da3a76441c_n.jpg",
    "id_album": "-5356651",
    "description": "Sorcerer_129830",
    "title": "Sorcerer_129830",
    "link_img": "https://live.staticflickr.com/65535/49711605843_e17cb3ee7d_o.jpg",
    "id_image": "Sorcerer_129830",
    "count_view": 0
  },
  {
    "link_thumb": "https://live.staticflickr.com/65535/49713007627_d2f623d88a_n.jpg",
    "id_album": "-1675918237",
    "description": "WomenWarrior_851460",
    "title": "WomenWarrior_851460",
    "link_img": "https://live.staticflickr.com/65535/49713007627_496e620be8_o.jpg",
    "id_image": "WomenWarrior_851460",
    "count_view": 0
  },
  {
    "link_thumb": "https://live.staticflickr.com/65535/49710607583_31e24369a6_n.jpg",
    "id_album": "-437872736",
    "description": "Creature_146657",
    "title": "Creature_146657",
    "link_img": "https://live.staticflickr.com/65535/49710607583_dd47f85cc9_o.jpg",
    "id_image": "Creature_146657",
    "count_view": 0
  },
  {
    "link_thumb": "https://live.staticflickr.com/65535/49711215907_c899b8ce9f_n.jpg",
    "id_album": "-1000175186",
    "description": "AngelWarrior_996005",
    "title": "AngelWarrior_996005",
    "link_img": "https://live.staticflickr.com/65535/49711215907_8df211a77f_o.jpg",
    "id_image": "AngelWarrior_996005",
    "count_view": 0
  },
  {
    "link_thumb": "https://live.staticflickr.com/65535/49711009991_22b92c69a5_n.jpg",
    "id_album": "1187037014",
    "description": "Battle_831996",
    "title": "Battle_831996",
    "link_img": "https://live.staticflickr.com/65535/49711009991_f8b7fd138a_o.jpg",
    "id_image": "Battle_831996",
    "count_view": 0
  },
  {
    "link_thumb": "https://live.staticflickr.com/65535/49711866016_7ca5abc419_n.jpg",
    "id_album": "1402713104",
    "description": "Landscape_945961",
    "title": "Landscape_945961",
    "link_img": "https://live.staticflickr.com/65535/49711866016_b7ff8f98b9_o.jpg",
    "id_image": "Landscape_945961",
    "count_view": 0
  },
  {
    "link_thumb": "https://live.staticflickr.com/65535/49711702692_bff7232fc9_n.jpg",
    "id_album": "850176884",
    "description": "Dragon_188289",
    "title": "Dragon_188289",
    "link_img": "https://live.staticflickr.com/65535/49711702692_1e483e3bcf_o.jpg",
    "id_image": "Dragon_188289",
    "count_view": 0
  },
  {
    "link_thumb": "https://live.staticflickr.com/65535/49712038277_f370c0d7e1_n.jpg",
    "id_album": "-1083189875",
    "description": "Forest_864932",
    "title": "Forest_864932",
    "link_img": "https://live.staticflickr.com/65535/49712038277_d410c2bbd6_o.jpg",
    "id_image": "Forest_864932",
    "count_view": 0
  },
  {
    "link_thumb": "https://live.staticflickr.com/65535/49712088281_e14cdfc74b_n.jpg",
    "id_album": "1587588550",
    "description": "Place_349659",
    "title": "Place_349659",
    "link_img": "https://live.staticflickr.com/65535/49712088281_f534eab08e_o.jpg",
    "id_image": "Place_349659",
    "count_view": 0
  },
  {
    "link_thumb": "https://live.staticflickr.com/65535/49712530207_8aaa0b63b1_n.jpg",
    "id_album": "-1261420436",
    "description": "Warrior_412039",
    "title": "Warrior_412039",
    "link_img": "https://live.staticflickr.com/65535/49712530207_02f73db85c_o.jpg",
    "id_image": "Warrior_412039",
    "count_view": 0
  },
  {
    "link_thumb": "https://live.staticflickr.com/65535/49712442142_c65a189c4a_n.jpg",
    "id_album": "407101116",
    "description": "SeaMonster_283169",
    "title": "SeaMonster_283169",
    "link_img": "https://live.staticflickr.com/65535/49712442142_458f9655b5_o.jpg",
    "id_image": "SeaMonster_283169",
    "count_view": 0
  },
  {
    "link_thumb": "https://live.staticflickr.com/65535/49711208452_47dba6decc_n.jpg",
    "id_album": "-1000175186",
    "description": "AngelWarrior_605436",
    "title": "AngelWarrior_605436",
    "link_img": "https://live.staticflickr.com/65535/49711208452_8862ac4ab7_o.jpg",
    "id_image": "AngelWarrior_605436",
    "count_view": 0
  },
  {
    "link_thumb": "https://live.staticflickr.com/65535/49711612922_e663964970_n.jpg",
    "id_album": "-437872736",
    "description": "Creature_958718",
    "title": "Creature_958718",
    "link_img": "https://live.staticflickr.com/65535/49711612922_0b6df3b792_o.jpg",
    "id_image": "Creature_958718",
    "count_view": 0
  },
  {
    "link_thumb": "https://live.staticflickr.com/65535/49710865683_fc7f0d6efc_n.jpg",
    "id_album": "850176884",
    "description": "Dragon_252913",
    "title": "Dragon_252913",
    "link_img": "https://live.staticflickr.com/65535/49710865683_33cb6c5d98_o.jpg",
    "id_image": "Dragon_252913",
    "count_view": 0
  },
  {
    "link_thumb": "https://live.staticflickr.com/65535/49711223513_e0ff1be04a_n.jpg",
    "id_album": "-1933715543",
    "description": "Horse_493009",
    "title": "Horse_493009",
    "link_img": "https://live.staticflickr.com/65535/49711223513_4cbc448b4f_o.jpg",
    "id_image": "Horse_493009",
    "count_view": 0
  },
  {
    "link_thumb": "https://live.staticflickr.com/65535/49712156837_4f75cc4c71_n.jpg",
    "id_album": "1402713104",
    "description": "Landscape_864153",
    "title": "Landscape_864153",
    "link_img": "https://live.staticflickr.com/65535/49712156837_e0e056c65c_o.jpg",
    "id_image": "Landscape_864153",
    "count_view": 0
  },
  {
    "link_thumb": "https://live.staticflickr.com/65535/49712021166_576e56a162_n.jpg",
    "id_album": "-222719689",
    "description": "Men_967938",
    "title": "Men_967938",
    "link_img": "https://live.staticflickr.com/65535/49712021166_66b781aa3d_o.jpg",
    "id_image": "Men_967938",
    "count_view": 0
  },
  {
    "link_thumb": "https://live.staticflickr.com/65535/49712299392_4794f6d379_n.jpg",
    "id_album": "-1284959130",
    "description": "LegendOfTheFiveRings_249737",
    "title": "LegendOfTheFiveRings_249737",
    "link_img": "https://live.staticflickr.com/65535/49712299392_311a14a956_o.jpg",
    "id_image": "LegendOfTheFiveRings_249737",
    "count_view": 0
  },
  {
    "link_thumb": "https://live.staticflickr.com/65535/49711749402_7575704b62_n.jpg",
    "id_album": "850176884",
    "description": "Dragon_337448",
    "title": "Dragon_337448",
    "link_img": "https://live.staticflickr.com/65535/49711749402_0bf673252f_o.jpg",
    "id_image": "Dragon_337448",
    "count_view": 0
  },
  {
    "link_thumb": "https://live.staticflickr.com/65535/49710617478_14c8a95604_n.jpg",
    "id_album": "-437872736",
    "description": "Creature_183323",
    "title": "Creature_183323",
    "link_img": "https://live.staticflickr.com/65535/49710617478_04731cbb58_o.jpg",
    "id_image": "Creature_183323",
    "count_view": 0
  },
  {
    "link_thumb": "https://live.staticflickr.com/65535/49712225146_792b0f3c3c_n.jpg",
    "id_album": "-1261420436",
    "description": "Warrior_792209",
    "title": "Warrior_792209",
    "link_img": "https://live.staticflickr.com/65535/49712225146_6003d89f8f_o.jpg",
    "id_image": "Warrior_792209",
    "count_view": 0
  },
  {
    "link_thumb": "https://live.staticflickr.com/65535/49711435467_2af401380e_n.jpg",
    "id_album": "-1964113117",
    "description": "City_676337",
    "title": "City_676337",
    "link_img": "https://live.staticflickr.com/65535/49711435467_ded3412409_o.jpg",
    "id_image": "City_676337",
    "count_view": 0
  },
  {
    "link_thumb": "https://live.staticflickr.com/65535/49711732052_fa34ea530e_n.jpg",
    "id_album": "850176884",
    "description": "Dragon_283849",
    "title": "Dragon_283849",
    "link_img": "https://live.staticflickr.com/65535/49711732052_49973fa4bb_o.jpg",
    "id_image": "Dragon_283849",
    "count_view": 0
  },
  {
    "link_thumb": "https://live.staticflickr.com/65535/49711135741_84faa8d4bd_n.jpg",
    "id_album": "-1964113117",
    "description": "City_974721",
    "title": "City_974721",
    "link_img": "https://live.staticflickr.com/65535/49711135741_e6282b95c6_o.jpg",
    "id_image": "City_974721",
    "count_view": 0
  },
  {
    "link_thumb": "https://live.staticflickr.com/65535/49712307636_8d7ff3b577_n.jpg",
    "id_album": "-1126835654",
    "description": "Women_842736",
    "title": "Women_842736",
    "link_img": "https://live.staticflickr.com/65535/49712307636_034069b3b1_o.jpg",
    "id_image": "Women_842736",
    "count_view": 0
  },
  {
    "link_thumb": "https://live.staticflickr.com/65535/49711794792_c02685796c_n.jpg",
    "id_album": "850176884",
    "description": "Dragon_528596",
    "title": "Dragon_528596",
    "link_img": "https://live.staticflickr.com/65535/49711794792_bbe95b4017_o.jpg",
    "id_image": "Dragon_528596",
    "count_view": 0
  },
  {
    "link_thumb": "https://live.staticflickr.com/65535/49711184653_8492fe96b6_n.jpg",
    "id_album": "-1083189875",
    "description": "Forest_89284",
    "title": "Forest_89284",
    "link_img": "https://live.staticflickr.com/65535/49711184653_bf50df720b_o.jpg",
    "id_image": "Forest_89284",
    "count_view": 0
  },
  {
    "link_thumb": "https://live.staticflickr.com/65535/49711627382_6394fc549f_n.jpg",
    "id_album": "-437872736",
    "description": "Creature_958973",
    "title": "Creature_958973",
    "link_img": "https://live.staticflickr.com/65535/49711627382_89e9309be8_o.jpg",
    "id_image": "Creature_958973",
    "count_view": 0
  },
  {
    "link_thumb": "https://live.staticflickr.com/65535/49711452073_597e664b38_n.jpg",
    "id_album": "1006968559",
    "description": "LordoftheRings_173467",
    "title": "LordoftheRings_173467",
    "link_img": "https://live.staticflickr.com/65535/49711452073_d5d3d59373_o.jpg",
    "id_image": "LordoftheRings_173467",
    "count_view": 0
  },
  {
    "link_thumb": "https://live.staticflickr.com/65535/49711832186_c86a8fa445_n.jpg",
    "id_album": "1402713104",
    "description": "Landscape_863323",
    "title": "Landscape_863323",
    "link_img": "https://live.staticflickr.com/65535/49711832186_941c4d2a94_o.jpg",
    "id_image": "Landscape_863323",
    "count_view": 0
  },
  {
    "link_thumb": "https://live.staticflickr.com/65535/49712238662_10c959e5c5_n.jpg",
    "id_album": "-833110404",
    "description": "Landscape_290989",
    "title": "Landscape_290989",
    "link_img": "https://live.staticflickr.com/65535/49712238662_dac6f1f726_o.jpg",
    "id_image": "Landscape_290989",
    "count_view": 0
  },
  {
    "link_thumb": "https://live.staticflickr.com/65535/49711863318_9ea4d97e73_n.jpg",
    "id_album": "295204930",
    "description": "Women_430771",
    "title": "Women_430771",
    "link_img": "https://live.staticflickr.com/65535/49711863318_5c53ff1f93_o.jpg",
    "id_image": "Women_430771",
    "count_view": 0
  },
  {
    "link_thumb": "https://live.staticflickr.com/65535/49711799058_d3a2386445_n.jpg",
    "id_album": "-1126835654",
    "description": "Women_903067",
    "title": "Women_903067",
    "link_img": "https://live.staticflickr.com/65535/49711799058_f8db2a4b4b_o.jpg",
    "id_image": "Women_903067",
    "count_view": 0
  },
  {
    "link_thumb": "https://live.staticflickr.com/65535/49711167943_7698230bb6_n.jpg",
    "id_album": "-1083189875",
    "description": "Forest_63115",
    "title": "Forest_63115",
    "link_img": "https://live.staticflickr.com/65535/49711167943_67a1ae626e_o.jpg",
    "id_image": "Forest_63115",
    "count_view": 0
  },
  {
    "link_thumb": "https://live.staticflickr.com/65535/49712562577_e3337ee7f3_n.jpg",
    "id_album": "-1261420436",
    "description": "Warrior_981479",
    "title": "Warrior_981479",
    "link_img": "https://live.staticflickr.com/65535/49712562577_79872a309d_o.jpg",
    "id_image": "Warrior_981479",
    "count_view": 0
  },
  {
    "link_thumb": "https://live.staticflickr.com/65535/49710897291_b2d7ddbe81_n.jpg",
    "id_album": "-1913845949",
    "description": "Animal_263897",
    "title": "Animal_263897",
    "link_img": "https://live.staticflickr.com/65535/49710897291_b82835da16_o.jpg",
    "id_image": "Animal_263897",
    "count_view": 0
  },
  {
    "link_thumb": "https://live.staticflickr.com/65535/49711807731_0422ae0c4f_n.jpg",
    "id_album": "1402713104",
    "description": "Landscape_709112",
    "title": "Landscape_709112",
    "link_img": "https://live.staticflickr.com/65535/49711807731_dba343752e_o.jpg",
    "id_image": "Landscape_709112",
    "count_view": 0
  },
  {
    "link_thumb": "https://live.staticflickr.com/65535/49710442603_0a76c26fee_n.jpg",
    "id_album": "523598895",
    "description": "Artistic_618450",
    "title": "Artistic_618450",
    "link_img": "https://live.staticflickr.com/65535/49710442603_06f46f4a61_o.jpg",
    "id_image": "Artistic_618450",
    "count_view": 0
  },
  {
    "link_thumb": "https://live.staticflickr.com/65535/49711627421_c97ab72ed1_n.jpg",
    "id_album": "134100487",
    "description": "Elf_684661",
    "title": "Elf_684661",
    "link_img": "https://live.staticflickr.com/65535/49711627421_22f5465814_o.jpg",
    "id_image": "Elf_684661",
    "count_view": 0
  },
  {
    "link_thumb": "https://live.staticflickr.com/65535/49711679726_74178edd71_n.jpg",
    "id_album": "-1972042284",
    "description": "Fairy_734022",
    "title": "Fairy_734022",
    "link_img": "https://live.staticflickr.com/65535/49711679726_3b0c0ca3dd_o.jpg",
    "id_image": "Fairy_734022",
    "count_view": 0
  },
  {
    "link_thumb": "https://live.staticflickr.com/65535/49711912847_1bf229e52c_n.jpg",
    "id_album": "850176884",
    "description": "Dragon_985966",
    "title": "Dragon_985966",
    "link_img": "https://live.staticflickr.com/65535/49711912847_d776524edd_o.jpg",
    "id_image": "Dragon_985966",
    "count_view": 0
  },
  {
    "link_thumb": "https://live.staticflickr.com/65535/49712409262_c4c2d93518_n.jpg",
    "id_album": "1587588550",
    "description": "Place_332015",
    "title": "Place_332015",
    "link_img": "https://live.staticflickr.com/65535/49712409262_e0ee5f1a41_o.jpg",
    "id_image": "Place_332015",
    "count_view": 0
  },
  {
    "link_thumb": "https://live.staticflickr.com/65535/49711846657_257e8171b0_n.jpg",
    "id_album": "850176884",
    "description": "Dragon_784049",
    "title": "Dragon_784049",
    "link_img": "https://live.staticflickr.com/65535/49711846657_4941fce8c3_o.jpg",
    "id_image": "Dragon_784049",
    "count_view": 0
  },
  {
    "link_thumb": "https://live.staticflickr.com/65535/49711806123_a4c8e3e479_n.jpg",
    "id_album": "-1126835654",
    "description": "Women_933584",
    "title": "Women_933584",
    "link_img": "https://live.staticflickr.com/65535/49711806123_f52c857375_o.jpg",
    "id_image": "Women_933584",
    "count_view": 0
  },
  {
    "link_thumb": "https://live.staticflickr.com/65535/49711251713_f0ecdd8cc6_n.jpg",
    "id_album": "469960528",
    "description": "Knight_784933",
    "title": "Knight_784933",
    "link_img": "https://live.staticflickr.com/65535/49711251713_af0d6c3399_o.jpg",
    "id_image": "Knight_784933",
    "count_view": 0
  },
  {
    "link_thumb": "https://live.staticflickr.com/65535/49710534503_35bc88e4f2_n.jpg",
    "id_album": "-1741487325",
    "description": "Cat_626698",
    "title": "Cat_626698",
    "link_img": "https://live.staticflickr.com/65535/49710534503_706f8ffc93_o.jpg",
    "id_image": "Cat_626698",
    "count_view": 0
  },
  {
    "link_thumb": "https://live.staticflickr.com/65535/49711543447_2a44eb91be_n.jpg",
    "id_album": "-437872736",
    "description": "Creature_372458",
    "title": "Creature_372458",
    "link_img": "https://live.staticflickr.com/65535/49711543447_41364c55b8_o.jpg",
    "id_image": "Creature_372458",
    "count_view": 0
  },
  {
    "link_thumb": "https://live.staticflickr.com/65535/49712230467_0e24b974a8_n.jpg",
    "id_album": "-833110404",
    "description": "Landscape_282505",
    "title": "Landscape_282505",
    "link_img": "https://live.staticflickr.com/65535/49712230467_c65e3bc2e5_o.jpg",
    "id_image": "Landscape_282505",
    "count_view": 0
  },
  {
    "link_thumb": "https://live.staticflickr.com/65535/49710749888_fe4241140c_n.jpg",
    "id_album": "-437872736",
    "description": "Creature_958702",
    "title": "Creature_958702",
    "link_img": "https://live.staticflickr.com/65535/49710749888_f5ba55829a_o.jpg",
    "id_image": "Creature_958702",
    "count_view": 0
  },
  {
    "link_thumb": "https://live.staticflickr.com/65535/49711523497_335b8e8cdd_n.jpg",
    "id_album": "-437872736",
    "description": "Creature_327049",
    "title": "Creature_327049",
    "link_img": "https://live.staticflickr.com/65535/49711523497_703e199040_o.jpg",
    "id_image": "Creature_327049",
    "count_view": 0
  },
  {
    "link_thumb": "https://live.staticflickr.com/65535/49710881503_401443f090_n.jpg",
    "id_album": "850176884",
    "description": "Dragon_315656",
    "title": "Dragon_315656",
    "link_img": "https://live.staticflickr.com/65535/49710881503_934a81d7cf_o.jpg",
    "id_image": "Dragon_315656",
    "count_view": 0
  },
  {
    "link_thumb": "https://live.staticflickr.com/65535/49711871851_766c02371d_n.jpg",
    "id_album": "1402713104",
    "description": "Landscape_956732",
    "title": "Landscape_956732",
    "link_img": "https://live.staticflickr.com/65535/49711871851_12c1e2a0d2_o.jpg",
    "id_image": "Landscape_956732",
    "count_view": 0
  },
  {
    "link_thumb": "https://live.staticflickr.com/65535/49710998328_4f9250bd44_n.jpg",
    "id_album": "850176884",
    "description": "Dragon_840842",
    "title": "Dragon_840842",
    "link_img": "https://live.staticflickr.com/65535/49710998328_4fc7b8ca86_o.jpg",
    "id_image": "Dragon_840842",
    "count_view": 0
  },
  {
    "link_thumb": "https://live.staticflickr.com/65535/49712271957_acc157bbc4_n.jpg",
    "id_album": "-833110404",
    "description": "Landscape_465982",
    "title": "Landscape_465982",
    "link_img": "https://live.staticflickr.com/65535/49712271957_798a1fb854_o.jpg",
    "id_image": "Landscape_465982",
    "count_view": 0
  },
  {
    "link_thumb": "https://live.staticflickr.com/65535/49710616743_6ed5236288_n.jpg",
    "id_album": "-437872736",
    "description": "Creature_179439",
    "title": "Creature_179439",
    "link_img": "https://live.staticflickr.com/65535/49710616743_034fc35c1f_o.jpg",
    "id_image": "Creature_179439",
    "count_view": 0
  },
  {
    "link_thumb": "https://live.staticflickr.com/65535/49711287342_b10d46684a_n.jpg",
    "id_album": "523598895",
    "description": "Artistic_359653",
    "title": "Artistic_359653",
    "link_img": "https://live.staticflickr.com/65535/49711287342_72aa3b18b8_o.jpg",
    "id_image": "Artistic_359653",
    "count_view": 0
  },
  {
    "link_thumb": "https://live.staticflickr.com/65535/49711444832_d7668b12a3_n.jpg",
    "id_album": "-1964113117",
    "description": "City_85361",
    "title": "City_85361",
    "link_img": "https://live.staticflickr.com/65535/49711444832_9e30760581_o.jpg",
    "id_image": "City_85361",
    "count_view": 0
  },
  {
    "link_thumb": "https://live.staticflickr.com/65535/49712560222_b95cbd3560_n.jpg",
    "id_album": "-1261420436",
    "description": "Warrior_928641",
    "title": "Warrior_928641",
    "link_img": "https://live.staticflickr.com/65535/49712560222_d582cb8094_o.jpg",
    "id_image": "Warrior_928641",
    "count_view": 0
  },
  {
    "link_thumb": "https://live.staticflickr.com/65535/49711658386_4dd5557419_n.jpg",
    "id_album": "-1972042284",
    "description": "Fairy_342619",
    "title": "Fairy_342619",
    "link_img": "https://live.staticflickr.com/65535/49711658386_9595d20eba_o.jpg",
    "id_image": "Fairy_342619",
    "count_view": 0
  },
  {
    "link_thumb": "https://live.staticflickr.com/65535/49710889316_f449f82d57_n.jpg",
    "id_album": "-1000175186",
    "description": "AngelWarrior_903770",
    "title": "AngelWarrior_903770",
    "link_img": "https://live.staticflickr.com/65535/49710889316_c5aebfded1_o.jpg",
    "id_image": "AngelWarrior_903770",
    "count_view": 0
  },
  {
    "link_thumb": "https://live.staticflickr.com/65535/49710688148_a38332187f_n.jpg",
    "id_album": "-437872736",
    "description": "Creature_385492",
    "title": "Creature_385492",
    "link_img": "https://live.staticflickr.com/65535/49710688148_436fb156d1_o.jpg",
    "id_image": "Creature_385492",
    "count_view": 0
  },
  {
    "link_thumb": "https://live.staticflickr.com/65535/49711232977_d4ee435db4_n.jpg",
    "id_album": "-1913845949",
    "description": "Animal_636056",
    "title": "Animal_636056",
    "link_img": "https://live.staticflickr.com/65535/49711232977_4f92e16266_o.jpg",
    "id_image": "Animal_636056",
    "count_view": 0
  },
  {
    "link_thumb": "https://live.staticflickr.com/65535/49711354956_8c826c161d_n.jpg",
    "id_album": "850176884",
    "description": "Dragon_109212",
    "title": "Dragon_109212",
    "link_img": "https://live.staticflickr.com/65535/49711354956_4973074168_o.jpg",
    "id_image": "Dragon_109212",
    "count_view": 0
  },
  {
    "link_thumb": "https://live.staticflickr.com/65535/49711207087_16168449b1_n.jpg",
    "id_album": "-1000175186",
    "description": "AngelWarrior_55565",
    "title": "AngelWarrior_55565",
    "link_img": "https://live.staticflickr.com/65535/49711207087_91f3c534fd_o.jpg",
    "id_image": "AngelWarrior_55565",
    "count_view": 0
  },
  {
    "link_thumb": "https://live.staticflickr.com/65535/49711889476_df9c473f74_n.jpg",
    "id_album": "-833110404",
    "description": "Landscape_152097",
    "title": "Landscape_152097",
    "link_img": "https://live.staticflickr.com/65535/49711889476_435292dabe_o.jpg",
    "id_image": "Landscape_152097",
    "count_view": 0
  },
  {
    "link_thumb": "https://live.staticflickr.com/65535/49711416781_0bc871800f_n.jpg",
    "id_album": "850176884",
    "description": "Dragon_313355",
    "title": "Dragon_313355",
    "link_img": "https://live.staticflickr.com/65535/49711416781_5fd91d7dc9_o.jpg",
    "id_image": "Dragon_313355",
    "count_view": 0
  },
  {
    "link_thumb": "https://live.staticflickr.com/65535/49711076476_134619a633_n.jpg",
    "id_album": "430704260",
    "description": "Child_183123",
    "title": "Child_183123",
    "link_img": "https://live.staticflickr.com/65535/49711076476_0cbf34776a_o.jpg",
    "id_image": "Child_183123",
    "count_view": 0
  },
  {
    "link_thumb": "https://live.staticflickr.com/65535/49711750006_c3d00b22d6_n.jpg",
    "id_album": "857581314",
    "description": "Griffin_197573",
    "title": "Griffin_197573",
    "link_img": "https://live.staticflickr.com/65535/49711750006_2ebbb42176_o.jpg",
    "id_image": "Griffin_197573",
    "count_view": 0
  },
  {
    "link_thumb": "https://live.staticflickr.com/65535/49710540213_dea81a7d1a_n.jpg",
    "id_album": "-1741487325",
    "description": "Cat_985462",
    "title": "Cat_985462",
    "link_img": "https://live.staticflickr.com/65535/49710540213_86c5b7d695_o.jpg",
    "id_image": "Cat_985462",
    "count_view": 0
  },
  {
    "link_thumb": "https://live.staticflickr.com/65535/49710585648_4a0d83f4af_n.jpg",
    "id_album": "-1964113117",
    "description": "City_85359",
    "title": "City_85359",
    "link_img": "https://live.staticflickr.com/65535/49710585648_8e660436a6_o.jpg",
    "id_image": "City_85359",
    "count_view": 0
  },
  {
    "link_thumb": "https://live.staticflickr.com/65535/49712302506_8460cacf19_n.jpg",
    "id_album": "-362161606",
    "description": "WOMAN2610191652113",
    "title": "WOMAN2610191652113",
    "link_img": "https://live.staticflickr.com/65535/49712302506_7b79eee8a5_o.jpg",
    "id_image": "WOMAN2610191652113",
    "count_view": 0
  },
  {
    "link_thumb": "https://live.staticflickr.com/65535/49712325066_7ed67c27cf_n.jpg",
    "id_album": "-1126835654",
    "description": "Women_880531",
    "title": "Women_880531",
    "link_img": "https://live.staticflickr.com/65535/49712325066_6474392444_o.jpg",
    "id_image": "Women_880531",
    "count_view": 0
  },
  {
    "link_thumb": "https://live.staticflickr.com/65535/49710967181_e89f3d2f30_n.jpg",
    "id_album": "523598895",
    "description": "Artistic_419461",
    "title": "Artistic_419461",
    "link_img": "https://live.staticflickr.com/65535/49710967181_27db025881_o.jpg",
    "id_image": "Artistic_419461",
    "count_view": 0
  },
  {
    "link_thumb": "https://live.staticflickr.com/65535/49710968346_f59b9d823e_n.jpg",
    "id_album": "523598895",
    "description": "Artistic_453023",
    "title": "Artistic_453023",
    "link_img": "https://live.staticflickr.com/65535/49710968346_d38b4b884b_o.jpg",
    "id_image": "Artistic_453023",
    "count_view": 0
  },
  {
    "link_thumb": "https://live.staticflickr.com/65535/49710584738_e8d85efbf8_n.jpg",
    "id_album": "-1964113117",
    "description": "City_831208",
    "title": "City_831208",
    "link_img": "https://live.staticflickr.com/65535/49710584738_369eced570_o.jpg",
    "id_image": "City_831208",
    "count_view": 0
  },
  {
    "link_thumb": "https://live.staticflickr.com/65535/49710410943_8076e14e75_n.jpg",
    "id_album": "523598895",
    "description": "Artistic_151980",
    "title": "Artistic_151980",
    "link_img": "https://live.staticflickr.com/65535/49710410943_656f9effab_o.jpg",
    "id_image": "Artistic_151980",
    "count_view": 0
  },
  {
    "link_thumb": "https://live.staticflickr.com/65535/49711387006_2980caf9ec_n.jpg",
    "id_album": "850176884",
    "description": "Dragon_214281",
    "title": "Dragon_214281",
    "link_img": "https://live.staticflickr.com/65535/49711387006_05b4d930f6_o.jpg",
    "id_image": "Dragon_214281",
    "count_view": 0
  },
  {
    "link_thumb": "https://live.staticflickr.com/65535/49712464352_45b578064e_n.jpg",
    "id_album": "-5356651",
    "description": "Sorcerer_170703",
    "title": "Sorcerer_170703",
    "link_img": "https://live.staticflickr.com/65535/49712464352_99f63d3800_o.jpg",
    "id_image": "Sorcerer_170703",
    "count_view": 0
  },
  {
    "link_thumb": "https://live.staticflickr.com/65535/49711742302_c9f2ba7944_n.jpg",
    "id_album": "850176884",
    "description": "Dragon_323977",
    "title": "Dragon_323977",
    "link_img": "https://live.staticflickr.com/65535/49711742302_343fb9628c_o.jpg",
    "id_image": "Dragon_323977",
    "count_view": 0
  },
  {
    "link_thumb": "https://live.staticflickr.com/65535/49710617303_cde77f9c29_n.jpg",
    "id_album": "-437872736",
    "description": "Creature_182410",
    "title": "Creature_182410",
    "link_img": "https://live.staticflickr.com/65535/49710617303_fa999e556d_o.jpg",
    "id_image": "Creature_182410",
    "count_view": 0
  },
  {
    "link_thumb": "https://live.staticflickr.com/65535/49711459072_0e3c4dae9c_n.jpg",
    "id_album": "-1964113117",
    "description": "City_961975",
    "title": "City_961975",
    "link_img": "https://live.staticflickr.com/65535/49711459072_6633ed251a_o.jpg",
    "id_image": "City_961975",
    "count_view": 0
  },
  {
    "link_thumb": "https://live.staticflickr.com/65535/49710725593_9bffecdbc3_n.jpg",
    "id_album": "-437872736",
    "description": "Creature_692421",
    "title": "Creature_692421",
    "link_img": "https://live.staticflickr.com/65535/49710725593_9bc3d14d10_o.jpg",
    "id_image": "Creature_692421",
    "count_view": 0
  },
  {
    "link_thumb": "https://live.staticflickr.com/65535/49711516217_5bcca48f5c_n.jpg",
    "id_album": "-437872736",
    "description": "Creature_316150",
    "title": "Creature_316150",
    "link_img": "https://live.staticflickr.com/65535/49711516217_342fcfb0bd_o.jpg",
    "id_image": "Creature_316150",
    "count_view": 0
  },
  {
    "link_thumb": "https://live.staticflickr.com/65535/49711125916_b26a6dcda3_n.jpg",
    "id_album": "-1964113117",
    "description": "City_877865",
    "title": "City_877865",
    "link_img": "https://live.staticflickr.com/65535/49711125916_377bb580d4_o.jpg",
    "id_image": "City_877865",
    "count_view": 0
  },
  {
    "link_thumb": "https://live.staticflickr.com/65535/49711268863_4355587ecf_n.jpg",
    "id_album": "1402713104",
    "description": "Landscape_697331",
    "title": "Landscape_697331",
    "link_img": "https://live.staticflickr.com/65535/49711268863_cd9e28cd70_o.jpg",
    "id_image": "Landscape_697331",
    "count_view": 0
  },
  {
    "link_thumb": "https://live.staticflickr.com/65535/49711189693_c163a94813_n.jpg",
    "id_album": "-128218148",
    "description": "Fox_721029",
    "title": "Fox_721029",
    "link_img": "https://live.staticflickr.com/65535/49711189693_4d8827355d_o.jpg",
    "id_image": "Fox_721029",
    "count_view": 0
  },
  {
    "link_thumb": "https://live.staticflickr.com/65535/49799143942_8264751763_n.jpg",
    "id_album": "-1703946758",
    "description": "ANIME_PIC_c6d06f58b085ccb9199b647c4785548c",
    "title": "ANIME_PIC_c6d06f58b085ccb9199b647c4785548c",
    "link_img": "https://live.staticflickr.com/65535/49799143942_d71f268f14_o.jpg",
    "id_image": "ANIME_PIC_c6d06f58b085ccb9199b647c4785548c",
    "count_view": 0
  },
  {
    "link_thumb": "https://live.staticflickr.com/65535/49711138591_5060b07b8b_n.jpg",
    "id_album": "-437872736",
    "description": "Creature_111917",
    "title": "Creature_111917",
    "link_img": "https://live.staticflickr.com/65535/49711138591_0c276fee67_o.jpg",
    "id_image": "Creature_111917",
    "count_view": 0
  },
  {
    "link_thumb": "https://live.staticflickr.com/65535/49712101867_0bee24c0c8_n.jpg",
    "id_album": "469960528",
    "description": "Knight_294928",
    "title": "Knight_294928",
    "link_img": "https://live.staticflickr.com/65535/49712101867_7176791afb_o.jpg",
    "id_image": "Knight_294928",
    "count_view": 0
  },
  {
    "link_thumb": "https://live.staticflickr.com/65535/49710338973_acb090bbd1_n.jpg",
    "id_album": "-956471126",
    "description": "AliceInWonderland_879047",
    "title": "AliceInWonderland_879047",
    "link_img": "https://live.staticflickr.com/65535/49710338973_46965054b8_o.jpg",
    "id_image": "AliceInWonderland_879047",
    "count_view": 0
  },
  {
    "link_thumb": "https://live.staticflickr.com/65535/49711854892_ea14e73085_n.jpg",
    "id_album": "850176884",
    "description": "Dragon_83721",
    "title": "Dragon_83721",
    "link_img": "https://live.staticflickr.com/65535/49711854892_a655f3876a_o.jpg",
    "id_image": "Dragon_83721",
    "count_view": 0
  },
  {
    "link_thumb": "https://live.staticflickr.com/65535/49711439592_06cf741684_n.jpg",
    "id_album": "-1964113117",
    "description": "City_707123",
    "title": "City_707123",
    "link_img": "https://live.staticflickr.com/65535/49711439592_b78dde7679_o.jpg",
    "id_image": "City_707123",
    "count_view": 0
  }
]